<?xml version='1.0' encoding='UTF-8' ?>
<svg xmlns='http://www.w3.org/2000/svg' xmlns:xlink='http://www.w3.org/1999/xlink' class='svglite' width='504.00pt' height='360.00pt' viewBox='0 0 504.00 360.00'>
<defs>
  <style type='text/css'><![CDATA[
    .svglite line, .svglite polyline, .svglite polygon, .svglite path, .svglite rect, .svglite circle {
      fill: none;
      stroke: #000000;
      stroke-linecap: round;
      stroke-linejoin: round;
      stroke-miterlimit: 10.00;
    }
  ]]></style>
</defs>
<rect width='100%' height='100%' style='stroke: none; fill: #FFFFFF;'/>
<defs>
  <clipPath id='cpMC4wMHw1MDQuMDB8MC4wMHwzNjAuMDA='>
    <rect x='0.00' y='0.00' width='504.00' height='360.00' />
  </clipPath>
</defs>
<g clip-path='url(#cpMC4wMHw1MDQuMDB8MC4wMHwzNjAuMDA=)'>
<rect x='0.000000000000064' y='0.00' width='504.00' height='360.00' style='stroke-width: 1.07; stroke: #FFFFFF; fill: #FFFFFF;' />
</g>
<defs>
  <clipPath id='cpNDAuMzd8NDAyLjMzfDIzLjQ0fDMxNC4xNA=='>
    <rect x='40.37' y='23.44' width='361.95' height='290.70' />
  </clipPath>
</defs>
<g clip-path='url(#cpNDAuMzd8NDAyLjMzfDIzLjQ0fDMxNC4xNA==)'>
<rect x='40.37' y='23.44' width='361.95' height='290.70' style='stroke-width: 1.07; stroke: none; fill: #EBEBEB;' />
<polyline points='40.37,256.24 402.33,256.24 ' style='stroke-width: 0.53; stroke: #FFFFFF; stroke-linecap: butt;' />
<polyline points='40.37,166.88 402.33,166.88 ' style='stroke-width: 0.53; stroke: #FFFFFF; stroke-linecap: butt;' />
<polyline points='40.37,77.52 402.33,77.52 ' style='stroke-width: 0.53; stroke: #FFFFFF; stroke-linecap: butt;' />
<polyline points='40.37,300.93 402.33,300.93 ' style='stroke-width: 1.07; stroke: #FFFFFF; stroke-linecap: butt;' />
<polyline points='40.37,211.56 402.33,211.56 ' style='stroke-width: 1.07; stroke: #FFFFFF; stroke-linecap: butt;' />
<polyline points='40.37,122.20 402.33,122.20 ' style='stroke-width: 1.07; stroke: #FFFFFF; stroke-linecap: butt;' />
<polyline points='40.37,32.84 402.33,32.84 ' style='stroke-width: 1.07; stroke: #FFFFFF; stroke-linecap: butt;' />
<polyline points='75.40,314.14 75.40,23.44 ' style='stroke-width: 1.07; stroke: #FFFFFF; stroke-linecap: butt;' />
<polyline points='133.78,314.14 133.78,23.44 ' style='stroke-width: 1.07; stroke: #FFFFFF; stroke-linecap: butt;' />
<polyline points='192.16,314.14 192.16,23.44 ' style='stroke-width: 1.07; stroke: #FFFFFF; stroke-linecap: butt;' />
<polyline points='250.54,314.14 250.54,23.44 ' style='stroke-width: 1.07; stroke: #FFFFFF; stroke-linecap: butt;' />
<polyline points='308.92,314.14 308.92,23.44 ' style='stroke-width: 1.07; stroke: #FFFFFF; stroke-linecap: butt;' />
<polyline points='367.30,314.14 367.30,23.44 ' style='stroke-width: 1.07; stroke: #FFFFFF; stroke-linecap: butt;' />
<line x1='75.40' y1='39.83' x2='75.40' y2='36.65' style='stroke-width: 1.07; stroke: #333333; stroke-linecap: butt;' />
<line x1='75.40' y1='268.14' x2='75.40' y2='281.57' style='stroke-width: 1.07; stroke: #333333; stroke-linecap: butt;' />
<polygon points='53.51,39.83 53.51,268.14 97.29,268.14 97.29,39.83 53.51,39.83 ' style='stroke-width: 1.07; stroke: #333333; fill: #F8766D;' />
<line x1='53.51' y1='157.09' x2='97.29' y2='157.09' style='stroke-width: 2.13; stroke: #333333; stroke-linecap: butt;' />
<circle cx='133.78' cy='295.62' r='1.95' style='stroke-width: 0.71; stroke: #333333; fill: #333333;' />
<circle cx='133.78' cy='295.72' r='1.95' style='stroke-width: 0.71; stroke: #333333; fill: #333333;' />
<circle cx='133.78' cy='295.77' r='1.95' style='stroke-width: 0.71; stroke: #333333; fill: #333333;' />
<circle cx='133.78' cy='295.60' r='1.95' style='stroke-width: 0.71; stroke: #333333; fill: #333333;' />
<circle cx='133.78' cy='295.66' r='1.95' style='stroke-width: 0.71; stroke: #333333; fill: #333333;' />
<circle cx='133.78' cy='295.72' r='1.95' style='stroke-width: 0.71; stroke: #333333; fill: #333333;' />
<circle cx='133.78' cy='295.78' r='1.95' style='stroke-width: 0.71; stroke: #333333; fill: #333333;' />
<circle cx='133.78' cy='295.84' r='1.95' style='stroke-width: 0.71; stroke: #333333; fill: #333333;' />
<circle cx='133.78' cy='295.90' r='1.95' style='stroke-width: 0.71; stroke: #333333; fill: #333333;' />
<circle cx='133.78' cy='295.96' r='1.95' style='stroke-width: 0.71; stroke: #333333; fill: #333333;' />
<circle cx='133.78' cy='296.02' r='1.95' style='stroke-width: 0.71; stroke: #333333; fill: #333333;' />
<circle cx='133.78' cy='296.07' r='1.95' style='stroke-width: 0.71; stroke: #333333; fill: #333333;' />
<circle cx='133.78' cy='296.12' r='1.95' style='stroke-width: 0.71; stroke: #333333; fill: #333333;' />
<circle cx='133.78' cy='296.17' r='1.95' style='stroke-width: 0.71; stroke: #333333; fill: #333333;' />
<circle cx='133.78' cy='296.23' r='1.95' style='stroke-width: 0.71; stroke: #333333; fill: #333333;' />
<circle cx='133.78' cy='296.30' r='1.95' style='stroke-width: 0.71; stroke: #333333; fill: #333333;' />
<circle cx='133.78' cy='296.36' r='1.95' style='stroke-width: 0.71; stroke: #333333; fill: #333333;' />
<circle cx='133.78' cy='296.42' r='1.95' style='stroke-width: 0.71; stroke: #333333; fill: #333333;' />
<circle cx='133.78' cy='296.49' r='1.95' style='stroke-width: 0.71; stroke: #333333; fill: #333333;' />
<circle cx='133.78' cy='296.54' r='1.95' style='stroke-width: 0.71; stroke: #333333; fill: #333333;' />
<circle cx='133.78' cy='296.60' r='1.95' style='stroke-width: 0.71; stroke: #333333; fill: #333333;' />
<circle cx='133.78' cy='296.66' r='1.95' style='stroke-width: 0.71; stroke: #333333; fill: #333333;' />
<circle cx='133.78' cy='296.73' r='1.95' style='stroke-width: 0.71; stroke: #333333; fill: #333333;' />
<circle cx='133.78' cy='296.81' r='1.95' style='stroke-width: 0.71; stroke: #333333; fill: #333333;' />
<circle cx='133.78' cy='296.87' r='1.95' style='stroke-width: 0.71; stroke: #333333; fill: #333333;' />
<circle cx='133.78' cy='296.93' r='1.95' style='stroke-width: 0.71; stroke: #333333; fill: #333333;' />
<circle cx='133.78' cy='296.98' r='1.95' style='stroke-width: 0.71; stroke: #333333; fill: #333333;' />
<circle cx='133.78' cy='297.05' r='1.95' style='stroke-width: 0.71; stroke: #333333; fill: #333333;' />
<circle cx='133.78' cy='297.11' r='1.95' style='stroke-width: 0.71; stroke: #333333; fill: #333333;' />
<circle cx='133.78' cy='297.17' r='1.95' style='stroke-width: 0.71; stroke: #333333; fill: #333333;' />
<circle cx='133.78' cy='297.24' r='1.95' style='stroke-width: 0.71; stroke: #333333; fill: #333333;' />
<circle cx='133.78' cy='297.30' r='1.95' style='stroke-width: 0.71; stroke: #333333; fill: #333333;' />
<circle cx='133.78' cy='297.35' r='1.95' style='stroke-width: 0.71; stroke: #333333; fill: #333333;' />
<circle cx='133.78' cy='297.42' r='1.95' style='stroke-width: 0.71; stroke: #333333; fill: #333333;' />
<circle cx='133.78' cy='297.50' r='1.95' style='stroke-width: 0.71; stroke: #333333; fill: #333333;' />
<circle cx='133.78' cy='297.56' r='1.95' style='stroke-width: 0.71; stroke: #333333; fill: #333333;' />
<circle cx='133.78' cy='297.59' r='1.95' style='stroke-width: 0.71; stroke: #333333; fill: #333333;' />
<circle cx='133.78' cy='297.61' r='1.95' style='stroke-width: 0.71; stroke: #333333; fill: #333333;' />
<circle cx='133.78' cy='297.64' r='1.95' style='stroke-width: 0.71; stroke: #333333; fill: #333333;' />
<circle cx='133.78' cy='297.69' r='1.95' style='stroke-width: 0.71; stroke: #333333; fill: #333333;' />
<circle cx='133.78' cy='297.73' r='1.95' style='stroke-width: 0.71; stroke: #333333; fill: #333333;' />
<circle cx='133.78' cy='297.78' r='1.95' style='stroke-width: 0.71; stroke: #333333; fill: #333333;' />
<circle cx='133.78' cy='297.83' r='1.95' style='stroke-width: 0.71; stroke: #333333; fill: #333333;' />
<circle cx='133.78' cy='297.88' r='1.95' style='stroke-width: 0.71; stroke: #333333; fill: #333333;' />
<circle cx='133.78' cy='297.94' r='1.95' style='stroke-width: 0.71; stroke: #333333; fill: #333333;' />
<circle cx='133.78' cy='297.68' r='1.95' style='stroke-width: 0.71; stroke: #333333; fill: #333333;' />
<circle cx='133.78' cy='296.91' r='1.95' style='stroke-width: 0.71; stroke: #333333; fill: #333333;' />
<circle cx='133.78' cy='296.61' r='1.95' style='stroke-width: 0.71; stroke: #333333; fill: #333333;' />
<circle cx='133.78' cy='296.46' r='1.95' style='stroke-width: 0.71; stroke: #333333; fill: #333333;' />
<circle cx='133.78' cy='296.35' r='1.95' style='stroke-width: 0.71; stroke: #333333; fill: #333333;' />
<circle cx='133.78' cy='296.28' r='1.95' style='stroke-width: 0.71; stroke: #333333; fill: #333333;' />
<circle cx='133.78' cy='296.22' r='1.95' style='stroke-width: 0.71; stroke: #333333; fill: #333333;' />
<circle cx='133.78' cy='296.07' r='1.95' style='stroke-width: 0.71; stroke: #333333; fill: #333333;' />
<circle cx='133.78' cy='295.97' r='1.95' style='stroke-width: 0.71; stroke: #333333; fill: #333333;' />
<circle cx='133.78' cy='295.91' r='1.95' style='stroke-width: 0.71; stroke: #333333; fill: #333333;' />
<circle cx='133.78' cy='295.86' r='1.95' style='stroke-width: 0.71; stroke: #333333; fill: #333333;' />
<circle cx='133.78' cy='295.64' r='1.95' style='stroke-width: 0.71; stroke: #333333; fill: #333333;' />
<circle cx='133.78' cy='300.93' r='1.95' style='stroke-width: 0.71; stroke: #333333; fill: #333333;' />
<line x1='133.78' y1='292.77' x2='133.78' y2='292.11' style='stroke-width: 1.07; stroke: #333333; stroke-linecap: butt;' />
<line x1='133.78' y1='293.89' x2='133.78' y2='295.55' style='stroke-width: 1.07; stroke: #333333; stroke-linecap: butt;' />
<polygon points='111.89,292.77 111.89,293.89 155.67,293.89 155.67,292.77 111.89,292.77 ' style='stroke-width: 1.07; stroke: #333333; fill: #B79F00;' />
<line x1='111.89' y1='293.36' x2='155.67' y2='293.36' style='stroke-width: 2.13; stroke: #333333; stroke-linecap: butt;' />
<circle cx='192.16' cy='280.58' r='1.95' style='stroke-width: 0.71; stroke: #333333; fill: #333333;' />
<circle cx='192.16' cy='280.64' r='1.95' style='stroke-width: 0.71; stroke: #333333; fill: #333333;' />
<circle cx='192.16' cy='280.60' r='1.95' style='stroke-width: 0.71; stroke: #333333; fill: #333333;' />
<circle cx='192.16' cy='280.59' r='1.95' style='stroke-width: 0.71; stroke: #333333; fill: #333333;' />
<circle cx='192.16' cy='280.67' r='1.95' style='stroke-width: 0.71; stroke: #333333; fill: #333333;' />
<circle cx='192.16' cy='280.55' r='1.95' style='stroke-width: 0.71; stroke: #333333; fill: #333333;' />
<circle cx='192.16' cy='280.57' r='1.95' style='stroke-width: 0.71; stroke: #333333; fill: #333333;' />
<line x1='192.16' y1='279.35' x2='192.16' y2='278.89' style='stroke-width: 1.07; stroke: #333333; stroke-linecap: butt;' />
<line x1='192.16' y1='279.83' x2='192.16' y2='280.54' style='stroke-width: 1.07; stroke: #333333; stroke-linecap: butt;' />
<polygon points='170.27,279.35 170.27,279.83 214.05,279.83 214.05,279.35 170.27,279.35 ' style='stroke-width: 1.07; stroke: #333333; fill: #00BA38;' />
<line x1='170.27' y1='279.60' x2='214.05' y2='279.60' style='stroke-width: 2.13; stroke: #333333; stroke-linecap: butt;' />
<circle cx='250.54' cy='289.47' r='1.95' style='stroke-width: 0.71; stroke: #333333; fill: #333333;' />
<circle cx='250.54' cy='289.59' r='1.95' style='stroke-width: 0.71; stroke: #333333; fill: #333333;' />
<circle cx='250.54' cy='289.71' r='1.95' style='stroke-width: 0.71; stroke: #333333; fill: #333333;' />
<circle cx='250.54' cy='289.82' r='1.95' style='stroke-width: 0.71; stroke: #333333; fill: #333333;' />
<circle cx='250.54' cy='289.95' r='1.95' style='stroke-width: 0.71; stroke: #333333; fill: #333333;' />
<circle cx='250.54' cy='290.05' r='1.95' style='stroke-width: 0.71; stroke: #333333; fill: #333333;' />
<circle cx='250.54' cy='290.15' r='1.95' style='stroke-width: 0.71; stroke: #333333; fill: #333333;' />
<circle cx='250.54' cy='290.27' r='1.95' style='stroke-width: 0.71; stroke: #333333; fill: #333333;' />
<circle cx='250.54' cy='290.38' r='1.95' style='stroke-width: 0.71; stroke: #333333; fill: #333333;' />
<circle cx='250.54' cy='290.42' r='1.95' style='stroke-width: 0.71; stroke: #333333; fill: #333333;' />
<circle cx='250.54' cy='290.40' r='1.95' style='stroke-width: 0.71; stroke: #333333; fill: #333333;' />
<circle cx='250.54' cy='290.42' r='1.95' style='stroke-width: 0.71; stroke: #333333; fill: #333333;' />
<circle cx='250.54' cy='290.42' r='1.95' style='stroke-width: 0.71; stroke: #333333; fill: #333333;' />
<circle cx='250.54' cy='290.43' r='1.95' style='stroke-width: 0.71; stroke: #333333; fill: #333333;' />
<circle cx='250.54' cy='290.44' r='1.95' style='stroke-width: 0.71; stroke: #333333; fill: #333333;' />
<circle cx='250.54' cy='290.45' r='1.95' style='stroke-width: 0.71; stroke: #333333; fill: #333333;' />
<circle cx='250.54' cy='290.48' r='1.95' style='stroke-width: 0.71; stroke: #333333; fill: #333333;' />
<circle cx='250.54' cy='290.50' r='1.95' style='stroke-width: 0.71; stroke: #333333; fill: #333333;' />
<circle cx='250.54' cy='290.33' r='1.95' style='stroke-width: 0.71; stroke: #333333; fill: #333333;' />
<circle cx='250.54' cy='290.13' r='1.95' style='stroke-width: 0.71; stroke: #333333; fill: #333333;' />
<circle cx='250.54' cy='290.05' r='1.95' style='stroke-width: 0.71; stroke: #333333; fill: #333333;' />
<circle cx='250.54' cy='290.01' r='1.95' style='stroke-width: 0.71; stroke: #333333; fill: #333333;' />
<circle cx='250.54' cy='289.98' r='1.95' style='stroke-width: 0.71; stroke: #333333; fill: #333333;' />
<circle cx='250.54' cy='289.96' r='1.95' style='stroke-width: 0.71; stroke: #333333; fill: #333333;' />
<circle cx='250.54' cy='289.91' r='1.95' style='stroke-width: 0.71; stroke: #333333; fill: #333333;' />
<circle cx='250.54' cy='289.84' r='1.95' style='stroke-width: 0.71; stroke: #333333; fill: #333333;' />
<circle cx='250.54' cy='289.79' r='1.95' style='stroke-width: 0.71; stroke: #333333; fill: #333333;' />
<circle cx='250.54' cy='289.76' r='1.95' style='stroke-width: 0.71; stroke: #333333; fill: #333333;' />
<circle cx='250.54' cy='289.72' r='1.95' style='stroke-width: 0.71; stroke: #333333; fill: #333333;' />
<circle cx='250.54' cy='289.54' r='1.95' style='stroke-width: 0.71; stroke: #333333; fill: #333333;' />
<line x1='250.54' y1='285.19' x2='250.54' y2='284.88' style='stroke-width: 1.07; stroke: #333333; stroke-linecap: butt;' />
<line x1='250.54' y1='286.90' x2='250.54' y2='289.46' style='stroke-width: 1.07; stroke: #333333; stroke-linecap: butt;' />
<polygon points='228.65,285.19 228.65,286.90 272.43,286.90 272.43,285.19 228.65,285.19 ' style='stroke-width: 1.07; stroke: #333333; fill: #00BFC4;' />
<line x1='228.65' y1='285.85' x2='272.43' y2='285.85' style='stroke-width: 2.13; stroke: #333333; stroke-linecap: butt;' />
<line x1='308.92' y1='237.68' x2='308.92' y2='232.71' style='stroke-width: 1.07; stroke: #333333; stroke-linecap: butt;' />
<line x1='308.92' y1='248.11' x2='308.92' y2='257.66' style='stroke-width: 1.07; stroke: #333333; stroke-linecap: butt;' />
<polygon points='287.03,237.68 287.03,248.11 330.81,248.11 330.81,237.68 287.03,237.68 ' style='stroke-width: 1.07; stroke: #333333; fill: #619CFF;' />
<line x1='287.03' y1='241.61' x2='330.81' y2='241.61' style='stroke-width: 2.13; stroke: #333333; stroke-linecap: butt;' />
<line x1='367.30' y1='259.84' x2='367.30' y2='256.64' style='stroke-width: 1.07; stroke: #333333; stroke-linecap: butt;' />
<line x1='367.30' y1='269.54' x2='367.30' y2='283.51' style='stroke-width: 1.07; stroke: #333333; stroke-linecap: butt;' />
<polygon points='345.41,259.84 345.41,269.54 389.19,269.54 389.19,259.84 345.41,259.84 ' style='stroke-width: 1.07; stroke: #333333; fill: #F564E3;' />
<line x1='345.41' y1='262.94' x2='389.19' y2='262.94' style='stroke-width: 2.13; stroke: #333333; stroke-linecap: butt;' />
</g>
<g clip-path='url(#cpMC4wMHw1MDQuMDB8MC4wMHwzNjAuMDA=)'>
<text x='35.44' y='304.13' text-anchor='end' style='font-size: 8.80px; fill: #4D4D4D; font-family: Arimo;' textLength='5.59px' lengthAdjust='spacingAndGlyphs'>0</text>
<text x='35.44' y='214.77' text-anchor='end' style='font-size: 8.80px; fill: #4D4D4D; font-family: Arimo;' textLength='16.78px' lengthAdjust='spacingAndGlyphs'>200</text>
<text x='35.44' y='125.41' text-anchor='end' style='font-size: 8.80px; fill: #4D4D4D; font-family: Arimo;' textLength='16.78px' lengthAdjust='spacingAndGlyphs'>400</text>
<text x='35.44' y='36.04' text-anchor='end' style='font-size: 8.80px; fill: #4D4D4D; font-family: Arimo;' textLength='16.78px' lengthAdjust='spacingAndGlyphs'>600</text>
<polyline points='37.63,300.93 40.37,300.93 ' style='stroke-width: 1.07; stroke: #333333; stroke-linecap: butt;' />
<polyline points='37.63,211.56 40.37,211.56 ' style='stroke-width: 1.07; stroke: #333333; stroke-linecap: butt;' />
<polyline points='37.63,122.20 40.37,122.20 ' style='stroke-width: 1.07; stroke: #333333; stroke-linecap: butt;' />
<polyline points='37.63,32.84 40.37,32.84 ' style='stroke-width: 1.07; stroke: #333333; stroke-linecap: butt;' />
<polyline points='75.40,316.88 75.40,314.14 ' style='stroke-width: 1.07; stroke: #333333; stroke-linecap: butt;' />
<polyline points='133.78,316.88 133.78,314.14 ' style='stroke-width: 1.07; stroke: #333333; stroke-linecap: butt;' />
<polyline points='192.16,316.88 192.16,314.14 ' style='stroke-width: 1.07; stroke: #333333; stroke-linecap: butt;' />
<polyline points='250.54,316.88 250.54,314.14 ' style='stroke-width: 1.07; stroke: #333333; stroke-linecap: butt;' />
<polyline points='308.92,316.88 308.92,314.14 ' style='stroke-width: 1.07; stroke: #333333; stroke-linecap: butt;' />
<polyline points='367.30,316.88 367.30,314.14 ' style='stroke-width: 1.07; stroke: #333333; stroke-linecap: butt;' />
<text x='75.40' y='325.49' text-anchor='middle' style='font-size: 8.80px; fill: #4D4D4D; font-family: Arimo;' textLength='37.48px' lengthAdjust='spacingAndGlyphs'>Ashokan</text>
<text x='133.78' y='325.49' text-anchor='middle' style='font-size: 8.80px; fill: #4D4D4D; font-family: Arimo;' textLength='43.83px' lengthAdjust='spacingAndGlyphs'>Schoharie</text>
<text x='192.16' y='325.49' text-anchor='middle' style='font-size: 8.80px; fill: #4D4D4D; font-family: Arimo;' textLength='36.67px' lengthAdjust='spacingAndGlyphs'>Rondout</text>
<text x='250.54' y='325.49' text-anchor='middle' style='font-size: 8.80px; fill: #4D4D4D; font-family: Arimo;' textLength='43.93px' lengthAdjust='spacingAndGlyphs'>Neversink</text>
<text x='308.92' y='325.49' text-anchor='middle' style='font-size: 8.80px; fill: #4D4D4D; font-family: Arimo;' textLength='40.63px' lengthAdjust='spacingAndGlyphs'>Pepacton</text>
<text x='367.30' y='325.49' text-anchor='middle' style='font-size: 8.80px; fill: #4D4D4D; font-family: Arimo;' textLength='56.19px' lengthAdjust='spacingAndGlyphs'>Cannonsville</text>
<text x='221.35' y='338.23' text-anchor='middle' style='font-size: 11.00px; font-family: Arimo;' textLength='51.76px' lengthAdjust='spacingAndGlyphs'>Reservoir</text>
<text transform='translate(13.50,168.79) rotate(-90)' text-anchor='middle' style='font-size: 11.00px; font-family: Arimo;' textLength='43.04px' lengthAdjust='spacingAndGlyphs'>Storage</text>
<rect x='413.29' y='103.57' width='85.23' height='130.44' style='stroke-width: 1.07; stroke: none; fill: #FFFFFF;' />
<text x='418.77' y='118.22' style='font-size: 11.00px; font-family: Arimo;' textLength='51.76px' lengthAdjust='spacingAndGlyphs'>Reservoir</text>
<rect x='418.77' y='124.85' width='17.28' height='17.28' style='stroke-width: 1.07; stroke: none; fill: #F2F2F2;' />
<polyline points='427.41,140.40 427.41,137.81 ' style='stroke-width: 1.07; stroke: #333333;' />
<polyline points='427.41,129.17 427.41,126.58 ' style='stroke-width: 1.07; stroke: #333333;' />
<rect x='420.93' y='129.17' width='12.96' height='8.64' style='stroke-width: 1.07; stroke: #333333; fill: #F8766D;' />
<polyline points='420.93,133.49 433.89,133.49 ' style='stroke-width: 1.07; stroke: #333333;' />
<rect x='418.77' y='142.13' width='17.28' height='17.28' style='stroke-width: 1.07; stroke: none; fill: #F2F2F2;' />
<polyline points='427.41,157.68 427.41,155.09 ' style='stroke-width: 1.07; stroke: #333333;' />
<polyline points='427.41,146.45 427.41,143.86 ' style='stroke-width: 1.07; stroke: #333333;' />
<rect x='420.93' y='146.45' width='12.96' height='8.64' style='stroke-width: 1.07; stroke: #333333; fill: #B79F00;' />
<polyline points='420.93,150.77 433.89,150.77 ' style='stroke-width: 1.07; stroke: #333333;' />
<rect x='418.77' y='159.41' width='17.28' height='17.28' style='stroke-width: 1.07; stroke: none; fill: #F2F2F2;' />
<polyline points='427.41,174.96 427.41,172.37 ' style='stroke-width: 1.07; stroke: #333333;' />
<polyline points='427.41,163.73 427.41,161.14 ' style='stroke-width: 1.07; stroke: #333333;' />
<rect x='420.93' y='163.73' width='12.96' height='8.64' style='stroke-width: 1.07; stroke: #333333; fill: #00BA38;' />
<polyline points='420.93,168.05 433.89,168.05 ' style='stroke-width: 1.07; stroke: #333333;' />
<rect x='418.77' y='176.69' width='17.28' height='17.28' style='stroke-width: 1.07; stroke: none; fill: #F2F2F2;' />
<polyline points='427.41,192.24 427.41,189.65 ' style='stroke-width: 1.07; stroke: #333333;' />
<polyline points='427.41,181.01 427.41,178.42 ' style='stroke-width: 1.07; stroke: #333333;' />
<rect x='420.93' y='181.01' width='12.96' height='8.64' style='stroke-width: 1.07; stroke: #333333; fill: #00BFC4;' />
<polyline points='420.93,185.33 433.89,185.33 ' style='stroke-width: 1.07; stroke: #333333;' />
<rect x='418.77' y='193.97' width='17.28' height='17.28' style='stroke-width: 1.07; stroke: none; fill: #F2F2F2;' />
<polyline points='427.41,209.52 427.41,206.93 ' style='stroke-width: 1.07; stroke: #333333;' />
<polyline points='427.41,198.29 427.41,195.70 ' style='stroke-width: 1.07; stroke: #333333;' />
<rect x='420.93' y='198.29' width='12.96' height='8.64' style='stroke-width: 1.07; stroke: #333333; fill: #619CFF;' />
<polyline points='420.93,202.61 433.89,202.61 ' style='stroke-width: 1.07; stroke: #333333;' />
<rect x='418.77' y='211.25' width='17.28' height='17.28' style='stroke-width: 1.07; stroke: none; fill: #F2F2F2;' />
<polyline points='427.41,226.80 427.41,224.21 ' style='stroke-width: 1.07; stroke: #333333;' />
<polyline points='427.41,215.57 427.41,212.98 ' style='stroke-width: 1.07; stroke: #333333;' />
<rect x='420.93' y='215.57' width='12.96' height='8.64' style='stroke-width: 1.07; stroke: #333333; fill: #F564E3;' />
<polyline points='420.93,219.89 433.89,219.89 ' style='stroke-width: 1.07; stroke: #333333;' />
<text x='441.53' y='136.69' style='font-size: 8.80px; font-family: Arimo;' textLength='37.48px' lengthAdjust='spacingAndGlyphs'>Ashokan</text>
<text x='441.53' y='153.97' style='font-size: 8.80px; font-family: Arimo;' textLength='43.83px' lengthAdjust='spacingAndGlyphs'>Schoharie</text>
<text x='441.53' y='171.25' style='font-size: 8.80px; font-family: Arimo;' textLength='36.67px' lengthAdjust='spacingAndGlyphs'>Rondout</text>
<text x='441.53' y='188.53' style='font-size: 8.80px; font-family: Arimo;' textLength='43.93px' lengthAdjust='spacingAndGlyphs'>Neversink</text>
<text x='441.53' y='205.81' style='font-size: 8.80px; font-family: Arimo;' textLength='40.63px' lengthAdjust='spacingAndGlyphs'>Pepacton</text>
<text x='441.53' y='223.09' style='font-size: 8.80px; font-family: Arimo;' textLength='56.19px' lengthAdjust='spacingAndGlyphs'>Cannonsville</text>
<text x='40.37' y='15.10' style='font-size: 13.20px; font-family: Arimo;' textLength='319.39px' lengthAdjust='spacingAndGlyphs'>Storage of Upstate Reservoirs (billion of gallons)</text>
<text x='402.33' y='352.54' text-anchor='end' style='font-size: 8.80px; font-family: Arimo;' textLength='235.01px' lengthAdjust='spacingAndGlyphs'>Source: NYC Department of Environmental Protection</text>
</g>
</svg>
