<?xml version='1.0' encoding='UTF-8' ?>
<svg xmlns='http://www.w3.org/2000/svg' xmlns:xlink='http://www.w3.org/1999/xlink' class='svglite' width='504.00pt' height='360.00pt' viewBox='0 0 504.00 360.00'>
<defs>
  <style type='text/css'><![CDATA[
    .svglite line, .svglite polyline, .svglite polygon, .svglite path, .svglite rect, .svglite circle {
      fill: none;
      stroke: #000000;
      stroke-linecap: round;
      stroke-linejoin: round;
      stroke-miterlimit: 10.00;
    }
  ]]></style>
</defs>
<rect width='100%' height='100%' style='stroke: none; fill: #FFFFFF;'/>
<defs>
  <clipPath id='cpMC4wMHw1MDQuMDB8MC4wMHwzNjAuMDA='>
    <rect x='0.00' y='0.00' width='504.00' height='360.00' />
  </clipPath>
</defs>
<g clip-path='url(#cpMC4wMHw1MDQuMDB8MC4wMHwzNjAuMDA=)'>
<rect x='0.00000000000016' y='0.00' width='504.00' height='360.00' style='stroke-width: 1.07; stroke: #FFFFFF; fill: #FFFFFF;' />
</g>
<defs>
  <clipPath id='cpNS40OHw4NS41NHwyMy40NHwzNDAuNjU='>
    <rect x='5.48' y='23.44' width='80.06' height='317.21' />
  </clipPath>
</defs>
<g clip-path='url(#cpNS40OHw4NS41NHwyMy40NHwzNDAuNjU=)'>
<rect x='5.48' y='23.44' width='80.06' height='317.21' style='stroke-width: 1.07; stroke: #FFFFFF; fill: #FFFFFF;' />
</g>
<g clip-path='url(#cpMC4wMHw1MDQuMDB8MC4wMHwzNjAuMDA=)'>
</g>
<defs>
  <clipPath id='cpNDMuOTZ8ODAuMDZ8MjguOTJ8MzA4Ljc0'>
    <rect x='43.96' y='28.92' width='36.10' height='279.82' />
  </clipPath>
</defs>
<g clip-path='url(#cpNDMuOTZ8ODAuMDZ8MjguOTJ8MzA4Ljc0)'>
<rect x='43.96' y='28.92' width='36.10' height='279.82' style='stroke-width: 1.07; stroke: none; fill: #FFFFFF;' />
<circle cx='62.01' cy='269.96' r='1.95' style='stroke-width: 0.71; stroke: #333333; fill: #333333;' />
<circle cx='62.01' cy='272.41' r='1.95' style='stroke-width: 0.71; stroke: #333333; fill: #333333;' />
<circle cx='62.01' cy='274.68' r='1.95' style='stroke-width: 0.71; stroke: #333333; fill: #333333;' />
<circle cx='62.01' cy='276.69' r='1.95' style='stroke-width: 0.71; stroke: #333333; fill: #333333;' />
<circle cx='62.01' cy='280.36' r='1.95' style='stroke-width: 0.71; stroke: #333333; fill: #333333;' />
<circle cx='62.01' cy='284.04' r='1.95' style='stroke-width: 0.71; stroke: #333333; fill: #333333;' />
<circle cx='62.01' cy='287.01' r='1.95' style='stroke-width: 0.71; stroke: #333333; fill: #333333;' />
<circle cx='62.01' cy='289.98' r='1.95' style='stroke-width: 0.71; stroke: #333333; fill: #333333;' />
<circle cx='62.01' cy='292.34' r='1.95' style='stroke-width: 0.71; stroke: #333333; fill: #333333;' />
<circle cx='62.01' cy='296.02' r='1.95' style='stroke-width: 0.71; stroke: #333333; fill: #333333;' />
<circle cx='62.01' cy='294.00' r='1.95' style='stroke-width: 0.71; stroke: #333333; fill: #333333;' />
<circle cx='62.01' cy='291.64' r='1.95' style='stroke-width: 0.71; stroke: #333333; fill: #333333;' />
<circle cx='62.01' cy='289.63' r='1.95' style='stroke-width: 0.71; stroke: #333333; fill: #333333;' />
<circle cx='62.01' cy='287.53' r='1.95' style='stroke-width: 0.71; stroke: #333333; fill: #333333;' />
<circle cx='62.01' cy='285.61' r='1.95' style='stroke-width: 0.71; stroke: #333333; fill: #333333;' />
<circle cx='62.01' cy='283.42' r='1.95' style='stroke-width: 0.71; stroke: #333333; fill: #333333;' />
<circle cx='62.01' cy='281.41' r='1.95' style='stroke-width: 0.71; stroke: #333333; fill: #333333;' />
<circle cx='62.01' cy='278.96' r='1.95' style='stroke-width: 0.71; stroke: #333333; fill: #333333;' />
<circle cx='62.01' cy='276.69' r='1.95' style='stroke-width: 0.71; stroke: #333333; fill: #333333;' />
<circle cx='62.01' cy='274.68' r='1.95' style='stroke-width: 0.71; stroke: #333333; fill: #333333;' />
<circle cx='62.01' cy='272.49' r='1.95' style='stroke-width: 0.71; stroke: #333333; fill: #333333;' />
<circle cx='62.01' cy='270.48' r='1.95' style='stroke-width: 0.71; stroke: #333333; fill: #333333;' />
<circle cx='62.01' cy='268.47' r='1.95' style='stroke-width: 0.71; stroke: #333333; fill: #333333;' />
<circle cx='62.01' cy='266.81' r='1.95' style='stroke-width: 0.71; stroke: #333333; fill: #333333;' />
<line x1='62.01' y1='73.20' x2='62.01' y2='41.64' style='stroke-width: 1.07; stroke: #333333; stroke-linecap: butt;' />
<line x1='62.01' y1='150.33' x2='62.01' y2='264.97' style='stroke-width: 1.07; stroke: #333333; stroke-linecap: butt;' />
<polygon points='57.50,73.20 57.50,150.33 66.52,150.33 66.52,73.20 57.50,73.20 ' style='stroke-width: 1.07; stroke: #333333; fill: #FFFFFF;' />
<line x1='57.50' y1='103.90' x2='66.52' y2='103.90' style='stroke-width: 2.13; stroke: #333333; stroke-linecap: butt;' />
</g>
<g clip-path='url(#cpMC4wMHw1MDQuMDB8MC4wMHwzNjAuMDA=)'>
<text x='39.03' y='232.50' text-anchor='end' style='font-size: 8.80px; fill: #4D4D4D; font-family: Arimo;' textLength='16.78px' lengthAdjust='spacingAndGlyphs'>570</text>
<text x='39.03' y='145.06' text-anchor='end' style='font-size: 8.80px; fill: #4D4D4D; font-family: Arimo;' textLength='16.78px' lengthAdjust='spacingAndGlyphs'>580</text>
<text x='39.03' y='57.61' text-anchor='end' style='font-size: 8.80px; fill: #4D4D4D; font-family: Arimo;' textLength='16.78px' lengthAdjust='spacingAndGlyphs'>590</text>
<text x='62.01' y='320.08' text-anchor='middle' style='font-size: 8.80px; fill: #4D4D4D; font-family: Arimo;' textLength='21.63px' lengthAdjust='spacingAndGlyphs'>West</text>
<text x='62.01' y='332.81' text-anchor='middle' style='font-size: 11.00px; font-family: Arimo;' textLength='46.84px' lengthAdjust='spacingAndGlyphs'>Ashokan</text>
<text transform='translate(18.92,168.83) rotate(-90)' text-anchor='middle' style='font-size: 11.00px; font-family: Arimo;' textLength='43.04px' lengthAdjust='spacingAndGlyphs'>Storage</text>
</g>
<defs>
  <clipPath id='cpODUuNTR8MTUyLjcwfDIzLjQ0fDM0MC42NQ=='>
    <rect x='85.54' y='23.44' width='67.16' height='317.21' />
  </clipPath>
</defs>
<g clip-path='url(#cpODUuNTR8MTUyLjcwfDIzLjQ0fDM0MC42NQ==)'>
<rect x='85.54' y='23.44' width='67.16' height='317.21' style='stroke-width: 1.07; stroke: #FFFFFF; fill: #FFFFFF;' />
</g>
<g clip-path='url(#cpMC4wMHw1MDQuMDB8MC4wMHwzNjAuMDA=)'>
</g>
<defs>
  <clipPath id='cpMTExLjEyfDE0Ny4yM3wyOC45MnwzMDguNzQ='>
    <rect x='111.12' y='28.92' width='36.10' height='279.82' />
  </clipPath>
</defs>
<g clip-path='url(#cpMTExLjEyfDE0Ny4yM3wyOC45MnwzMDguNzQ=)'>
<rect x='111.12' y='28.92' width='36.10' height='279.82' style='stroke-width: 1.07; stroke: none; fill: #FFFFFF;' />
<circle cx='129.17' cy='268.06' r='1.95' style='stroke-width: 0.71; stroke: #333333; fill: #333333;' />
<circle cx='129.17' cy='271.67' r='1.95' style='stroke-width: 0.71; stroke: #333333; fill: #333333;' />
<circle cx='129.17' cy='275.87' r='1.95' style='stroke-width: 0.71; stroke: #333333; fill: #333333;' />
<circle cx='129.17' cy='279.94' r='1.95' style='stroke-width: 0.71; stroke: #333333; fill: #333333;' />
<circle cx='129.17' cy='283.54' r='1.95' style='stroke-width: 0.71; stroke: #333333; fill: #333333;' />
<circle cx='129.17' cy='287.34' r='1.95' style='stroke-width: 0.71; stroke: #333333; fill: #333333;' />
<circle cx='129.17' cy='290.35' r='1.95' style='stroke-width: 0.71; stroke: #333333; fill: #333333;' />
<circle cx='129.17' cy='293.28' r='1.95' style='stroke-width: 0.71; stroke: #333333; fill: #333333;' />
<circle cx='129.17' cy='296.02' r='1.95' style='stroke-width: 0.71; stroke: #333333; fill: #333333;' />
<circle cx='129.17' cy='283.34' r='1.95' style='stroke-width: 0.71; stroke: #333333; fill: #333333;' />
<circle cx='129.17' cy='271.60' r='1.95' style='stroke-width: 0.71; stroke: #333333; fill: #333333;' />
<line x1='129.17' y1='69.12' x2='129.17' y2='41.64' style='stroke-width: 1.07; stroke: #333333; stroke-linecap: butt;' />
<line x1='129.17' y1='148.45' x2='129.17' y2='263.93' style='stroke-width: 1.07; stroke: #333333; stroke-linecap: butt;' />
<polygon points='124.66,69.12 124.66,148.45 133.69,148.45 133.69,69.12 124.66,69.12 ' style='stroke-width: 1.07; stroke: #333333; fill: #FFFFFF;' />
<line x1='124.66' y1='95.47' x2='133.69' y2='95.47' style='stroke-width: 2.13; stroke: #333333; stroke-linecap: butt;' />
</g>
<g clip-path='url(#cpMC4wMHw1MDQuMDB8MC4wMHwzNjAuMDA=)'>
<text x='106.19' y='254.66' text-anchor='end' style='font-size: 8.80px; fill: #4D4D4D; font-family: Arimo;' textLength='11.19px' lengthAdjust='spacingAndGlyphs'>50</text>
<text x='106.19' y='187.95' text-anchor='end' style='font-size: 8.80px; fill: #4D4D4D; font-family: Arimo;' textLength='11.19px' lengthAdjust='spacingAndGlyphs'>60</text>
<text x='106.19' y='121.23' text-anchor='end' style='font-size: 8.80px; fill: #4D4D4D; font-family: Arimo;' textLength='11.19px' lengthAdjust='spacingAndGlyphs'>70</text>
<text x='106.19' y='54.52' text-anchor='end' style='font-size: 8.80px; fill: #4D4D4D; font-family: Arimo;' textLength='11.19px' lengthAdjust='spacingAndGlyphs'>80</text>
<text x='129.17' y='320.08' text-anchor='middle' style='font-size: 8.80px; fill: #4D4D4D; font-family: Arimo;' textLength='18.99px' lengthAdjust='spacingAndGlyphs'>East</text>
<text x='129.17' y='332.81' text-anchor='middle' style='font-size: 11.00px; font-family: Arimo;' textLength='46.84px' lengthAdjust='spacingAndGlyphs'>Ashokan</text>
</g>
<defs>
  <clipPath id='cpMTUyLjcwfDIxOS44N3wyMy40NHwzNDAuNjU='>
    <rect x='152.70' y='23.44' width='67.16' height='317.21' />
  </clipPath>
</defs>
<g clip-path='url(#cpMTUyLjcwfDIxOS44N3wyMy40NHwzNDAuNjU=)'>
<rect x='152.70' y='23.44' width='67.16' height='317.21' style='stroke-width: 1.07; stroke: #FFFFFF; fill: #FFFFFF;' />
</g>
<g clip-path='url(#cpMC4wMHw1MDQuMDB8MC4wMHwzNjAuMDA=)'>
</g>
<defs>
  <clipPath id='cpMTc4LjI4fDIxNC4zOXwyOC45MnwzMDguNzQ='>
    <rect x='178.28' y='28.92' width='36.10' height='279.82' />
  </clipPath>
</defs>
<g clip-path='url(#cpMTc4LjI4fDIxNC4zOXwyOC45MnwzMDguNzQ=)'>
<rect x='178.28' y='28.92' width='36.10' height='279.82' style='stroke-width: 1.07; stroke: none; fill: #FFFFFF;' />
<circle cx='196.34' cy='142.90' r='1.95' style='stroke-width: 0.71; stroke: #333333; fill: #333333;' />
<circle cx='196.34' cy='145.61' r='1.95' style='stroke-width: 0.71; stroke: #333333; fill: #333333;' />
<circle cx='196.34' cy='147.16' r='1.95' style='stroke-width: 0.71; stroke: #333333; fill: #333333;' />
<circle cx='196.34' cy='142.38' r='1.95' style='stroke-width: 0.71; stroke: #333333; fill: #333333;' />
<circle cx='196.34' cy='144.06' r='1.95' style='stroke-width: 0.71; stroke: #333333; fill: #333333;' />
<circle cx='196.34' cy='145.74' r='1.95' style='stroke-width: 0.71; stroke: #333333; fill: #333333;' />
<circle cx='196.34' cy='147.41' r='1.95' style='stroke-width: 0.71; stroke: #333333; fill: #333333;' />
<circle cx='196.34' cy='149.22' r='1.95' style='stroke-width: 0.71; stroke: #333333; fill: #333333;' />
<circle cx='196.34' cy='151.02' r='1.95' style='stroke-width: 0.71; stroke: #333333; fill: #333333;' />
<circle cx='196.34' cy='152.57' r='1.95' style='stroke-width: 0.71; stroke: #333333; fill: #333333;' />
<circle cx='196.34' cy='154.38' r='1.95' style='stroke-width: 0.71; stroke: #333333; fill: #333333;' />
<circle cx='196.34' cy='155.80' r='1.95' style='stroke-width: 0.71; stroke: #333333; fill: #333333;' />
<circle cx='196.34' cy='157.22' r='1.95' style='stroke-width: 0.71; stroke: #333333; fill: #333333;' />
<circle cx='196.34' cy='158.76' r='1.95' style='stroke-width: 0.71; stroke: #333333; fill: #333333;' />
<circle cx='196.34' cy='160.44' r='1.95' style='stroke-width: 0.71; stroke: #333333; fill: #333333;' />
<circle cx='196.34' cy='162.51' r='1.95' style='stroke-width: 0.71; stroke: #333333; fill: #333333;' />
<circle cx='196.34' cy='164.31' r='1.95' style='stroke-width: 0.71; stroke: #333333; fill: #333333;' />
<circle cx='196.34' cy='165.99' r='1.95' style='stroke-width: 0.71; stroke: #333333; fill: #333333;' />
<circle cx='196.34' cy='167.92' r='1.95' style='stroke-width: 0.71; stroke: #333333; fill: #333333;' />
<circle cx='196.34' cy='169.34' r='1.95' style='stroke-width: 0.71; stroke: #333333; fill: #333333;' />
<circle cx='196.34' cy='171.15' r='1.95' style='stroke-width: 0.71; stroke: #333333; fill: #333333;' />
<circle cx='196.34' cy='172.95' r='1.95' style='stroke-width: 0.71; stroke: #333333; fill: #333333;' />
<circle cx='196.34' cy='175.02' r='1.95' style='stroke-width: 0.71; stroke: #333333; fill: #333333;' />
<circle cx='196.34' cy='177.08' r='1.95' style='stroke-width: 0.71; stroke: #333333; fill: #333333;' />
<circle cx='196.34' cy='178.89' r='1.95' style='stroke-width: 0.71; stroke: #333333; fill: #333333;' />
<circle cx='196.34' cy='180.69' r='1.95' style='stroke-width: 0.71; stroke: #333333; fill: #333333;' />
<circle cx='196.34' cy='182.24' r='1.95' style='stroke-width: 0.71; stroke: #333333; fill: #333333;' />
<circle cx='196.34' cy='184.05' r='1.95' style='stroke-width: 0.71; stroke: #333333; fill: #333333;' />
<circle cx='196.34' cy='185.85' r='1.95' style='stroke-width: 0.71; stroke: #333333; fill: #333333;' />
<circle cx='196.34' cy='187.66' r='1.95' style='stroke-width: 0.71; stroke: #333333; fill: #333333;' />
<circle cx='196.34' cy='189.59' r='1.95' style='stroke-width: 0.71; stroke: #333333; fill: #333333;' />
<circle cx='196.34' cy='191.27' r='1.95' style='stroke-width: 0.71; stroke: #333333; fill: #333333;' />
<circle cx='196.34' cy='192.82' r='1.95' style='stroke-width: 0.71; stroke: #333333; fill: #333333;' />
<circle cx='196.34' cy='194.75' r='1.95' style='stroke-width: 0.71; stroke: #333333; fill: #333333;' />
<circle cx='196.34' cy='197.08' r='1.95' style='stroke-width: 0.71; stroke: #333333; fill: #333333;' />
<circle cx='196.34' cy='198.75' r='1.95' style='stroke-width: 0.71; stroke: #333333; fill: #333333;' />
<circle cx='196.34' cy='199.79' r='1.95' style='stroke-width: 0.71; stroke: #333333; fill: #333333;' />
<circle cx='196.34' cy='200.17' r='1.95' style='stroke-width: 0.71; stroke: #333333; fill: #333333;' />
<circle cx='196.34' cy='201.20' r='1.95' style='stroke-width: 0.71; stroke: #333333; fill: #333333;' />
<circle cx='196.34' cy='202.49' r='1.95' style='stroke-width: 0.71; stroke: #333333; fill: #333333;' />
<circle cx='196.34' cy='203.78' r='1.95' style='stroke-width: 0.71; stroke: #333333; fill: #333333;' />
<circle cx='196.34' cy='205.20' r='1.95' style='stroke-width: 0.71; stroke: #333333; fill: #333333;' />
<circle cx='196.34' cy='206.75' r='1.95' style='stroke-width: 0.71; stroke: #333333; fill: #333333;' />
<circle cx='196.34' cy='208.17' r='1.95' style='stroke-width: 0.71; stroke: #333333; fill: #333333;' />
<circle cx='196.34' cy='209.98' r='1.95' style='stroke-width: 0.71; stroke: #333333; fill: #333333;' />
<circle cx='196.34' cy='202.24' r='1.95' style='stroke-width: 0.71; stroke: #333333; fill: #333333;' />
<circle cx='196.34' cy='180.18' r='1.95' style='stroke-width: 0.71; stroke: #333333; fill: #333333;' />
<circle cx='196.34' cy='171.41' r='1.95' style='stroke-width: 0.71; stroke: #333333; fill: #333333;' />
<circle cx='196.34' cy='167.02' r='1.95' style='stroke-width: 0.71; stroke: #333333; fill: #333333;' />
<circle cx='196.34' cy='164.05' r='1.95' style='stroke-width: 0.71; stroke: #333333; fill: #333333;' />
<circle cx='196.34' cy='161.86' r='1.95' style='stroke-width: 0.71; stroke: #333333; fill: #333333;' />
<circle cx='196.34' cy='160.05' r='1.95' style='stroke-width: 0.71; stroke: #333333; fill: #333333;' />
<circle cx='196.34' cy='155.80' r='1.95' style='stroke-width: 0.71; stroke: #333333; fill: #333333;' />
<circle cx='196.34' cy='152.96' r='1.95' style='stroke-width: 0.71; stroke: #333333; fill: #333333;' />
<circle cx='196.34' cy='151.15' r='1.95' style='stroke-width: 0.71; stroke: #333333; fill: #333333;' />
<circle cx='196.34' cy='149.74' r='1.95' style='stroke-width: 0.71; stroke: #333333; fill: #333333;' />
<circle cx='196.34' cy='143.54' r='1.95' style='stroke-width: 0.71; stroke: #333333; fill: #333333;' />
<circle cx='196.34' cy='296.02' r='1.95' style='stroke-width: 0.71; stroke: #333333; fill: #333333;' />
<line x1='196.34' y1='60.47' x2='196.34' y2='41.64' style='stroke-width: 1.07; stroke: #333333; stroke-linecap: butt;' />
<line x1='196.34' y1='92.85' x2='196.34' y2='140.96' style='stroke-width: 1.07; stroke: #333333; stroke-linecap: butt;' />
<polygon points='191.82,60.47 191.82,92.85 200.85,92.85 200.85,60.47 191.82,60.47 ' style='stroke-width: 1.07; stroke: #333333; fill: #FFFFFF;' />
<line x1='191.82' y1='77.76' x2='200.85' y2='77.76' style='stroke-width: 2.13; stroke: #333333; stroke-linecap: butt;' />
</g>
<g clip-path='url(#cpMC4wMHw1MDQuMDB8MC4wMHwzNjAuMDA=)'>
<text x='173.35' y='299.22' text-anchor='end' style='font-size: 8.80px; fill: #4D4D4D; font-family: Arimo;' textLength='5.59px' lengthAdjust='spacingAndGlyphs'>0</text>
<text x='173.35' y='234.73' text-anchor='end' style='font-size: 8.80px; fill: #4D4D4D; font-family: Arimo;' textLength='5.59px' lengthAdjust='spacingAndGlyphs'>5</text>
<text x='173.35' y='170.23' text-anchor='end' style='font-size: 8.80px; fill: #4D4D4D; font-family: Arimo;' textLength='11.19px' lengthAdjust='spacingAndGlyphs'>10</text>
<text x='173.35' y='105.73' text-anchor='end' style='font-size: 8.80px; fill: #4D4D4D; font-family: Arimo;' textLength='11.19px' lengthAdjust='spacingAndGlyphs'>15</text>
<text x='173.35' y='41.23' text-anchor='end' style='font-size: 8.80px; fill: #4D4D4D; font-family: Arimo;' textLength='11.19px' lengthAdjust='spacingAndGlyphs'>20</text>
<text x='196.34' y='320.08' text-anchor='middle' style='font-size: 8.80px; fill: #4D4D4D; font-family: Arimo;' textLength='43.83px' lengthAdjust='spacingAndGlyphs'>Schoharie</text>
</g>
<defs>
  <clipPath id='cpMjE5Ljg3fDI4Ny4wM3wyMy40NHwzNDAuNjU='>
    <rect x='219.87' y='23.44' width='67.16' height='317.21' />
  </clipPath>
</defs>
<g clip-path='url(#cpMjE5Ljg3fDI4Ny4wM3wyMy40NHwzNDAuNjU=)'>
<rect x='219.87' y='23.44' width='67.16' height='317.21' style='stroke-width: 1.07; stroke: #FFFFFF; fill: #FFFFFF;' />
</g>
<g clip-path='url(#cpMC4wMHw1MDQuMDB8MC4wMHwzNjAuMDA=)'>
</g>
<defs>
  <clipPath id='cpMjQ1LjQ0fDI4MS41NXwyOC45MnwzMDguNzQ='>
    <rect x='245.44' y='28.92' width='36.10' height='279.82' />
  </clipPath>
</defs>
<g clip-path='url(#cpMjQ1LjQ0fDI4MS41NXwyOC45MnwzMDguNzQ=)'>
<rect x='245.44' y='28.92' width='36.10' height='279.82' style='stroke-width: 1.07; stroke: none; fill: #FFFFFF;' />
<circle cx='263.50' cy='283.20' r='1.95' style='stroke-width: 0.71; stroke: #333333; fill: #333333;' />
<circle cx='263.50' cy='291.53' r='1.95' style='stroke-width: 0.71; stroke: #333333; fill: #333333;' />
<circle cx='263.50' cy='287.05' r='1.95' style='stroke-width: 0.71; stroke: #333333; fill: #333333;' />
<circle cx='263.50' cy='285.12' r='1.95' style='stroke-width: 0.71; stroke: #333333; fill: #333333;' />
<circle cx='263.50' cy='296.02' r='1.95' style='stroke-width: 0.71; stroke: #333333; fill: #333333;' />
<circle cx='263.50' cy='280.00' r='1.95' style='stroke-width: 0.71; stroke: #333333; fill: #333333;' />
<circle cx='263.50' cy='281.92' r='1.95' style='stroke-width: 0.71; stroke: #333333; fill: #333333;' />
<line x1='263.50' y1='106.99' x2='263.50' y2='41.64' style='stroke-width: 1.07; stroke: #333333; stroke-linecap: butt;' />
<line x1='263.50' y1='175.55' x2='263.50' y2='277.43' style='stroke-width: 1.07; stroke: #333333; stroke-linecap: butt;' />
<polygon points='258.98,106.99 258.98,175.55 268.01,175.55 268.01,106.99 258.98,106.99 ' style='stroke-width: 1.07; stroke: #333333; fill: #FFFFFF;' />
<line x1='258.98' y1='142.88' x2='268.01' y2='142.88' style='stroke-width: 2.13; stroke: #333333; stroke-linecap: butt;' />
</g>
<g clip-path='url(#cpMC4wMHw1MDQuMDB8MC4wMHwzNjAuMDA=)'>
<text x='240.51' y='256.93' text-anchor='end' style='font-size: 8.80px; fill: #4D4D4D; font-family: Arimo;' textLength='11.19px' lengthAdjust='spacingAndGlyphs'>46</text>
<text x='240.51' y='192.86' text-anchor='end' style='font-size: 8.80px; fill: #4D4D4D; font-family: Arimo;' textLength='11.19px' lengthAdjust='spacingAndGlyphs'>47</text>
<text x='240.51' y='128.78' text-anchor='end' style='font-size: 8.80px; fill: #4D4D4D; font-family: Arimo;' textLength='11.19px' lengthAdjust='spacingAndGlyphs'>48</text>
<text x='240.51' y='64.71' text-anchor='end' style='font-size: 8.80px; fill: #4D4D4D; font-family: Arimo;' textLength='11.19px' lengthAdjust='spacingAndGlyphs'>49</text>
<text x='263.50' y='320.08' text-anchor='middle' style='font-size: 8.80px; fill: #4D4D4D; font-family: Arimo;' textLength='36.67px' lengthAdjust='spacingAndGlyphs'>Rondout</text>
</g>
<defs>
  <clipPath id='cpMjg3LjAzfDM1NC4xOXwyMy40NHwzNDAuNjU='>
    <rect x='287.03' y='23.44' width='67.16' height='317.21' />
  </clipPath>
</defs>
<g clip-path='url(#cpMjg3LjAzfDM1NC4xOXwyMy40NHwzNDAuNjU=)'>
<rect x='287.03' y='23.44' width='67.16' height='317.21' style='stroke-width: 1.07; stroke: #FFFFFF; fill: #FFFFFF;' />
</g>
<g clip-path='url(#cpMC4wMHw1MDQuMDB8MC4wMHwzNjAuMDA=)'>
</g>
<defs>
  <clipPath id='cpMzEyLjYxfDM0OC43MXwyOC45MnwzMDguNzQ='>
    <rect x='312.61' y='28.92' width='36.10' height='279.82' />
  </clipPath>
</defs>
<g clip-path='url(#cpMzEyLjYxfDM0OC43MXwyOC45MnwzMDguNzQ=)'>
<rect x='312.61' y='28.92' width='36.10' height='279.82' style='stroke-width: 1.07; stroke: none; fill: #FFFFFF;' />
<circle cx='330.66' cy='249.27' r='1.95' style='stroke-width: 0.71; stroke: #333333; fill: #333333;' />
<circle cx='330.66' cy='254.94' r='1.95' style='stroke-width: 0.71; stroke: #333333; fill: #333333;' />
<circle cx='330.66' cy='260.20' r='1.95' style='stroke-width: 0.71; stroke: #333333; fill: #333333;' />
<circle cx='330.66' cy='265.26' r='1.95' style='stroke-width: 0.71; stroke: #333333; fill: #333333;' />
<circle cx='330.66' cy='270.92' r='1.95' style='stroke-width: 0.71; stroke: #333333; fill: #333333;' />
<circle cx='330.66' cy='275.37' r='1.95' style='stroke-width: 0.71; stroke: #333333; fill: #333333;' />
<circle cx='330.66' cy='280.23' r='1.95' style='stroke-width: 0.71; stroke: #333333; fill: #333333;' />
<circle cx='330.66' cy='285.70' r='1.95' style='stroke-width: 0.71; stroke: #333333; fill: #333333;' />
<circle cx='330.66' cy='290.35' r='1.95' style='stroke-width: 0.71; stroke: #333333; fill: #333333;' />
<circle cx='330.66' cy='292.37' r='1.95' style='stroke-width: 0.71; stroke: #333333; fill: #333333;' />
<circle cx='330.66' cy='291.36' r='1.95' style='stroke-width: 0.71; stroke: #333333; fill: #333333;' />
<circle cx='330.66' cy='292.37' r='1.95' style='stroke-width: 0.71; stroke: #333333; fill: #333333;' />
<circle cx='330.66' cy='292.58' r='1.95' style='stroke-width: 0.71; stroke: #333333; fill: #333333;' />
<circle cx='330.66' cy='292.98' r='1.95' style='stroke-width: 0.71; stroke: #333333; fill: #333333;' />
<circle cx='330.66' cy='293.39' r='1.95' style='stroke-width: 0.71; stroke: #333333; fill: #333333;' />
<circle cx='330.66' cy='293.79' r='1.95' style='stroke-width: 0.71; stroke: #333333; fill: #333333;' />
<circle cx='330.66' cy='295.21' r='1.95' style='stroke-width: 0.71; stroke: #333333; fill: #333333;' />
<circle cx='330.66' cy='296.02' r='1.95' style='stroke-width: 0.71; stroke: #333333; fill: #333333;' />
<circle cx='330.66' cy='288.33' r='1.95' style='stroke-width: 0.71; stroke: #333333; fill: #333333;' />
<circle cx='330.66' cy='279.42' r='1.95' style='stroke-width: 0.71; stroke: #333333; fill: #333333;' />
<circle cx='330.66' cy='275.78' r='1.95' style='stroke-width: 0.71; stroke: #333333; fill: #333333;' />
<circle cx='330.66' cy='273.96' r='1.95' style='stroke-width: 0.71; stroke: #333333; fill: #333333;' />
<circle cx='330.66' cy='272.54' r='1.95' style='stroke-width: 0.71; stroke: #333333; fill: #333333;' />
<circle cx='330.66' cy='271.53' r='1.95' style='stroke-width: 0.71; stroke: #333333; fill: #333333;' />
<circle cx='330.66' cy='269.10' r='1.95' style='stroke-width: 0.71; stroke: #333333; fill: #333333;' />
<circle cx='330.66' cy='265.86' r='1.95' style='stroke-width: 0.71; stroke: #333333; fill: #333333;' />
<circle cx='330.66' cy='263.84' r='1.95' style='stroke-width: 0.71; stroke: #333333; fill: #333333;' />
<circle cx='330.66' cy='262.42' r='1.95' style='stroke-width: 0.71; stroke: #333333; fill: #333333;' />
<circle cx='330.66' cy='260.80' r='1.95' style='stroke-width: 0.71; stroke: #333333; fill: #333333;' />
<circle cx='330.66' cy='252.71' r='1.95' style='stroke-width: 0.71; stroke: #333333; fill: #333333;' />
<line x1='330.66' y1='55.40' x2='330.66' y2='41.64' style='stroke-width: 1.07; stroke: #333333; stroke-linecap: butt;' />
<line x1='330.66' y1='132.91' x2='330.66' y2='248.66' style='stroke-width: 1.07; stroke: #333333; stroke-linecap: butt;' />
<polygon points='326.15,55.40 326.15,132.91 335.17,132.91 335.17,55.40 326.15,55.40 ' style='stroke-width: 1.07; stroke: #333333; fill: #FFFFFF;' />
<line x1='326.15' y1='85.35' x2='335.17' y2='85.35' style='stroke-width: 2.13; stroke: #333333; stroke-linecap: butt;' />
</g>
<g clip-path='url(#cpMC4wMHw1MDQuMDB8MC4wMHwzNjAuMDA=)'>
<text x='307.67' y='285.67' text-anchor='end' style='font-size: 8.80px; fill: #4D4D4D; font-family: Arimo;' textLength='11.19px' lengthAdjust='spacingAndGlyphs'>24</text>
<text x='307.67' y='204.72' text-anchor='end' style='font-size: 8.80px; fill: #4D4D4D; font-family: Arimo;' textLength='11.19px' lengthAdjust='spacingAndGlyphs'>28</text>
<text x='307.67' y='123.77' text-anchor='end' style='font-size: 8.80px; fill: #4D4D4D; font-family: Arimo;' textLength='11.19px' lengthAdjust='spacingAndGlyphs'>32</text>
<text x='307.67' y='42.82' text-anchor='end' style='font-size: 8.80px; fill: #4D4D4D; font-family: Arimo;' textLength='11.19px' lengthAdjust='spacingAndGlyphs'>36</text>
<text x='330.66' y='320.08' text-anchor='middle' style='font-size: 8.80px; fill: #4D4D4D; font-family: Arimo;' textLength='43.93px' lengthAdjust='spacingAndGlyphs'>Neversink</text>
</g>
<defs>
  <clipPath id='cpMzU0LjE5fDQyNi4zNXwyMy40NHwzNDAuNjU='>
    <rect x='354.19' y='23.44' width='72.17' height='317.21' />
  </clipPath>
</defs>
<g clip-path='url(#cpMzU0LjE5fDQyNi4zNXwyMy40NHwzNDAuNjU=)'>
<rect x='354.19' y='23.44' width='72.17' height='317.21' style='stroke-width: 1.07; stroke: #FFFFFF; fill: #FFFFFF;' />
</g>
<g clip-path='url(#cpMC4wMHw1MDQuMDB8MC4wMHwzNjAuMDA=)'>
</g>
<defs>
  <clipPath id='cpMzg0Ljc3fDQyMC44OHwyOC45MnwzMDguNzQ='>
    <rect x='384.77' y='28.92' width='36.10' height='279.82' />
  </clipPath>
</defs>
<g clip-path='url(#cpMzg0Ljc3fDQyMC44OHwyOC45MnwzMDguNzQ=)'>
<rect x='384.77' y='28.92' width='36.10' height='279.82' style='stroke-width: 1.07; stroke: none; fill: #FFFFFF;' />
<line x1='402.82' y1='92.29' x2='402.82' y2='41.64' style='stroke-width: 1.07; stroke: #333333; stroke-linecap: butt;' />
<line x1='402.82' y1='198.66' x2='402.82' y2='296.02' style='stroke-width: 1.07; stroke: #333333; stroke-linecap: butt;' />
<polygon points='398.31,92.29 398.31,198.66 407.34,198.66 407.34,92.29 398.31,92.29 ' style='stroke-width: 1.07; stroke: #333333; fill: #FFFFFF;' />
<line x1='398.31' y1='132.38' x2='407.34' y2='132.38' style='stroke-width: 2.13; stroke: #333333; stroke-linecap: butt;' />
</g>
<g clip-path='url(#cpMC4wMHw1MDQuMDB8MC4wMHwzNjAuMDA=)'>
<text x='379.84' y='284.78' text-anchor='end' style='font-size: 8.80px; fill: #4D4D4D; font-family: Arimo;' textLength='16.78px' lengthAdjust='spacingAndGlyphs'>100</text>
<text x='379.84' y='193.67' text-anchor='end' style='font-size: 8.80px; fill: #4D4D4D; font-family: Arimo;' textLength='16.78px' lengthAdjust='spacingAndGlyphs'>120</text>
<text x='379.84' y='102.56' text-anchor='end' style='font-size: 8.80px; fill: #4D4D4D; font-family: Arimo;' textLength='16.78px' lengthAdjust='spacingAndGlyphs'>140</text>
<text x='402.82' y='320.08' text-anchor='middle' style='font-size: 8.80px; fill: #4D4D4D; font-family: Arimo;' textLength='40.63px' lengthAdjust='spacingAndGlyphs'>Pepacton</text>
</g>
<defs>
  <clipPath id='cpNDI2LjM1fDQ5OC41MnwyMy40NHwzNDAuNjU='>
    <rect x='426.35' y='23.44' width='72.17' height='317.21' />
  </clipPath>
</defs>
<g clip-path='url(#cpNDI2LjM1fDQ5OC41MnwyMy40NHwzNDAuNjU=)'>
<rect x='426.35' y='23.44' width='72.17' height='317.21' style='stroke-width: 1.07; stroke: #FFFFFF; fill: #FFFFFF;' />
</g>
<g clip-path='url(#cpMC4wMHw1MDQuMDB8MC4wMHwzNjAuMDA=)'>
</g>
<defs>
  <clipPath id='cpNDU2Ljk0fDQ5My4wNHwyOC45MnwzMDguNzQ='>
    <rect x='456.94' y='28.92' width='36.10' height='279.82' />
  </clipPath>
</defs>
<g clip-path='url(#cpNDU2Ljk0fDQ5My4wNHwyOC45MnwzMDguNzQ=)'>
<rect x='456.94' y='28.92' width='36.10' height='279.82' style='stroke-width: 1.07; stroke: none; fill: #FFFFFF;' />
<line x1='474.99' y1='71.88' x2='474.99' y2='41.64' style='stroke-width: 1.07; stroke: #333333; stroke-linecap: butt;' />
<line x1='474.99' y1='163.77' x2='474.99' y2='296.02' style='stroke-width: 1.07; stroke: #333333; stroke-linecap: butt;' />
<polygon points='470.48,71.88 470.48,163.77 479.50,163.77 479.50,71.88 470.48,71.88 ' style='stroke-width: 1.07; stroke: #333333; fill: #FFFFFF;' />
<line x1='470.48' y1='101.29' x2='479.50' y2='101.29' style='stroke-width: 2.13; stroke: #333333; stroke-linecap: butt;' />
</g>
<g clip-path='url(#cpMC4wMHw1MDQuMDB8MC4wMHwzNjAuMDA=)'>
<text x='452.01' y='294.91' text-anchor='end' style='font-size: 8.80px; fill: #4D4D4D; font-family: Arimo;' textLength='11.19px' lengthAdjust='spacingAndGlyphs'>40</text>
<text x='452.01' y='210.30' text-anchor='end' style='font-size: 8.80px; fill: #4D4D4D; font-family: Arimo;' textLength='11.19px' lengthAdjust='spacingAndGlyphs'>60</text>
<text x='452.01' y='125.69' text-anchor='end' style='font-size: 8.80px; fill: #4D4D4D; font-family: Arimo;' textLength='11.19px' lengthAdjust='spacingAndGlyphs'>80</text>
<text x='452.01' y='41.08' text-anchor='end' style='font-size: 8.80px; fill: #4D4D4D; font-family: Arimo;' textLength='16.78px' lengthAdjust='spacingAndGlyphs'>100</text>
<text x='474.99' y='320.08' text-anchor='middle' style='font-size: 8.80px; fill: #4D4D4D; font-family: Arimo;' textLength='56.19px' lengthAdjust='spacingAndGlyphs'>Cannonsville</text>
<text x='493.04' y='352.54' text-anchor='end' style='font-size: 8.80px; font-family: Arimo;' textLength='235.01px' lengthAdjust='spacingAndGlyphs'>Source: NYC Department of Environmental Protection</text>
<text x='10.96' y='15.10' style='font-size: 13.20px; font-family: Arimo;' textLength='388.09px' lengthAdjust='spacingAndGlyphs'>Storage Capacity of Upstate Reservoirs (billions of gallons)</text>
</g>
</svg>
