<?xml version='1.0' encoding='UTF-8' ?>
<svg xmlns='http://www.w3.org/2000/svg' xmlns:xlink='http://www.w3.org/1999/xlink' class='svglite' width='504.00pt' height='360.00pt' viewBox='0 0 504.00 360.00'>
<defs>
  <style type='text/css'><![CDATA[
    .svglite line, .svglite polyline, .svglite polygon, .svglite path, .svglite rect, .svglite circle {
      fill: none;
      stroke: #000000;
      stroke-linecap: round;
      stroke-linejoin: round;
      stroke-miterlimit: 10.00;
    }
  ]]></style>
</defs>
<rect width='100%' height='100%' style='stroke: none; fill: #FFFFFF;'/>
<defs>
  <clipPath id='cpMC4wMHw1MDQuMDB8MC4wMHwzNjAuMDA='>
    <rect x='0.00' y='0.00' width='504.00' height='360.00' />
  </clipPath>
</defs>
<g clip-path='url(#cpMC4wMHw1MDQuMDB8MC4wMHwzNjAuMDA=)'>
</g>
<defs>
  <clipPath id='cpODguMDN8NDE1Ljk3fDAuMDB8MzYwLjAw'>
    <rect x='88.03' y='0.00' width='327.94' height='360.00' />
  </clipPath>
</defs>
<g clip-path='url(#cpODguMDN8NDE1Ljk3fDAuMDB8MzYwLjAw)'>
<rect x='88.03' y='0.00' width='327.94' height='360.00' style='stroke-width: 1.07; stroke: #FFFFFF; fill: #55AAFF;' />
</g>
<g clip-path='url(#cpMC4wMHw1MDQuMDB8MC4wMHwzNjAuMDA=)'>
</g>
<defs>
  <clipPath id='cpMTIyLjM2fDE2OS41N3wzNi44NXwxNjcuMTY='>
    <rect x='122.36' y='36.85' width='47.21' height='130.30' />
  </clipPath>
</defs>
<g clip-path='url(#cpMTIyLjM2fDE2OS41N3wzNi44NXwxNjcuMTY=)'>
<rect x='122.36' y='36.85' width='47.21' height='130.30' style='stroke-width: 1.07; stroke: none; fill: #EBEBEB;' />
<polyline points='126.93,167.16 126.93,36.85 ' style='stroke-width: 2.13; stroke: #FFFFFF; stroke-linecap: butt;' />
<polyline points='134.54,167.16 134.54,36.85 ' style='stroke-width: 2.13; stroke: #FFFFFF; stroke-linecap: butt;' />
<polyline points='142.16,167.16 142.16,36.85 ' style='stroke-width: 2.13; stroke: #FFFFFF; stroke-linecap: butt;' />
<polyline points='149.77,167.16 149.77,36.85 ' style='stroke-width: 2.13; stroke: #FFFFFF; stroke-linecap: butt;' />
<polyline points='157.39,167.16 157.39,36.85 ' style='stroke-width: 2.13; stroke: #FFFFFF; stroke-linecap: butt;' />
<polyline points='165.00,167.16 165.00,36.85 ' style='stroke-width: 2.13; stroke: #FFFFFF; stroke-linecap: butt;' />
</g>
<g clip-path='url(#cpMC4wMHw1MDQuMDB8MC4wMHwzNjAuMDA=)'>
</g>
<defs>
  <clipPath id='cpMTIyLjM2fDE2OS41N3wxODkuMzJ8MzE5LjYz'>
    <rect x='122.36' y='189.32' width='47.21' height='130.30' />
  </clipPath>
</defs>
<g clip-path='url(#cpMTIyLjM2fDE2OS41N3wxODkuMzJ8MzE5LjYz)'>
<rect x='122.36' y='189.32' width='47.21' height='130.30' style='stroke-width: 1.07; stroke: none; fill: #EBEBEB;' />
<polyline points='122.36,301.10 169.57,301.10 ' style='stroke-width: 1.07; stroke: #FFFFFF; stroke-linecap: butt;' />
<polyline points='122.36,275.88 169.57,275.88 ' style='stroke-width: 1.07; stroke: #FFFFFF; stroke-linecap: butt;' />
<polyline points='122.36,250.67 169.57,250.67 ' style='stroke-width: 1.07; stroke: #FFFFFF; stroke-linecap: butt;' />
<polyline points='122.36,225.45 169.57,225.45 ' style='stroke-width: 1.07; stroke: #FFFFFF; stroke-linecap: butt;' />
<polyline points='122.36,200.24 169.57,200.24 ' style='stroke-width: 1.07; stroke: #FFFFFF; stroke-linecap: butt;' />
<polyline points='122.36,313.70 169.57,313.70 ' style='stroke-width: 2.13; stroke: #FFFFFF; stroke-linecap: butt;' />
<polyline points='122.36,288.49 169.57,288.49 ' style='stroke-width: 2.13; stroke: #FFFFFF; stroke-linecap: butt;' />
<polyline points='122.36,263.27 169.57,263.27 ' style='stroke-width: 2.13; stroke: #FFFFFF; stroke-linecap: butt;' />
<polyline points='122.36,238.06 169.57,238.06 ' style='stroke-width: 2.13; stroke: #FFFFFF; stroke-linecap: butt;' />
<polyline points='122.36,212.85 169.57,212.85 ' style='stroke-width: 2.13; stroke: #FFFFFF; stroke-linecap: butt;' />
<polyline points='126.93,319.63 126.93,189.32 ' style='stroke-width: 2.13; stroke: #FFFFFF; stroke-linecap: butt;' />
<polyline points='134.54,319.63 134.54,189.32 ' style='stroke-width: 2.13; stroke: #FFFFFF; stroke-linecap: butt;' />
<polyline points='142.16,319.63 142.16,189.32 ' style='stroke-width: 2.13; stroke: #FFFFFF; stroke-linecap: butt;' />
<polyline points='149.77,319.63 149.77,189.32 ' style='stroke-width: 2.13; stroke: #FFFFFF; stroke-linecap: butt;' />
<polyline points='157.39,319.63 157.39,189.32 ' style='stroke-width: 2.13; stroke: #FFFFFF; stroke-linecap: butt;' />
<polyline points='165.00,319.63 165.00,189.32 ' style='stroke-width: 2.13; stroke: #FFFFFF; stroke-linecap: butt;' />
<circle cx='149.77' cy='313.70' r='1.95' style='stroke-width: 0.71; stroke: #333333; fill: #333333;' />
<circle cx='149.77' cy='313.70' r='1.95' style='stroke-width: 0.71; stroke: #333333; fill: #333333;' />
<circle cx='149.77' cy='313.70' r='1.95' style='stroke-width: 0.71; stroke: #333333; fill: #333333;' />
<circle cx='149.77' cy='313.70' r='1.95' style='stroke-width: 0.71; stroke: #333333; fill: #333333;' />
<circle cx='149.77' cy='313.70' r='1.95' style='stroke-width: 0.71; stroke: #333333; fill: #333333;' />
<circle cx='149.77' cy='313.70' r='1.95' style='stroke-width: 0.71; stroke: #333333; fill: #333333;' />
<circle cx='149.77' cy='313.70' r='1.95' style='stroke-width: 0.71; stroke: #333333; fill: #333333;' />
<circle cx='149.77' cy='313.70' r='1.95' style='stroke-width: 0.71; stroke: #333333; fill: #333333;' />
<circle cx='149.77' cy='313.70' r='1.95' style='stroke-width: 0.71; stroke: #333333; fill: #333333;' />
<circle cx='149.77' cy='313.70' r='1.95' style='stroke-width: 0.71; stroke: #333333; fill: #333333;' />
<circle cx='149.77' cy='313.70' r='1.95' style='stroke-width: 0.71; stroke: #333333; fill: #333333;' />
<circle cx='149.77' cy='313.70' r='1.95' style='stroke-width: 0.71; stroke: #333333; fill: #333333;' />
<circle cx='149.77' cy='313.70' r='1.95' style='stroke-width: 0.71; stroke: #333333; fill: #333333;' />
<circle cx='149.77' cy='313.70' r='1.95' style='stroke-width: 0.71; stroke: #333333; fill: #333333;' />
<circle cx='149.77' cy='313.70' r='1.95' style='stroke-width: 0.71; stroke: #333333; fill: #333333;' />
<circle cx='149.77' cy='313.70' r='1.95' style='stroke-width: 0.71; stroke: #333333; fill: #333333;' />
<circle cx='149.77' cy='313.70' r='1.95' style='stroke-width: 0.71; stroke: #333333; fill: #333333;' />
<circle cx='149.77' cy='313.70' r='1.95' style='stroke-width: 0.71; stroke: #333333; fill: #333333;' />
<circle cx='149.77' cy='313.70' r='1.95' style='stroke-width: 0.71; stroke: #333333; fill: #333333;' />
<circle cx='149.77' cy='313.70' r='1.95' style='stroke-width: 0.71; stroke: #333333; fill: #333333;' />
<circle cx='149.77' cy='313.70' r='1.95' style='stroke-width: 0.71; stroke: #333333; fill: #333333;' />
<circle cx='149.77' cy='313.70' r='1.95' style='stroke-width: 0.71; stroke: #333333; fill: #333333;' />
<circle cx='149.77' cy='313.70' r='1.95' style='stroke-width: 0.71; stroke: #333333; fill: #333333;' />
<circle cx='149.77' cy='313.70' r='1.95' style='stroke-width: 0.71; stroke: #333333; fill: #333333;' />
<circle cx='149.77' cy='313.70' r='1.95' style='stroke-width: 0.71; stroke: #333333; fill: #333333;' />
<circle cx='149.77' cy='313.70' r='1.95' style='stroke-width: 0.71; stroke: #333333; fill: #333333;' />
<circle cx='149.77' cy='313.70' r='1.95' style='stroke-width: 0.71; stroke: #333333; fill: #333333;' />
<circle cx='149.77' cy='313.70' r='1.95' style='stroke-width: 0.71; stroke: #333333; fill: #333333;' />
<circle cx='149.77' cy='313.70' r='1.95' style='stroke-width: 0.71; stroke: #333333; fill: #333333;' />
<circle cx='149.77' cy='313.70' r='1.95' style='stroke-width: 0.71; stroke: #333333; fill: #333333;' />
<circle cx='149.77' cy='313.70' r='1.95' style='stroke-width: 0.71; stroke: #333333; fill: #333333;' />
<circle cx='149.77' cy='313.70' r='1.95' style='stroke-width: 0.71; stroke: #333333; fill: #333333;' />
<circle cx='149.77' cy='313.70' r='1.95' style='stroke-width: 0.71; stroke: #333333; fill: #333333;' />
<circle cx='149.77' cy='313.70' r='1.95' style='stroke-width: 0.71; stroke: #333333; fill: #333333;' />
<circle cx='149.77' cy='313.70' r='1.95' style='stroke-width: 0.71; stroke: #333333; fill: #333333;' />
<circle cx='149.77' cy='313.70' r='1.95' style='stroke-width: 0.71; stroke: #333333; fill: #333333;' />
<circle cx='149.77' cy='313.70' r='1.95' style='stroke-width: 0.71; stroke: #333333; fill: #333333;' />
<circle cx='149.77' cy='313.70' r='1.95' style='stroke-width: 0.71; stroke: #333333; fill: #333333;' />
<circle cx='149.77' cy='313.70' r='1.95' style='stroke-width: 0.71; stroke: #333333; fill: #333333;' />
<circle cx='149.77' cy='313.70' r='1.95' style='stroke-width: 0.71; stroke: #333333; fill: #333333;' />
<circle cx='149.77' cy='313.70' r='1.95' style='stroke-width: 0.71; stroke: #333333; fill: #333333;' />
<circle cx='149.77' cy='313.70' r='1.95' style='stroke-width: 0.71; stroke: #333333; fill: #333333;' />
<circle cx='149.77' cy='313.70' r='1.95' style='stroke-width: 0.71; stroke: #333333; fill: #333333;' />
<circle cx='149.77' cy='313.70' r='1.95' style='stroke-width: 0.71; stroke: #333333; fill: #333333;' />
<circle cx='149.77' cy='313.70' r='1.95' style='stroke-width: 0.71; stroke: #333333; fill: #333333;' />
<circle cx='149.77' cy='313.70' r='1.95' style='stroke-width: 0.71; stroke: #333333; fill: #333333;' />
<circle cx='149.77' cy='313.70' r='1.95' style='stroke-width: 0.71; stroke: #333333; fill: #333333;' />
<circle cx='149.77' cy='313.70' r='1.95' style='stroke-width: 0.71; stroke: #333333; fill: #333333;' />
<circle cx='149.77' cy='313.70' r='1.95' style='stroke-width: 0.71; stroke: #333333; fill: #333333;' />
<circle cx='149.77' cy='313.70' r='1.95' style='stroke-width: 0.71; stroke: #333333; fill: #333333;' />
<circle cx='149.77' cy='313.70' r='1.95' style='stroke-width: 0.71; stroke: #333333; fill: #333333;' />
<circle cx='149.77' cy='313.70' r='1.95' style='stroke-width: 0.71; stroke: #333333; fill: #333333;' />
<circle cx='149.77' cy='313.70' r='1.95' style='stroke-width: 0.71; stroke: #333333; fill: #333333;' />
<circle cx='149.77' cy='313.70' r='1.95' style='stroke-width: 0.71; stroke: #333333; fill: #333333;' />
<circle cx='149.77' cy='313.70' r='1.95' style='stroke-width: 0.71; stroke: #333333; fill: #333333;' />
<circle cx='149.77' cy='313.70' r='1.95' style='stroke-width: 0.71; stroke: #333333; fill: #333333;' />
<circle cx='149.77' cy='313.70' r='1.95' style='stroke-width: 0.71; stroke: #333333; fill: #333333;' />
<circle cx='149.77' cy='313.70' r='1.95' style='stroke-width: 0.71; stroke: #333333; fill: #333333;' />
<circle cx='149.77' cy='313.70' r='1.95' style='stroke-width: 0.71; stroke: #333333; fill: #333333;' />
<circle cx='149.77' cy='313.70' r='1.95' style='stroke-width: 0.71; stroke: #333333; fill: #333333;' />
<circle cx='149.77' cy='313.70' r='1.95' style='stroke-width: 0.71; stroke: #333333; fill: #333333;' />
<circle cx='149.77' cy='313.70' r='1.95' style='stroke-width: 0.71; stroke: #333333; fill: #333333;' />
<circle cx='149.77' cy='313.70' r='1.95' style='stroke-width: 0.71; stroke: #333333; fill: #333333;' />
<circle cx='149.77' cy='313.70' r='1.95' style='stroke-width: 0.71; stroke: #333333; fill: #333333;' />
<circle cx='149.77' cy='313.70' r='1.95' style='stroke-width: 0.71; stroke: #333333; fill: #333333;' />
<circle cx='149.77' cy='313.70' r='1.95' style='stroke-width: 0.71; stroke: #333333; fill: #333333;' />
<circle cx='149.77' cy='313.70' r='1.95' style='stroke-width: 0.71; stroke: #333333; fill: #333333;' />
<circle cx='149.77' cy='313.70' r='1.95' style='stroke-width: 0.71; stroke: #333333; fill: #333333;' />
<circle cx='149.77' cy='313.70' r='1.95' style='stroke-width: 0.71; stroke: #333333; fill: #333333;' />
<circle cx='149.77' cy='313.70' r='1.95' style='stroke-width: 0.71; stroke: #333333; fill: #333333;' />
<circle cx='149.77' cy='313.70' r='1.95' style='stroke-width: 0.71; stroke: #333333; fill: #333333;' />
<circle cx='149.77' cy='313.70' r='1.95' style='stroke-width: 0.71; stroke: #333333; fill: #333333;' />
<circle cx='149.77' cy='313.70' r='1.95' style='stroke-width: 0.71; stroke: #333333; fill: #333333;' />
<circle cx='149.77' cy='313.70' r='1.95' style='stroke-width: 0.71; stroke: #333333; fill: #333333;' />
<circle cx='149.77' cy='313.70' r='1.95' style='stroke-width: 0.71; stroke: #333333; fill: #333333;' />
<circle cx='149.77' cy='313.70' r='1.95' style='stroke-width: 0.71; stroke: #333333; fill: #333333;' />
<circle cx='149.77' cy='313.70' r='1.95' style='stroke-width: 0.71; stroke: #333333; fill: #333333;' />
<circle cx='149.77' cy='313.70' r='1.95' style='stroke-width: 0.71; stroke: #333333; fill: #333333;' />
<circle cx='149.77' cy='313.70' r='1.95' style='stroke-width: 0.71; stroke: #333333; fill: #333333;' />
<circle cx='149.77' cy='313.70' r='1.95' style='stroke-width: 0.71; stroke: #333333; fill: #333333;' />
<circle cx='149.77' cy='313.70' r='1.95' style='stroke-width: 0.71; stroke: #333333; fill: #333333;' />
<circle cx='149.77' cy='313.70' r='1.95' style='stroke-width: 0.71; stroke: #333333; fill: #333333;' />
<circle cx='149.77' cy='313.70' r='1.95' style='stroke-width: 0.71; stroke: #333333; fill: #333333;' />
<circle cx='149.77' cy='313.70' r='1.95' style='stroke-width: 0.71; stroke: #333333; fill: #333333;' />
<circle cx='149.77' cy='313.65' r='1.95' style='stroke-width: 0.71; stroke: #333333; fill: #333333;' />
<circle cx='149.77' cy='313.70' r='1.95' style='stroke-width: 0.71; stroke: #333333; fill: #333333;' />
<circle cx='149.77' cy='313.70' r='1.95' style='stroke-width: 0.71; stroke: #333333; fill: #333333;' />
<circle cx='149.77' cy='313.70' r='1.95' style='stroke-width: 0.71; stroke: #333333; fill: #333333;' />
<circle cx='149.77' cy='313.70' r='1.95' style='stroke-width: 0.71; stroke: #333333; fill: #333333;' />
<circle cx='149.77' cy='313.70' r='1.95' style='stroke-width: 0.71; stroke: #333333; fill: #333333;' />
<circle cx='149.77' cy='313.70' r='1.95' style='stroke-width: 0.71; stroke: #333333; fill: #333333;' />
<circle cx='149.77' cy='313.70' r='1.95' style='stroke-width: 0.71; stroke: #333333; fill: #333333;' />
<circle cx='149.77' cy='313.70' r='1.95' style='stroke-width: 0.71; stroke: #333333; fill: #333333;' />
<circle cx='149.77' cy='313.70' r='1.95' style='stroke-width: 0.71; stroke: #333333; fill: #333333;' />
<circle cx='149.77' cy='313.70' r='1.95' style='stroke-width: 0.71; stroke: #333333; fill: #333333;' />
<circle cx='149.77' cy='313.70' r='1.95' style='stroke-width: 0.71; stroke: #333333; fill: #333333;' />
<circle cx='149.77' cy='313.70' r='1.95' style='stroke-width: 0.71; stroke: #333333; fill: #333333;' />
<circle cx='149.77' cy='313.70' r='1.95' style='stroke-width: 0.71; stroke: #333333; fill: #333333;' />
<circle cx='149.77' cy='313.70' r='1.95' style='stroke-width: 0.71; stroke: #333333; fill: #333333;' />
<circle cx='149.77' cy='313.70' r='1.95' style='stroke-width: 0.71; stroke: #333333; fill: #333333;' />
<circle cx='149.77' cy='313.70' r='1.95' style='stroke-width: 0.71; stroke: #333333; fill: #333333;' />
<circle cx='149.77' cy='313.70' r='1.95' style='stroke-width: 0.71; stroke: #333333; fill: #333333;' />
<circle cx='149.77' cy='313.70' r='1.95' style='stroke-width: 0.71; stroke: #333333; fill: #333333;' />
<circle cx='149.77' cy='313.70' r='1.95' style='stroke-width: 0.71; stroke: #333333; fill: #333333;' />
<circle cx='149.77' cy='313.70' r='1.95' style='stroke-width: 0.71; stroke: #333333; fill: #333333;' />
<circle cx='149.77' cy='313.70' r='1.95' style='stroke-width: 0.71; stroke: #333333; fill: #333333;' />
<circle cx='149.77' cy='313.70' r='1.95' style='stroke-width: 0.71; stroke: #333333; fill: #333333;' />
<circle cx='149.77' cy='313.70' r='1.95' style='stroke-width: 0.71; stroke: #333333; fill: #333333;' />
<circle cx='149.77' cy='313.70' r='1.95' style='stroke-width: 0.71; stroke: #333333; fill: #333333;' />
<circle cx='149.77' cy='313.70' r='1.95' style='stroke-width: 0.71; stroke: #333333; fill: #333333;' />
<circle cx='149.77' cy='313.70' r='1.95' style='stroke-width: 0.71; stroke: #333333; fill: #333333;' />
<circle cx='149.77' cy='313.70' r='1.95' style='stroke-width: 0.71; stroke: #333333; fill: #333333;' />
<circle cx='149.77' cy='313.70' r='1.95' style='stroke-width: 0.71; stroke: #333333; fill: #333333;' />
<circle cx='149.77' cy='313.70' r='1.95' style='stroke-width: 0.71; stroke: #333333; fill: #333333;' />
<circle cx='149.77' cy='313.70' r='1.95' style='stroke-width: 0.71; stroke: #333333; fill: #333333;' />
<circle cx='149.77' cy='313.70' r='1.95' style='stroke-width: 0.71; stroke: #333333; fill: #333333;' />
<circle cx='149.77' cy='313.70' r='1.95' style='stroke-width: 0.71; stroke: #333333; fill: #333333;' />
<circle cx='149.77' cy='313.70' r='1.95' style='stroke-width: 0.71; stroke: #333333; fill: #333333;' />
<circle cx='149.77' cy='313.70' r='1.95' style='stroke-width: 0.71; stroke: #333333; fill: #333333;' />
<circle cx='149.77' cy='313.70' r='1.95' style='stroke-width: 0.71; stroke: #333333; fill: #333333;' />
<circle cx='149.77' cy='313.70' r='1.95' style='stroke-width: 0.71; stroke: #333333; fill: #333333;' />
<circle cx='149.77' cy='313.70' r='1.95' style='stroke-width: 0.71; stroke: #333333; fill: #333333;' />
<circle cx='149.77' cy='313.70' r='1.95' style='stroke-width: 0.71; stroke: #333333; fill: #333333;' />
<circle cx='149.77' cy='313.70' r='1.95' style='stroke-width: 0.71; stroke: #333333; fill: #333333;' />
<circle cx='149.77' cy='313.70' r='1.95' style='stroke-width: 0.71; stroke: #333333; fill: #333333;' />
<circle cx='149.77' cy='313.70' r='1.95' style='stroke-width: 0.71; stroke: #333333; fill: #333333;' />
<circle cx='149.77' cy='313.70' r='1.95' style='stroke-width: 0.71; stroke: #333333; fill: #333333;' />
<circle cx='149.77' cy='313.70' r='1.95' style='stroke-width: 0.71; stroke: #333333; fill: #333333;' />
<circle cx='149.77' cy='313.70' r='1.95' style='stroke-width: 0.71; stroke: #333333; fill: #333333;' />
<circle cx='149.77' cy='313.70' r='1.95' style='stroke-width: 0.71; stroke: #333333; fill: #333333;' />
<circle cx='149.77' cy='313.70' r='1.95' style='stroke-width: 0.71; stroke: #333333; fill: #333333;' />
<circle cx='149.77' cy='313.70' r='1.95' style='stroke-width: 0.71; stroke: #333333; fill: #333333;' />
<circle cx='149.77' cy='313.70' r='1.95' style='stroke-width: 0.71; stroke: #333333; fill: #333333;' />
<circle cx='149.77' cy='313.70' r='1.95' style='stroke-width: 0.71; stroke: #333333; fill: #333333;' />
<circle cx='149.77' cy='313.70' r='1.95' style='stroke-width: 0.71; stroke: #333333; fill: #333333;' />
<circle cx='149.77' cy='313.70' r='1.95' style='stroke-width: 0.71; stroke: #333333; fill: #333333;' />
<circle cx='149.77' cy='313.70' r='1.95' style='stroke-width: 0.71; stroke: #333333; fill: #333333;' />
<circle cx='149.77' cy='313.70' r='1.95' style='stroke-width: 0.71; stroke: #333333; fill: #333333;' />
<circle cx='149.77' cy='313.70' r='1.95' style='stroke-width: 0.71; stroke: #333333; fill: #333333;' />
<circle cx='149.77' cy='313.70' r='1.95' style='stroke-width: 0.71; stroke: #333333; fill: #333333;' />
<circle cx='149.77' cy='313.70' r='1.95' style='stroke-width: 0.71; stroke: #333333; fill: #333333;' />
<circle cx='149.77' cy='313.70' r='1.95' style='stroke-width: 0.71; stroke: #333333; fill: #333333;' />
<circle cx='149.77' cy='313.70' r='1.95' style='stroke-width: 0.71; stroke: #333333; fill: #333333;' />
<circle cx='149.77' cy='313.70' r='1.95' style='stroke-width: 0.71; stroke: #333333; fill: #333333;' />
<circle cx='149.77' cy='313.70' r='1.95' style='stroke-width: 0.71; stroke: #333333; fill: #333333;' />
<circle cx='149.77' cy='313.70' r='1.95' style='stroke-width: 0.71; stroke: #333333; fill: #333333;' />
<circle cx='149.77' cy='313.70' r='1.95' style='stroke-width: 0.71; stroke: #333333; fill: #333333;' />
<circle cx='149.77' cy='313.70' r='1.95' style='stroke-width: 0.71; stroke: #333333; fill: #333333;' />
<circle cx='149.77' cy='313.70' r='1.95' style='stroke-width: 0.71; stroke: #333333; fill: #333333;' />
<circle cx='149.77' cy='313.70' r='1.95' style='stroke-width: 0.71; stroke: #333333; fill: #333333;' />
<circle cx='149.77' cy='313.70' r='1.95' style='stroke-width: 0.71; stroke: #333333; fill: #333333;' />
<circle cx='149.77' cy='313.70' r='1.95' style='stroke-width: 0.71; stroke: #333333; fill: #333333;' />
<circle cx='149.77' cy='313.70' r='1.95' style='stroke-width: 0.71; stroke: #333333; fill: #333333;' />
<circle cx='149.77' cy='313.70' r='1.95' style='stroke-width: 0.71; stroke: #333333; fill: #333333;' />
<circle cx='149.77' cy='313.70' r='1.95' style='stroke-width: 0.71; stroke: #333333; fill: #333333;' />
<circle cx='149.77' cy='313.70' r='1.95' style='stroke-width: 0.71; stroke: #333333; fill: #333333;' />
<circle cx='149.77' cy='313.70' r='1.95' style='stroke-width: 0.71; stroke: #333333; fill: #333333;' />
<circle cx='149.77' cy='313.70' r='1.95' style='stroke-width: 0.71; stroke: #333333; fill: #333333;' />
<circle cx='149.77' cy='313.70' r='1.95' style='stroke-width: 0.71; stroke: #333333; fill: #333333;' />
<circle cx='149.77' cy='313.70' r='1.95' style='stroke-width: 0.71; stroke: #333333; fill: #333333;' />
<circle cx='149.77' cy='313.70' r='1.95' style='stroke-width: 0.71; stroke: #333333; fill: #333333;' />
<circle cx='149.77' cy='313.70' r='1.95' style='stroke-width: 0.71; stroke: #333333; fill: #333333;' />
<circle cx='149.77' cy='313.70' r='1.95' style='stroke-width: 0.71; stroke: #333333; fill: #333333;' />
<circle cx='149.77' cy='313.70' r='1.95' style='stroke-width: 0.71; stroke: #333333; fill: #333333;' />
<circle cx='149.77' cy='313.70' r='1.95' style='stroke-width: 0.71; stroke: #333333; fill: #333333;' />
<circle cx='149.77' cy='313.70' r='1.95' style='stroke-width: 0.71; stroke: #333333; fill: #333333;' />
<circle cx='149.77' cy='313.70' r='1.95' style='stroke-width: 0.71; stroke: #333333; fill: #333333;' />
<circle cx='149.77' cy='313.70' r='1.95' style='stroke-width: 0.71; stroke: #333333; fill: #333333;' />
<circle cx='149.77' cy='313.70' r='1.95' style='stroke-width: 0.71; stroke: #333333; fill: #333333;' />
<circle cx='149.77' cy='313.70' r='1.95' style='stroke-width: 0.71; stroke: #333333; fill: #333333;' />
<circle cx='149.77' cy='313.70' r='1.95' style='stroke-width: 0.71; stroke: #333333; fill: #333333;' />
<circle cx='149.77' cy='313.70' r='1.95' style='stroke-width: 0.71; stroke: #333333; fill: #333333;' />
<circle cx='149.77' cy='313.70' r='1.95' style='stroke-width: 0.71; stroke: #333333; fill: #333333;' />
<circle cx='149.77' cy='313.70' r='1.95' style='stroke-width: 0.71; stroke: #333333; fill: #333333;' />
<circle cx='149.77' cy='313.70' r='1.95' style='stroke-width: 0.71; stroke: #333333; fill: #333333;' />
<circle cx='149.77' cy='313.70' r='1.95' style='stroke-width: 0.71; stroke: #333333; fill: #333333;' />
<circle cx='149.77' cy='313.70' r='1.95' style='stroke-width: 0.71; stroke: #333333; fill: #333333;' />
<circle cx='149.77' cy='313.70' r='1.95' style='stroke-width: 0.71; stroke: #333333; fill: #333333;' />
<circle cx='149.77' cy='313.70' r='1.95' style='stroke-width: 0.71; stroke: #333333; fill: #333333;' />
<circle cx='149.77' cy='313.70' r='1.95' style='stroke-width: 0.71; stroke: #333333; fill: #333333;' />
<circle cx='149.77' cy='313.70' r='1.95' style='stroke-width: 0.71; stroke: #333333; fill: #333333;' />
<circle cx='149.77' cy='313.70' r='1.95' style='stroke-width: 0.71; stroke: #333333; fill: #333333;' />
<circle cx='149.77' cy='313.70' r='1.95' style='stroke-width: 0.71; stroke: #333333; fill: #333333;' />
<circle cx='149.77' cy='313.70' r='1.95' style='stroke-width: 0.71; stroke: #333333; fill: #333333;' />
<circle cx='149.77' cy='313.70' r='1.95' style='stroke-width: 0.71; stroke: #333333; fill: #333333;' />
<circle cx='149.77' cy='313.70' r='1.95' style='stroke-width: 0.71; stroke: #333333; fill: #333333;' />
<circle cx='149.77' cy='313.70' r='1.95' style='stroke-width: 0.71; stroke: #333333; fill: #333333;' />
<circle cx='149.77' cy='313.70' r='1.95' style='stroke-width: 0.71; stroke: #333333; fill: #333333;' />
<circle cx='149.77' cy='313.70' r='1.95' style='stroke-width: 0.71; stroke: #333333; fill: #333333;' />
<circle cx='149.77' cy='313.70' r='1.95' style='stroke-width: 0.71; stroke: #333333; fill: #333333;' />
<circle cx='149.77' cy='313.70' r='1.95' style='stroke-width: 0.71; stroke: #333333; fill: #333333;' />
<circle cx='149.77' cy='313.70' r='1.95' style='stroke-width: 0.71; stroke: #333333; fill: #333333;' />
<circle cx='149.77' cy='313.70' r='1.95' style='stroke-width: 0.71; stroke: #333333; fill: #333333;' />
<circle cx='149.77' cy='313.70' r='1.95' style='stroke-width: 0.71; stroke: #333333; fill: #333333;' />
<circle cx='149.77' cy='313.70' r='1.95' style='stroke-width: 0.71; stroke: #333333; fill: #333333;' />
<circle cx='149.77' cy='313.70' r='1.95' style='stroke-width: 0.71; stroke: #333333; fill: #333333;' />
<circle cx='149.77' cy='313.70' r='1.95' style='stroke-width: 0.71; stroke: #333333; fill: #333333;' />
<circle cx='149.77' cy='313.70' r='1.95' style='stroke-width: 0.71; stroke: #333333; fill: #333333;' />
<circle cx='149.77' cy='313.70' r='1.95' style='stroke-width: 0.71; stroke: #333333; fill: #333333;' />
<circle cx='149.77' cy='313.70' r='1.95' style='stroke-width: 0.71; stroke: #333333; fill: #333333;' />
<circle cx='149.77' cy='313.70' r='1.95' style='stroke-width: 0.71; stroke: #333333; fill: #333333;' />
<circle cx='149.77' cy='313.70' r='1.95' style='stroke-width: 0.71; stroke: #333333; fill: #333333;' />
<line x1='149.77' y1='280.87' x2='149.77' y2='263.28' style='stroke-width: 1.07; stroke: #333333; stroke-linecap: butt;' />
<line x1='149.77' y1='293.99' x2='149.77' y2='313.40' style='stroke-width: 1.07; stroke: #333333; stroke-linecap: butt;' />
<polygon points='146.92,280.87 146.92,293.99 152.63,293.99 152.63,280.87 146.92,280.87 ' style='stroke-width: 1.07; stroke: #333333; fill: #00BFC4;' />
<line x1='146.92' y1='282.90' x2='152.63' y2='282.90' style='stroke-width: 2.13; stroke: #333333; stroke-linecap: butt;' />
<line x1='157.39' y1='215.92' x2='157.39' y2='195.25' style='stroke-width: 1.07; stroke: #333333; stroke-linecap: butt;' />
<line x1='157.39' y1='307.50' x2='157.39' y2='313.70' style='stroke-width: 1.07; stroke: #333333; stroke-linecap: butt;' />
<polygon points='154.53,215.92 154.53,307.50 160.24,307.50 160.24,215.92 154.53,215.92 ' style='stroke-width: 1.07; stroke: #333333; fill: #619CFF;' />
<line x1='154.53' y1='269.17' x2='160.24' y2='269.17' style='stroke-width: 2.13; stroke: #333333; stroke-linecap: butt;' />
</g>
<g clip-path='url(#cpMC4wMHw1MDQuMDB8MC4wMHwzNjAuMDA=)'>
</g>
<defs>
  <clipPath id='cpMTg4Ljk4fDIzNi4xOXwzNi44NXwxNjcuMTY='>
    <rect x='188.98' y='36.85' width='47.21' height='130.30' />
  </clipPath>
</defs>
<g clip-path='url(#cpMTg4Ljk4fDIzNi4xOXwzNi44NXwxNjcuMTY=)'>
<rect x='188.98' y='36.85' width='47.21' height='130.30' style='stroke-width: 1.07; stroke: none; fill: #EBEBEB;' />
<polyline points='193.55,167.16 193.55,36.85 ' style='stroke-width: 2.13; stroke: #FFFFFF; stroke-linecap: butt;' />
<polyline points='201.17,167.16 201.17,36.85 ' style='stroke-width: 2.13; stroke: #FFFFFF; stroke-linecap: butt;' />
<polyline points='208.78,167.16 208.78,36.85 ' style='stroke-width: 2.13; stroke: #FFFFFF; stroke-linecap: butt;' />
<polyline points='216.40,167.16 216.40,36.85 ' style='stroke-width: 2.13; stroke: #FFFFFF; stroke-linecap: butt;' />
<polyline points='224.01,167.16 224.01,36.85 ' style='stroke-width: 2.13; stroke: #FFFFFF; stroke-linecap: butt;' />
<polyline points='231.62,167.16 231.62,36.85 ' style='stroke-width: 2.13; stroke: #FFFFFF; stroke-linecap: butt;' />
</g>
<g clip-path='url(#cpMC4wMHw1MDQuMDB8MC4wMHwzNjAuMDA=)'>
</g>
<defs>
  <clipPath id='cpMTg4Ljk4fDIzNi4xOXwxODkuMzJ8MzE5LjYz'>
    <rect x='188.98' y='189.32' width='47.21' height='130.30' />
  </clipPath>
</defs>
<g clip-path='url(#cpMTg4Ljk4fDIzNi4xOXwxODkuMzJ8MzE5LjYz)'>
<rect x='188.98' y='189.32' width='47.21' height='130.30' style='stroke-width: 1.07; stroke: none; fill: #EBEBEB;' />
<polyline points='188.98,300.83 236.19,300.83 ' style='stroke-width: 1.07; stroke: #FFFFFF; stroke-linecap: butt;' />
<polyline points='188.98,275.08 236.19,275.08 ' style='stroke-width: 1.07; stroke: #FFFFFF; stroke-linecap: butt;' />
<polyline points='188.98,249.32 236.19,249.32 ' style='stroke-width: 1.07; stroke: #FFFFFF; stroke-linecap: butt;' />
<polyline points='188.98,223.57 236.19,223.57 ' style='stroke-width: 1.07; stroke: #FFFFFF; stroke-linecap: butt;' />
<polyline points='188.98,197.82 236.19,197.82 ' style='stroke-width: 1.07; stroke: #FFFFFF; stroke-linecap: butt;' />
<polyline points='188.98,313.70 236.19,313.70 ' style='stroke-width: 2.13; stroke: #FFFFFF; stroke-linecap: butt;' />
<polyline points='188.98,287.95 236.19,287.95 ' style='stroke-width: 2.13; stroke: #FFFFFF; stroke-linecap: butt;' />
<polyline points='188.98,262.20 236.19,262.20 ' style='stroke-width: 2.13; stroke: #FFFFFF; stroke-linecap: butt;' />
<polyline points='188.98,236.45 236.19,236.45 ' style='stroke-width: 2.13; stroke: #FFFFFF; stroke-linecap: butt;' />
<polyline points='188.98,210.70 236.19,210.70 ' style='stroke-width: 2.13; stroke: #FFFFFF; stroke-linecap: butt;' />
<polyline points='193.55,319.63 193.55,189.32 ' style='stroke-width: 2.13; stroke: #FFFFFF; stroke-linecap: butt;' />
<polyline points='201.17,319.63 201.17,189.32 ' style='stroke-width: 2.13; stroke: #FFFFFF; stroke-linecap: butt;' />
<polyline points='208.78,319.63 208.78,189.32 ' style='stroke-width: 2.13; stroke: #FFFFFF; stroke-linecap: butt;' />
<polyline points='216.40,319.63 216.40,189.32 ' style='stroke-width: 2.13; stroke: #FFFFFF; stroke-linecap: butt;' />
<polyline points='224.01,319.63 224.01,189.32 ' style='stroke-width: 2.13; stroke: #FFFFFF; stroke-linecap: butt;' />
<polyline points='231.62,319.63 231.62,189.32 ' style='stroke-width: 2.13; stroke: #FFFFFF; stroke-linecap: butt;' />
<circle cx='216.40' cy='313.19' r='1.95' style='stroke-width: 0.71; stroke: #333333; fill: #333333;' />
<circle cx='216.40' cy='285.89' r='1.95' style='stroke-width: 0.71; stroke: #333333; fill: #333333;' />
<circle cx='216.40' cy='211.21' r='1.95' style='stroke-width: 0.71; stroke: #333333; fill: #333333;' />
<circle cx='216.40' cy='309.58' r='1.95' style='stroke-width: 0.71; stroke: #333333; fill: #333333;' />
<circle cx='216.40' cy='210.70' r='1.95' style='stroke-width: 0.71; stroke: #333333; fill: #333333;' />
<circle cx='216.40' cy='242.78' r='1.95' style='stroke-width: 0.71; stroke: #333333; fill: #333333;' />
<circle cx='216.40' cy='242.73' r='1.95' style='stroke-width: 0.71; stroke: #333333; fill: #333333;' />
<circle cx='216.40' cy='288.98' r='1.95' style='stroke-width: 0.71; stroke: #333333; fill: #333333;' />
<circle cx='216.40' cy='281.77' r='1.95' style='stroke-width: 0.71; stroke: #333333; fill: #333333;' />
<circle cx='216.40' cy='309.58' r='1.95' style='stroke-width: 0.71; stroke: #333333; fill: #333333;' />
<circle cx='216.40' cy='245.20' r='1.95' style='stroke-width: 0.71; stroke: #333333; fill: #333333;' />
<circle cx='216.40' cy='283.32' r='1.95' style='stroke-width: 0.71; stroke: #333333; fill: #333333;' />
<circle cx='216.40' cy='311.64' r='1.95' style='stroke-width: 0.71; stroke: #333333; fill: #333333;' />
<circle cx='216.40' cy='312.16' r='1.95' style='stroke-width: 0.71; stroke: #333333; fill: #333333;' />
<circle cx='216.40' cy='312.16' r='1.95' style='stroke-width: 0.71; stroke: #333333; fill: #333333;' />
<line x1='216.40' y1='313.70' x2='216.40' y2='313.70' style='stroke-width: 1.07; stroke: #333333; stroke-linecap: butt;' />
<line x1='216.40' y1='313.70' x2='216.40' y2='313.70' style='stroke-width: 1.07; stroke: #333333; stroke-linecap: butt;' />
<polygon points='213.54,313.70 213.54,313.70 219.25,313.70 219.25,313.70 213.54,313.70 ' style='stroke-width: 1.07; stroke: #333333; fill: #00BFC4;' />
<line x1='213.54' y1='313.70' x2='219.25' y2='313.70' style='stroke-width: 2.13; stroke: #333333; stroke-linecap: butt;' />
<circle cx='224.01' cy='313.19' r='1.95' style='stroke-width: 0.71; stroke: #333333; fill: #333333;' />
<circle cx='224.01' cy='306.49' r='1.95' style='stroke-width: 0.71; stroke: #333333; fill: #333333;' />
<circle cx='224.01' cy='195.76' r='1.95' style='stroke-width: 0.71; stroke: #333333; fill: #333333;' />
<circle cx='224.01' cy='309.07' r='1.95' style='stroke-width: 0.71; stroke: #333333; fill: #333333;' />
<circle cx='224.01' cy='288.47' r='1.95' style='stroke-width: 0.71; stroke: #333333; fill: #333333;' />
<circle cx='224.01' cy='313.19' r='1.95' style='stroke-width: 0.71; stroke: #333333; fill: #333333;' />
<circle cx='224.01' cy='207.61' r='1.95' style='stroke-width: 0.71; stroke: #333333; fill: #333333;' />
<circle cx='224.01' cy='195.25' r='1.95' style='stroke-width: 0.71; stroke: #333333; fill: #333333;' />
<circle cx='224.01' cy='221.51' r='1.95' style='stroke-width: 0.71; stroke: #333333; fill: #333333;' />
<circle cx='224.01' cy='229.75' r='1.95' style='stroke-width: 0.71; stroke: #333333; fill: #333333;' />
<circle cx='224.01' cy='195.76' r='1.95' style='stroke-width: 0.71; stroke: #333333; fill: #333333;' />
<circle cx='224.01' cy='308.55' r='1.95' style='stroke-width: 0.71; stroke: #333333; fill: #333333;' />
<circle cx='224.01' cy='241.08' r='1.95' style='stroke-width: 0.71; stroke: #333333; fill: #333333;' />
<circle cx='224.01' cy='292.59' r='1.95' style='stroke-width: 0.71; stroke: #333333; fill: #333333;' />
<circle cx='224.01' cy='294.13' r='1.95' style='stroke-width: 0.71; stroke: #333333; fill: #333333;' />
<circle cx='224.01' cy='309.58' r='1.95' style='stroke-width: 0.71; stroke: #333333; fill: #333333;' />
<circle cx='224.01' cy='204.52' r='1.95' style='stroke-width: 0.71; stroke: #333333; fill: #333333;' />
<circle cx='224.01' cy='195.25' r='1.95' style='stroke-width: 0.71; stroke: #333333; fill: #333333;' />
<circle cx='224.01' cy='225.12' r='1.95' style='stroke-width: 0.71; stroke: #333333; fill: #333333;' />
<circle cx='224.01' cy='313.19' r='1.95' style='stroke-width: 0.71; stroke: #333333; fill: #333333;' />
<circle cx='224.01' cy='306.49' r='1.95' style='stroke-width: 0.71; stroke: #333333; fill: #333333;' />
<circle cx='224.01' cy='309.58' r='1.95' style='stroke-width: 0.71; stroke: #333333; fill: #333333;' />
<circle cx='224.01' cy='195.25' r='1.95' style='stroke-width: 0.71; stroke: #333333; fill: #333333;' />
<circle cx='224.01' cy='195.25' r='1.95' style='stroke-width: 0.71; stroke: #333333; fill: #333333;' />
<circle cx='224.01' cy='289.50' r='1.95' style='stroke-width: 0.71; stroke: #333333; fill: #333333;' />
<circle cx='224.01' cy='312.16' r='1.95' style='stroke-width: 0.71; stroke: #333333; fill: #333333;' />
<line x1='224.01' y1='313.70' x2='224.01' y2='313.70' style='stroke-width: 1.07; stroke: #333333; stroke-linecap: butt;' />
<line x1='224.01' y1='313.70' x2='224.01' y2='313.70' style='stroke-width: 1.07; stroke: #333333; stroke-linecap: butt;' />
<polygon points='221.15,313.70 221.15,313.70 226.87,313.70 226.87,313.70 221.15,313.70 ' style='stroke-width: 1.07; stroke: #333333; fill: #619CFF;' />
<line x1='221.15' y1='313.70' x2='226.87' y2='313.70' style='stroke-width: 2.13; stroke: #333333; stroke-linecap: butt;' />
</g>
<g clip-path='url(#cpMC4wMHw1MDQuMDB8MC4wMHwzNjAuMDA=)'>
</g>
<defs>
  <clipPath id='cpMjY0LjYwfDMxMS44MnwzNi44NXwxNjcuMTY='>
    <rect x='264.60' y='36.85' width='47.21' height='130.30' />
  </clipPath>
</defs>
<g clip-path='url(#cpMjY0LjYwfDMxMS44MnwzNi44NXwxNjcuMTY=)'>
<rect x='264.60' y='36.85' width='47.21' height='130.30' style='stroke-width: 1.07; stroke: none; fill: #EBEBEB;' />
<polyline points='264.60,148.64 311.82,148.64 ' style='stroke-width: 1.07; stroke: #FFFFFF; stroke-linecap: butt;' />
<polyline points='264.60,123.45 311.82,123.45 ' style='stroke-width: 1.07; stroke: #FFFFFF; stroke-linecap: butt;' />
<polyline points='264.60,98.25 311.82,98.25 ' style='stroke-width: 1.07; stroke: #FFFFFF; stroke-linecap: butt;' />
<polyline points='264.60,73.06 311.82,73.06 ' style='stroke-width: 1.07; stroke: #FFFFFF; stroke-linecap: butt;' />
<polyline points='264.60,47.87 311.82,47.87 ' style='stroke-width: 1.07; stroke: #FFFFFF; stroke-linecap: butt;' />
<polyline points='264.60,161.23 311.82,161.23 ' style='stroke-width: 2.13; stroke: #FFFFFF; stroke-linecap: butt;' />
<polyline points='264.60,136.04 311.82,136.04 ' style='stroke-width: 2.13; stroke: #FFFFFF; stroke-linecap: butt;' />
<polyline points='264.60,110.85 311.82,110.85 ' style='stroke-width: 2.13; stroke: #FFFFFF; stroke-linecap: butt;' />
<polyline points='264.60,85.66 311.82,85.66 ' style='stroke-width: 2.13; stroke: #FFFFFF; stroke-linecap: butt;' />
<polyline points='264.60,60.46 311.82,60.46 ' style='stroke-width: 2.13; stroke: #FFFFFF; stroke-linecap: butt;' />
<polyline points='269.17,167.16 269.17,36.85 ' style='stroke-width: 2.13; stroke: #FFFFFF; stroke-linecap: butt;' />
<polyline points='276.79,167.16 276.79,36.85 ' style='stroke-width: 2.13; stroke: #FFFFFF; stroke-linecap: butt;' />
<polyline points='284.40,167.16 284.40,36.85 ' style='stroke-width: 2.13; stroke: #FFFFFF; stroke-linecap: butt;' />
<polyline points='292.02,167.16 292.02,36.85 ' style='stroke-width: 2.13; stroke: #FFFFFF; stroke-linecap: butt;' />
<polyline points='299.63,167.16 299.63,36.85 ' style='stroke-width: 2.13; stroke: #FFFFFF; stroke-linecap: butt;' />
<polyline points='307.25,167.16 307.25,36.85 ' style='stroke-width: 2.13; stroke: #FFFFFF; stroke-linecap: butt;' />
<line x1='292.02' y1='130.50' x2='292.02' y2='121.81' style='stroke-width: 1.07; stroke: #333333; stroke-linecap: butt;' />
<line x1='292.02' y1='161.23' x2='292.02' y2='161.23' style='stroke-width: 1.07; stroke: #333333; stroke-linecap: butt;' />
<polygon points='289.16,130.50 289.16,161.23 294.87,161.23 294.87,130.50 289.16,130.50 ' style='stroke-width: 1.07; stroke: #333333; fill: #00BFC4;' />
<line x1='289.16' y1='141.84' x2='294.87' y2='141.84' style='stroke-width: 2.13; stroke: #333333; stroke-linecap: butt;' />
<line x1='299.63' y1='64.75' x2='299.63' y2='42.78' style='stroke-width: 1.07; stroke: #333333; stroke-linecap: butt;' />
<line x1='299.63' y1='161.23' x2='299.63' y2='161.23' style='stroke-width: 1.07; stroke: #333333; stroke-linecap: butt;' />
<polygon points='296.78,64.75 296.78,161.23 302.49,161.23 302.49,64.75 296.78,64.75 ' style='stroke-width: 1.07; stroke: #333333; fill: #619CFF;' />
<line x1='296.78' y1='120.67' x2='302.49' y2='120.67' style='stroke-width: 2.13; stroke: #333333; stroke-linecap: butt;' />
</g>
<g clip-path='url(#cpMC4wMHw1MDQuMDB8MC4wMHwzNjAuMDA=)'>
</g>
<defs>
  <clipPath id='cpMjY0LjYwfDMxMS44MnwxODkuMzJ8MzE5LjYz'>
    <rect x='264.60' y='189.32' width='47.21' height='130.30' />
  </clipPath>
</defs>
<g clip-path='url(#cpMjY0LjYwfDMxMS44MnwxODkuMzJ8MzE5LjYz)'>
<rect x='264.60' y='189.32' width='47.21' height='130.30' style='stroke-width: 1.07; stroke: none; fill: #EBEBEB;' />
<polyline points='264.60,299.04 311.82,299.04 ' style='stroke-width: 1.07; stroke: #FFFFFF; stroke-linecap: butt;' />
<polyline points='264.60,269.70 311.82,269.70 ' style='stroke-width: 1.07; stroke: #FFFFFF; stroke-linecap: butt;' />
<polyline points='264.60,240.37 311.82,240.37 ' style='stroke-width: 1.07; stroke: #FFFFFF; stroke-linecap: butt;' />
<polyline points='264.60,211.04 311.82,211.04 ' style='stroke-width: 1.07; stroke: #FFFFFF; stroke-linecap: butt;' />
<polyline points='264.60,313.70 311.82,313.70 ' style='stroke-width: 2.13; stroke: #FFFFFF; stroke-linecap: butt;' />
<polyline points='264.60,284.37 311.82,284.37 ' style='stroke-width: 2.13; stroke: #FFFFFF; stroke-linecap: butt;' />
<polyline points='264.60,255.04 311.82,255.04 ' style='stroke-width: 2.13; stroke: #FFFFFF; stroke-linecap: butt;' />
<polyline points='264.60,225.71 311.82,225.71 ' style='stroke-width: 2.13; stroke: #FFFFFF; stroke-linecap: butt;' />
<polyline points='264.60,196.37 311.82,196.37 ' style='stroke-width: 2.13; stroke: #FFFFFF; stroke-linecap: butt;' />
<polyline points='269.17,319.63 269.17,189.32 ' style='stroke-width: 2.13; stroke: #FFFFFF; stroke-linecap: butt;' />
<polyline points='276.79,319.63 276.79,189.32 ' style='stroke-width: 2.13; stroke: #FFFFFF; stroke-linecap: butt;' />
<polyline points='284.40,319.63 284.40,189.32 ' style='stroke-width: 2.13; stroke: #FFFFFF; stroke-linecap: butt;' />
<polyline points='292.02,319.63 292.02,189.32 ' style='stroke-width: 2.13; stroke: #FFFFFF; stroke-linecap: butt;' />
<polyline points='299.63,319.63 299.63,189.32 ' style='stroke-width: 2.13; stroke: #FFFFFF; stroke-linecap: butt;' />
<polyline points='307.25,319.63 307.25,189.32 ' style='stroke-width: 2.13; stroke: #FFFFFF; stroke-linecap: butt;' />
<line x1='269.17' y1='275.69' x2='269.17' y2='240.61' style='stroke-width: 1.07; stroke: #333333; stroke-linecap: butt;' />
<line x1='269.17' y1='312.18' x2='269.17' y2='313.70' style='stroke-width: 1.07; stroke: #333333; stroke-linecap: butt;' />
<polygon points='266.32,275.69 266.32,312.18 272.03,312.18 272.03,275.69 266.32,275.69 ' style='stroke-width: 1.07; stroke: #333333; fill: #F8766D;' />
<line x1='266.32' y1='311.59' x2='272.03' y2='311.59' style='stroke-width: 2.13; stroke: #333333; stroke-linecap: butt;' />
<circle cx='276.79' cy='269.66' r='1.95' style='stroke-width: 0.71; stroke: #333333; fill: #333333;' />
<circle cx='276.79' cy='267.32' r='1.95' style='stroke-width: 0.71; stroke: #333333; fill: #333333;' />
<circle cx='276.79' cy='267.45' r='1.95' style='stroke-width: 0.71; stroke: #333333; fill: #333333;' />
<circle cx='276.79' cy='267.52' r='1.95' style='stroke-width: 0.71; stroke: #333333; fill: #333333;' />
<circle cx='276.79' cy='266.76' r='1.95' style='stroke-width: 0.71; stroke: #333333; fill: #333333;' />
<circle cx='276.79' cy='266.27' r='1.95' style='stroke-width: 0.71; stroke: #333333; fill: #333333;' />
<circle cx='276.79' cy='266.86' r='1.95' style='stroke-width: 0.71; stroke: #333333; fill: #333333;' />
<circle cx='276.79' cy='267.17' r='1.95' style='stroke-width: 0.71; stroke: #333333; fill: #333333;' />
<circle cx='276.79' cy='267.23' r='1.95' style='stroke-width: 0.71; stroke: #333333; fill: #333333;' />
<circle cx='276.79' cy='267.05' r='1.95' style='stroke-width: 0.71; stroke: #333333; fill: #333333;' />
<circle cx='276.79' cy='267.22' r='1.95' style='stroke-width: 0.71; stroke: #333333; fill: #333333;' />
<circle cx='276.79' cy='267.13' r='1.95' style='stroke-width: 0.71; stroke: #333333; fill: #333333;' />
<circle cx='276.79' cy='267.49' r='1.95' style='stroke-width: 0.71; stroke: #333333; fill: #333333;' />
<circle cx='276.79' cy='267.62' r='1.95' style='stroke-width: 0.71; stroke: #333333; fill: #333333;' />
<circle cx='276.79' cy='271.14' r='1.95' style='stroke-width: 0.71; stroke: #333333; fill: #333333;' />
<circle cx='276.79' cy='271.17' r='1.95' style='stroke-width: 0.71; stroke: #333333; fill: #333333;' />
<circle cx='276.79' cy='267.65' r='1.95' style='stroke-width: 0.71; stroke: #333333; fill: #333333;' />
<circle cx='276.79' cy='268.01' r='1.95' style='stroke-width: 0.71; stroke: #333333; fill: #333333;' />
<circle cx='276.79' cy='272.39' r='1.95' style='stroke-width: 0.71; stroke: #333333; fill: #333333;' />
<circle cx='276.79' cy='276.50' r='1.95' style='stroke-width: 0.71; stroke: #333333; fill: #333333;' />
<circle cx='276.79' cy='276.29' r='1.95' style='stroke-width: 0.71; stroke: #333333; fill: #333333;' />
<circle cx='276.79' cy='275.72' r='1.95' style='stroke-width: 0.71; stroke: #333333; fill: #333333;' />
<circle cx='276.79' cy='275.66' r='1.95' style='stroke-width: 0.71; stroke: #333333; fill: #333333;' />
<circle cx='276.79' cy='273.52' r='1.95' style='stroke-width: 0.71; stroke: #333333; fill: #333333;' />
<circle cx='276.79' cy='246.87' r='1.95' style='stroke-width: 0.71; stroke: #333333; fill: #333333;' />
<circle cx='276.79' cy='247.22' r='1.95' style='stroke-width: 0.71; stroke: #333333; fill: #333333;' />
<circle cx='276.79' cy='275.25' r='1.95' style='stroke-width: 0.71; stroke: #333333; fill: #333333;' />
<circle cx='276.79' cy='257.15' r='1.95' style='stroke-width: 0.71; stroke: #333333; fill: #333333;' />
<line x1='276.79' y1='298.93' x2='276.79' y2='277.08' style='stroke-width: 1.07; stroke: #333333; stroke-linecap: butt;' />
<line x1='276.79' y1='313.59' x2='276.79' y2='313.70' style='stroke-width: 1.07; stroke: #333333; stroke-linecap: butt;' />
<polygon points='273.93,298.93 273.93,313.59 279.64,313.59 279.64,298.93 273.93,298.93 ' style='stroke-width: 1.07; stroke: #333333; fill: #B79F00;' />
<line x1='273.93' y1='309.26' x2='279.64' y2='309.26' style='stroke-width: 2.13; stroke: #333333; stroke-linecap: butt;' />
<circle cx='284.40' cy='310.77' r='1.95' style='stroke-width: 0.71; stroke: #333333; fill: #333333;' />
<circle cx='284.40' cy='310.77' r='1.95' style='stroke-width: 0.71; stroke: #333333; fill: #333333;' />
<circle cx='284.40' cy='310.77' r='1.95' style='stroke-width: 0.71; stroke: #333333; fill: #333333;' />
<circle cx='284.40' cy='310.30' r='1.95' style='stroke-width: 0.71; stroke: #333333; fill: #333333;' />
<circle cx='284.40' cy='310.30' r='1.95' style='stroke-width: 0.71; stroke: #333333; fill: #333333;' />
<circle cx='284.40' cy='310.30' r='1.95' style='stroke-width: 0.71; stroke: #333333; fill: #333333;' />
<circle cx='284.40' cy='310.30' r='1.95' style='stroke-width: 0.71; stroke: #333333; fill: #333333;' />
<circle cx='284.40' cy='310.30' r='1.95' style='stroke-width: 0.71; stroke: #333333; fill: #333333;' />
<circle cx='284.40' cy='310.30' r='1.95' style='stroke-width: 0.71; stroke: #333333; fill: #333333;' />
<circle cx='284.40' cy='310.30' r='1.95' style='stroke-width: 0.71; stroke: #333333; fill: #333333;' />
<circle cx='284.40' cy='310.30' r='1.95' style='stroke-width: 0.71; stroke: #333333; fill: #333333;' />
<circle cx='284.40' cy='310.30' r='1.95' style='stroke-width: 0.71; stroke: #333333; fill: #333333;' />
<circle cx='284.40' cy='310.30' r='1.95' style='stroke-width: 0.71; stroke: #333333; fill: #333333;' />
<circle cx='284.40' cy='310.30' r='1.95' style='stroke-width: 0.71; stroke: #333333; fill: #333333;' />
<circle cx='284.40' cy='310.30' r='1.95' style='stroke-width: 0.71; stroke: #333333; fill: #333333;' />
<circle cx='284.40' cy='310.30' r='1.95' style='stroke-width: 0.71; stroke: #333333; fill: #333333;' />
<circle cx='284.40' cy='310.30' r='1.95' style='stroke-width: 0.71; stroke: #333333; fill: #333333;' />
<circle cx='284.40' cy='310.30' r='1.95' style='stroke-width: 0.71; stroke: #333333; fill: #333333;' />
<circle cx='284.40' cy='227.93' r='1.95' style='stroke-width: 0.71; stroke: #333333; fill: #333333;' />
<circle cx='284.40' cy='231.34' r='1.95' style='stroke-width: 0.71; stroke: #333333; fill: #333333;' />
<circle cx='284.40' cy='231.34' r='1.95' style='stroke-width: 0.71; stroke: #333333; fill: #333333;' />
<circle cx='284.40' cy='231.34' r='1.95' style='stroke-width: 0.71; stroke: #333333; fill: #333333;' />
<circle cx='284.40' cy='231.34' r='1.95' style='stroke-width: 0.71; stroke: #333333; fill: #333333;' />
<circle cx='284.40' cy='231.45' r='1.95' style='stroke-width: 0.71; stroke: #333333; fill: #333333;' />
<circle cx='284.40' cy='310.30' r='1.95' style='stroke-width: 0.71; stroke: #333333; fill: #333333;' />
<circle cx='284.40' cy='310.30' r='1.95' style='stroke-width: 0.71; stroke: #333333; fill: #333333;' />
<circle cx='284.40' cy='310.30' r='1.95' style='stroke-width: 0.71; stroke: #333333; fill: #333333;' />
<circle cx='284.40' cy='310.30' r='1.95' style='stroke-width: 0.71; stroke: #333333; fill: #333333;' />
<circle cx='284.40' cy='310.30' r='1.95' style='stroke-width: 0.71; stroke: #333333; fill: #333333;' />
<circle cx='284.40' cy='310.30' r='1.95' style='stroke-width: 0.71; stroke: #333333; fill: #333333;' />
<circle cx='284.40' cy='310.30' r='1.95' style='stroke-width: 0.71; stroke: #333333; fill: #333333;' />
<line x1='284.40' y1='311.98' x2='284.40' y2='311.95' style='stroke-width: 1.07; stroke: #333333; stroke-linecap: butt;' />
<line x1='284.40' y1='312.54' x2='284.40' y2='312.59' style='stroke-width: 1.07; stroke: #333333; stroke-linecap: butt;' />
<polygon points='281.55,311.98 281.55,312.54 287.26,312.54 287.26,311.98 281.55,311.98 ' style='stroke-width: 1.07; stroke: #333333; fill: #00BA38;' />
<line x1='281.55' y1='312.51' x2='287.26' y2='312.51' style='stroke-width: 2.13; stroke: #333333; stroke-linecap: butt;' />
<line x1='307.25' y1='216.07' x2='307.25' y2='195.25' style='stroke-width: 1.07; stroke: #333333; stroke-linecap: butt;' />
<line x1='307.25' y1='288.61' x2='307.25' y2='311.71' style='stroke-width: 1.07; stroke: #333333; stroke-linecap: butt;' />
<polygon points='304.39,216.07 304.39,288.61 310.10,288.61 310.10,216.07 304.39,216.07 ' style='stroke-width: 1.07; stroke: #333333; fill: #F564E3;' />
<line x1='304.39' y1='270.82' x2='310.10' y2='270.82' style='stroke-width: 2.13; stroke: #333333; stroke-linecap: butt;' />
</g>
<g clip-path='url(#cpMC4wMHw1MDQuMDB8MC4wMHwzNjAuMDA=)'>
</g>
<defs>
  <clipPath id='cpMTIyLjM2fDE2OS41N3wxNzIuNjR8MTg5LjMy'>
    <rect x='122.36' y='172.64' width='47.21' height='16.69' />
  </clipPath>
</defs>
<g clip-path='url(#cpMTIyLjM2fDE2OS41N3wxNzIuNjR8MTg5LjMy)'>
<rect x='122.36' y='172.64' width='47.21' height='16.69' style='stroke-width: 1.07; stroke: none; fill: #D9D9D9;' />
<text x='145.97' y='184.05' text-anchor='middle' style='font-size: 8.80px; fill: #1A1A1A; font-family: IBM Plex Sans;' textLength='23.12px' lengthAdjust='spacingAndGlyphs'>South</text>
</g>
<g clip-path='url(#cpMC4wMHw1MDQuMDB8MC4wMHwzNjAuMDA=)'>
</g>
<defs>
  <clipPath id='cpMTg4Ljk4fDIzNi4xOXwxNzIuNjR8MTg5LjMy'>
    <rect x='188.98' y='172.64' width='47.21' height='16.69' />
  </clipPath>
</defs>
<g clip-path='url(#cpMTg4Ljk4fDIzNi4xOXwxNzIuNjR8MTg5LjMy)'>
<rect x='188.98' y='172.64' width='47.21' height='16.69' style='stroke-width: 1.07; stroke: none; fill: #D9D9D9;' />
<text x='212.59' y='184.05' text-anchor='middle' style='font-size: 8.80px; fill: #1A1A1A; font-family: IBM Plex Sans;' textLength='73.04px' lengthAdjust='spacingAndGlyphs'>Conservation Flow</text>
</g>
<g clip-path='url(#cpMC4wMHw1MDQuMDB8MC4wMHwzNjAuMDA=)'>
</g>
<defs>
  <clipPath id='cpMjY0LjYwfDMxMS44MnwxNzIuNjR8MTg5LjMy'>
    <rect x='264.60' y='172.64' width='47.21' height='16.69' />
  </clipPath>
</defs>
<g clip-path='url(#cpMjY0LjYwfDMxMS44MnwxNzIuNjR8MTg5LjMy)'>
<rect x='264.60' y='172.64' width='47.21' height='16.69' style='stroke-width: 1.07; stroke: none; fill: #D9D9D9;' />
<text x='288.21' y='184.05' text-anchor='middle' style='font-size: 8.80px; fill: #1A1A1A; font-family: IBM Plex Sans;' textLength='11.86px' lengthAdjust='spacingAndGlyphs'>NA</text>
</g>
<g clip-path='url(#cpMC4wMHw1MDQuMDB8MC4wMHwzNjAuMDA=)'>
</g>
<defs>
  <clipPath id='cpMTIyLjM2fDE2OS41N3wyMC4xN3wzNi44NQ=='>
    <rect x='122.36' y='20.17' width='47.21' height='16.69' />
  </clipPath>
</defs>
<g clip-path='url(#cpMTIyLjM2fDE2OS41N3wyMC4xN3wzNi44NQ==)'>
<rect x='122.36' y='20.17' width='47.21' height='16.69' style='stroke-width: 1.07; stroke: none; fill: #D9D9D9;' />
<text x='145.97' y='31.58' text-anchor='middle' style='font-size: 8.80px; fill: #1A1A1A; font-family: IBM Plex Sans;' textLength='17.20px' lengthAdjust='spacingAndGlyphs'>East</text>
</g>
<g clip-path='url(#cpMC4wMHw1MDQuMDB8MC4wMHwzNjAuMDA=)'>
</g>
<defs>
  <clipPath id='cpMTg4Ljk4fDIzNi4xOXwyMC4xN3wzNi44NQ=='>
    <rect x='188.98' y='20.17' width='47.21' height='16.69' />
  </clipPath>
</defs>
<g clip-path='url(#cpMTg4Ljk4fDIzNi4xOXwyMC4xN3wzNi44NQ==)'>
<rect x='188.98' y='20.17' width='47.21' height='16.69' style='stroke-width: 1.07; stroke: none; fill: #D9D9D9;' />
<text x='212.59' y='31.58' text-anchor='middle' style='font-size: 8.80px; fill: #1A1A1A; font-family: IBM Plex Sans;' textLength='20.04px' lengthAdjust='spacingAndGlyphs'>West</text>
</g>
<g clip-path='url(#cpMC4wMHw1MDQuMDB8MC4wMHwzNjAuMDA=)'>
</g>
<defs>
  <clipPath id='cpMjY0LjYwfDMxMS44MnwyMC4xN3wzNi44NQ=='>
    <rect x='264.60' y='20.17' width='47.21' height='16.69' />
  </clipPath>
</defs>
<g clip-path='url(#cpMjY0LjYwfDMxMS44MnwyMC4xN3wzNi44NQ==)'>
<rect x='264.60' y='20.17' width='47.21' height='16.69' style='stroke-width: 1.07; stroke: none; fill: #D9D9D9;' />
<text x='288.21' y='31.58' text-anchor='middle' style='font-size: 8.80px; fill: #1A1A1A; font-family: IBM Plex Sans;' textLength='22.46px' lengthAdjust='spacingAndGlyphs'>North</text>
</g>
<g clip-path='url(#cpMC4wMHw1MDQuMDB8MC4wMHwzNjAuMDA=)'>
<polyline points='126.93,322.37 126.93,319.63 ' style='stroke-width: 2.13; stroke: #333333; stroke-linecap: butt;' />
<polyline points='134.54,322.37 134.54,319.63 ' style='stroke-width: 2.13; stroke: #333333; stroke-linecap: butt;' />
<polyline points='142.16,322.37 142.16,319.63 ' style='stroke-width: 2.13; stroke: #333333; stroke-linecap: butt;' />
<polyline points='149.77,322.37 149.77,319.63 ' style='stroke-width: 2.13; stroke: #333333; stroke-linecap: butt;' />
<polyline points='157.39,322.37 157.39,319.63 ' style='stroke-width: 2.13; stroke: #333333; stroke-linecap: butt;' />
<polyline points='165.00,322.37 165.00,319.63 ' style='stroke-width: 2.13; stroke: #333333; stroke-linecap: butt;' />
<text x='126.93' y='330.70' text-anchor='middle' style='font-size: 8.80px; fill: #4D4D4D; font-family: IBM Plex Sans;' textLength='34.18px' lengthAdjust='spacingAndGlyphs'>Ashokan</text>
<text x='134.54' y='330.70' text-anchor='middle' style='font-size: 8.80px; fill: #4D4D4D; font-family: IBM Plex Sans;' textLength='39.42px' lengthAdjust='spacingAndGlyphs'>Schoharie</text>
<text x='142.16' y='330.70' text-anchor='middle' style='font-size: 8.80px; fill: #4D4D4D; font-family: IBM Plex Sans;' textLength='33.67px' lengthAdjust='spacingAndGlyphs'>Rondout</text>
<text x='149.77' y='330.70' text-anchor='middle' style='font-size: 8.80px; fill: #4D4D4D; font-family: IBM Plex Sans;' textLength='39.56px' lengthAdjust='spacingAndGlyphs'>Neversink</text>
<text x='157.39' y='330.70' text-anchor='middle' style='font-size: 8.80px; fill: #4D4D4D; font-family: IBM Plex Sans;' textLength='37.41px' lengthAdjust='spacingAndGlyphs'>Pepacton</text>
<text x='165.00' y='330.70' text-anchor='middle' style='font-size: 8.80px; fill: #4D4D4D; font-family: IBM Plex Sans;' textLength='50.51px' lengthAdjust='spacingAndGlyphs'>Cannonsville</text>
<polyline points='193.55,322.37 193.55,319.63 ' style='stroke-width: 2.13; stroke: #333333; stroke-linecap: butt;' />
<polyline points='201.17,322.37 201.17,319.63 ' style='stroke-width: 2.13; stroke: #333333; stroke-linecap: butt;' />
<polyline points='208.78,322.37 208.78,319.63 ' style='stroke-width: 2.13; stroke: #333333; stroke-linecap: butt;' />
<polyline points='216.40,322.37 216.40,319.63 ' style='stroke-width: 2.13; stroke: #333333; stroke-linecap: butt;' />
<polyline points='224.01,322.37 224.01,319.63 ' style='stroke-width: 2.13; stroke: #333333; stroke-linecap: butt;' />
<polyline points='231.62,322.37 231.62,319.63 ' style='stroke-width: 2.13; stroke: #333333; stroke-linecap: butt;' />
<text x='193.55' y='330.70' text-anchor='middle' style='font-size: 8.80px; fill: #4D4D4D; font-family: IBM Plex Sans;' textLength='34.18px' lengthAdjust='spacingAndGlyphs'>Ashokan</text>
<text x='201.17' y='330.70' text-anchor='middle' style='font-size: 8.80px; fill: #4D4D4D; font-family: IBM Plex Sans;' textLength='39.42px' lengthAdjust='spacingAndGlyphs'>Schoharie</text>
<text x='208.78' y='330.70' text-anchor='middle' style='font-size: 8.80px; fill: #4D4D4D; font-family: IBM Plex Sans;' textLength='33.67px' lengthAdjust='spacingAndGlyphs'>Rondout</text>
<text x='216.40' y='330.70' text-anchor='middle' style='font-size: 8.80px; fill: #4D4D4D; font-family: IBM Plex Sans;' textLength='39.56px' lengthAdjust='spacingAndGlyphs'>Neversink</text>
<text x='224.01' y='330.70' text-anchor='middle' style='font-size: 8.80px; fill: #4D4D4D; font-family: IBM Plex Sans;' textLength='37.41px' lengthAdjust='spacingAndGlyphs'>Pepacton</text>
<text x='231.62' y='330.70' text-anchor='middle' style='font-size: 8.80px; fill: #4D4D4D; font-family: IBM Plex Sans;' textLength='50.51px' lengthAdjust='spacingAndGlyphs'>Cannonsville</text>
<polyline points='269.17,322.37 269.17,319.63 ' style='stroke-width: 2.13; stroke: #333333; stroke-linecap: butt;' />
<polyline points='276.79,322.37 276.79,319.63 ' style='stroke-width: 2.13; stroke: #333333; stroke-linecap: butt;' />
<polyline points='284.40,322.37 284.40,319.63 ' style='stroke-width: 2.13; stroke: #333333; stroke-linecap: butt;' />
<polyline points='292.02,322.37 292.02,319.63 ' style='stroke-width: 2.13; stroke: #333333; stroke-linecap: butt;' />
<polyline points='299.63,322.37 299.63,319.63 ' style='stroke-width: 2.13; stroke: #333333; stroke-linecap: butt;' />
<polyline points='307.25,322.37 307.25,319.63 ' style='stroke-width: 2.13; stroke: #333333; stroke-linecap: butt;' />
<text x='269.17' y='330.70' text-anchor='middle' style='font-size: 8.80px; fill: #4D4D4D; font-family: IBM Plex Sans;' textLength='34.18px' lengthAdjust='spacingAndGlyphs'>Ashokan</text>
<text x='276.79' y='330.70' text-anchor='middle' style='font-size: 8.80px; fill: #4D4D4D; font-family: IBM Plex Sans;' textLength='39.42px' lengthAdjust='spacingAndGlyphs'>Schoharie</text>
<text x='284.40' y='330.70' text-anchor='middle' style='font-size: 8.80px; fill: #4D4D4D; font-family: IBM Plex Sans;' textLength='33.67px' lengthAdjust='spacingAndGlyphs'>Rondout</text>
<text x='292.02' y='330.70' text-anchor='middle' style='font-size: 8.80px; fill: #4D4D4D; font-family: IBM Plex Sans;' textLength='39.56px' lengthAdjust='spacingAndGlyphs'>Neversink</text>
<text x='299.63' y='330.70' text-anchor='middle' style='font-size: 8.80px; fill: #4D4D4D; font-family: IBM Plex Sans;' textLength='37.41px' lengthAdjust='spacingAndGlyphs'>Pepacton</text>
<text x='307.25' y='330.70' text-anchor='middle' style='font-size: 8.80px; fill: #4D4D4D; font-family: IBM Plex Sans;' textLength='50.51px' lengthAdjust='spacingAndGlyphs'>Cannonsville</text>
<text x='259.67' y='164.31' text-anchor='end' style='font-size: 8.80px; fill: #4D4D4D; font-family: IBM Plex Sans;' textLength='5.28px' lengthAdjust='spacingAndGlyphs'>0</text>
<text x='259.67' y='139.11' text-anchor='end' style='font-size: 8.80px; fill: #4D4D4D; font-family: IBM Plex Sans;' textLength='10.56px' lengthAdjust='spacingAndGlyphs'>50</text>
<text x='259.67' y='113.92' text-anchor='end' style='font-size: 8.80px; fill: #4D4D4D; font-family: IBM Plex Sans;' textLength='15.83px' lengthAdjust='spacingAndGlyphs'>100</text>
<text x='259.67' y='88.73' text-anchor='end' style='font-size: 8.80px; fill: #4D4D4D; font-family: IBM Plex Sans;' textLength='15.83px' lengthAdjust='spacingAndGlyphs'>150</text>
<text x='259.67' y='63.53' text-anchor='end' style='font-size: 8.80px; fill: #4D4D4D; font-family: IBM Plex Sans;' textLength='15.83px' lengthAdjust='spacingAndGlyphs'>200</text>
<polyline points='261.86,161.23 264.60,161.23 ' style='stroke-width: 2.13; stroke: #333333; stroke-linecap: butt;' />
<polyline points='261.86,136.04 264.60,136.04 ' style='stroke-width: 2.13; stroke: #333333; stroke-linecap: butt;' />
<polyline points='261.86,110.85 264.60,110.85 ' style='stroke-width: 2.13; stroke: #333333; stroke-linecap: butt;' />
<polyline points='261.86,85.66 264.60,85.66 ' style='stroke-width: 2.13; stroke: #333333; stroke-linecap: butt;' />
<polyline points='261.86,60.46 264.60,60.46 ' style='stroke-width: 2.13; stroke: #333333; stroke-linecap: butt;' />
<text x='259.67' y='316.77' text-anchor='end' style='font-size: 8.80px; fill: #4D4D4D; font-family: IBM Plex Sans;' textLength='5.28px' lengthAdjust='spacingAndGlyphs'>0</text>
<text x='259.67' y='287.44' text-anchor='end' style='font-size: 8.80px; fill: #4D4D4D; font-family: IBM Plex Sans;' textLength='15.83px' lengthAdjust='spacingAndGlyphs'>250</text>
<text x='259.67' y='258.11' text-anchor='end' style='font-size: 8.80px; fill: #4D4D4D; font-family: IBM Plex Sans;' textLength='15.83px' lengthAdjust='spacingAndGlyphs'>500</text>
<text x='259.67' y='228.78' text-anchor='end' style='font-size: 8.80px; fill: #4D4D4D; font-family: IBM Plex Sans;' textLength='15.83px' lengthAdjust='spacingAndGlyphs'>750</text>
<text x='259.67' y='199.44' text-anchor='end' style='font-size: 8.80px; fill: #4D4D4D; font-family: IBM Plex Sans;' textLength='21.11px' lengthAdjust='spacingAndGlyphs'>1000</text>
<polyline points='261.86,313.70 264.60,313.70 ' style='stroke-width: 2.13; stroke: #333333; stroke-linecap: butt;' />
<polyline points='261.86,284.37 264.60,284.37 ' style='stroke-width: 2.13; stroke: #333333; stroke-linecap: butt;' />
<polyline points='261.86,255.04 264.60,255.04 ' style='stroke-width: 2.13; stroke: #333333; stroke-linecap: butt;' />
<polyline points='261.86,225.71 264.60,225.71 ' style='stroke-width: 2.13; stroke: #333333; stroke-linecap: butt;' />
<polyline points='261.86,196.37 264.60,196.37 ' style='stroke-width: 2.13; stroke: #333333; stroke-linecap: butt;' />
<text x='184.05' y='316.77' text-anchor='end' style='font-size: 8.80px; fill: #4D4D4D; font-family: IBM Plex Sans;' textLength='5.28px' lengthAdjust='spacingAndGlyphs'>0</text>
<text x='184.05' y='291.02' text-anchor='end' style='font-size: 8.80px; fill: #4D4D4D; font-family: IBM Plex Sans;' textLength='5.28px' lengthAdjust='spacingAndGlyphs'>5</text>
<text x='184.05' y='265.27' text-anchor='end' style='font-size: 8.80px; fill: #4D4D4D; font-family: IBM Plex Sans;' textLength='10.56px' lengthAdjust='spacingAndGlyphs'>10</text>
<text x='184.05' y='239.52' text-anchor='end' style='font-size: 8.80px; fill: #4D4D4D; font-family: IBM Plex Sans;' textLength='10.56px' lengthAdjust='spacingAndGlyphs'>15</text>
<text x='184.05' y='213.77' text-anchor='end' style='font-size: 8.80px; fill: #4D4D4D; font-family: IBM Plex Sans;' textLength='10.56px' lengthAdjust='spacingAndGlyphs'>20</text>
<polyline points='186.24,313.70 188.98,313.70 ' style='stroke-width: 2.13; stroke: #333333; stroke-linecap: butt;' />
<polyline points='186.24,287.95 188.98,287.95 ' style='stroke-width: 2.13; stroke: #333333; stroke-linecap: butt;' />
<polyline points='186.24,262.20 188.98,262.20 ' style='stroke-width: 2.13; stroke: #333333; stroke-linecap: butt;' />
<polyline points='186.24,236.45 188.98,236.45 ' style='stroke-width: 2.13; stroke: #333333; stroke-linecap: butt;' />
<polyline points='186.24,210.70 188.98,210.70 ' style='stroke-width: 2.13; stroke: #333333; stroke-linecap: butt;' />
<text x='117.43' y='316.77' text-anchor='end' style='font-size: 8.80px; fill: #4D4D4D; font-family: IBM Plex Sans;' textLength='5.28px' lengthAdjust='spacingAndGlyphs'>0</text>
<text x='117.43' y='291.56' text-anchor='end' style='font-size: 8.80px; fill: #4D4D4D; font-family: IBM Plex Sans;' textLength='10.56px' lengthAdjust='spacingAndGlyphs'>50</text>
<text x='117.43' y='266.35' text-anchor='end' style='font-size: 8.80px; fill: #4D4D4D; font-family: IBM Plex Sans;' textLength='15.83px' lengthAdjust='spacingAndGlyphs'>100</text>
<text x='117.43' y='241.13' text-anchor='end' style='font-size: 8.80px; fill: #4D4D4D; font-family: IBM Plex Sans;' textLength='15.83px' lengthAdjust='spacingAndGlyphs'>150</text>
<text x='117.43' y='215.92' text-anchor='end' style='font-size: 8.80px; fill: #4D4D4D; font-family: IBM Plex Sans;' textLength='15.83px' lengthAdjust='spacingAndGlyphs'>200</text>
<polyline points='119.62,313.70 122.36,313.70 ' style='stroke-width: 2.13; stroke: #333333; stroke-linecap: butt;' />
<polyline points='119.62,288.49 122.36,288.49 ' style='stroke-width: 2.13; stroke: #333333; stroke-linecap: butt;' />
<polyline points='119.62,263.27 122.36,263.27 ' style='stroke-width: 2.13; stroke: #333333; stroke-linecap: butt;' />
<polyline points='119.62,238.06 122.36,238.06 ' style='stroke-width: 2.13; stroke: #333333; stroke-linecap: butt;' />
<polyline points='119.62,212.85 122.36,212.85 ' style='stroke-width: 2.13; stroke: #333333; stroke-linecap: butt;' />
<text x='217.09' y='342.90' text-anchor='middle' style='font-size: 11.00px; font-family: IBM Plex Sans;' textLength='46.89px' lengthAdjust='spacingAndGlyphs'>Reservoir</text>
<text transform='translate(101.19,178.24) rotate(-90)' text-anchor='middle' style='font-size: 11.00px; font-family: IBM Plex Sans;' textLength='39.39px' lengthAdjust='spacingAndGlyphs'>Release</text>
<rect x='322.77' y='113.34' width='87.72' height='129.80' style='stroke-width: 1.07; stroke: none; fill: #55AAFF;' />
<text x='328.25' y='127.50' style='font-size: 11.00px; font-family: IBM Plex Sans;' textLength='46.89px' lengthAdjust='spacingAndGlyphs'>Reservoir</text>
<rect x='328.25' y='133.98' width='17.28' height='17.28' style='stroke-width: 1.07; stroke: none; fill: #F2F2F2;' />
<polyline points='336.89,149.53 336.89,146.94 ' style='stroke-width: 1.07; stroke: #333333;' />
<polyline points='336.89,138.30 336.89,135.71 ' style='stroke-width: 1.07; stroke: #333333;' />
<rect x='330.41' y='138.30' width='12.96' height='8.64' style='stroke-width: 1.07; stroke: #333333; fill: #F8766D;' />
<polyline points='330.41,142.62 343.37,142.62 ' style='stroke-width: 1.07; stroke: #333333;' />
<rect x='328.25' y='151.26' width='17.28' height='17.28' style='stroke-width: 1.07; stroke: none; fill: #F2F2F2;' />
<polyline points='336.89,166.81 336.89,164.22 ' style='stroke-width: 1.07; stroke: #333333;' />
<polyline points='336.89,155.58 336.89,152.99 ' style='stroke-width: 1.07; stroke: #333333;' />
<rect x='330.41' y='155.58' width='12.96' height='8.64' style='stroke-width: 1.07; stroke: #333333; fill: #B79F00;' />
<polyline points='330.41,159.90 343.37,159.90 ' style='stroke-width: 1.07; stroke: #333333;' />
<rect x='328.25' y='168.54' width='17.28' height='17.28' style='stroke-width: 1.07; stroke: none; fill: #F2F2F2;' />
<polyline points='336.89,184.09 336.89,181.50 ' style='stroke-width: 1.07; stroke: #333333;' />
<polyline points='336.89,172.86 336.89,170.27 ' style='stroke-width: 1.07; stroke: #333333;' />
<rect x='330.41' y='172.86' width='12.96' height='8.64' style='stroke-width: 1.07; stroke: #333333; fill: #00BA38;' />
<polyline points='330.41,177.18 343.37,177.18 ' style='stroke-width: 1.07; stroke: #333333;' />
<rect x='328.25' y='185.82' width='17.28' height='17.28' style='stroke-width: 1.07; stroke: none; fill: #F2F2F2;' />
<polyline points='336.89,201.37 336.89,198.78 ' style='stroke-width: 1.07; stroke: #333333;' />
<polyline points='336.89,190.14 336.89,187.55 ' style='stroke-width: 1.07; stroke: #333333;' />
<rect x='330.41' y='190.14' width='12.96' height='8.64' style='stroke-width: 1.07; stroke: #333333; fill: #00BFC4;' />
<polyline points='330.41,194.46 343.37,194.46 ' style='stroke-width: 1.07; stroke: #333333;' />
<rect x='328.25' y='203.10' width='17.28' height='17.28' style='stroke-width: 1.07; stroke: none; fill: #F2F2F2;' />
<polyline points='336.89,218.65 336.89,216.06 ' style='stroke-width: 1.07; stroke: #333333;' />
<polyline points='336.89,207.42 336.89,204.83 ' style='stroke-width: 1.07; stroke: #333333;' />
<rect x='330.41' y='207.42' width='12.96' height='8.64' style='stroke-width: 1.07; stroke: #333333; fill: #619CFF;' />
<polyline points='330.41,211.74 343.37,211.74 ' style='stroke-width: 1.07; stroke: #333333;' />
<rect x='328.25' y='220.38' width='17.28' height='17.28' style='stroke-width: 1.07; stroke: none; fill: #F2F2F2;' />
<polyline points='336.89,235.93 336.89,233.34 ' style='stroke-width: 1.07; stroke: #333333;' />
<polyline points='336.89,224.70 336.89,222.11 ' style='stroke-width: 1.07; stroke: #333333;' />
<rect x='330.41' y='224.70' width='12.96' height='8.64' style='stroke-width: 1.07; stroke: #333333; fill: #F564E3;' />
<polyline points='330.41,229.02 343.37,229.02 ' style='stroke-width: 1.07; stroke: #333333;' />
<text x='351.01' y='145.69' style='font-size: 8.80px; font-family: IBM Plex Sans;' textLength='34.18px' lengthAdjust='spacingAndGlyphs'>Ashokan</text>
<text x='351.01' y='162.97' style='font-size: 8.80px; font-family: IBM Plex Sans;' textLength='39.42px' lengthAdjust='spacingAndGlyphs'>Schoharie</text>
<text x='351.01' y='180.25' style='font-size: 8.80px; font-family: IBM Plex Sans;' textLength='33.67px' lengthAdjust='spacingAndGlyphs'>Rondout</text>
<text x='351.01' y='197.53' style='font-size: 8.80px; font-family: IBM Plex Sans;' textLength='39.56px' lengthAdjust='spacingAndGlyphs'>Neversink</text>
<text x='351.01' y='214.81' style='font-size: 8.80px; font-family: IBM Plex Sans;' textLength='37.41px' lengthAdjust='spacingAndGlyphs'>Pepacton</text>
<text x='351.01' y='232.09' style='font-size: 8.80px; font-family: IBM Plex Sans;' textLength='50.51px' lengthAdjust='spacingAndGlyphs'>Cannonsville</text>
<text x='122.36' y='14.69' style='font-size: 13.20px; font-family: IBM Plex Sans;' textLength='351.26px' lengthAdjust='spacingAndGlyphs'>Water Release from Upstate Reservoirs (millions of gallons)</text>
<text x='311.82' y='354.52' text-anchor='end' style='font-size: 8.80px; font-family: IBM Plex Sans;' textLength='211.13px' lengthAdjust='spacingAndGlyphs'>Source: NYC Department of Environmental Protection</text>
</g>
</svg>
