<?xml version='1.0' encoding='UTF-8' ?>
<svg xmlns='http://www.w3.org/2000/svg' xmlns:xlink='http://www.w3.org/1999/xlink' class='svglite' width='504.00pt' height='360.00pt' viewBox='0 0 504.00 360.00'>
<defs>
  <style type='text/css'><![CDATA[
    .svglite line, .svglite polyline, .svglite polygon, .svglite path, .svglite rect, .svglite circle {
      fill: none;
      stroke: #000000;
      stroke-linecap: round;
      stroke-linejoin: round;
      stroke-miterlimit: 10.00;
    }
  ]]></style>
</defs>
<rect width='100%' height='100%' style='stroke: none; fill: #FFFFFF;'/>
<defs>
  <clipPath id='cpMC4wMHw1MDQuMDB8MC4wMHwzNjAuMDA='>
    <rect x='0.00' y='0.00' width='504.00' height='360.00' />
  </clipPath>
</defs>
<g clip-path='url(#cpMC4wMHw1MDQuMDB8MC4wMHwzNjAuMDA=)'>
<rect x='0.00' y='0.00' width='504.00' height='360.00' style='stroke-width: 1.07; stroke: #FFFFFF; fill: #FFFFFF;' />
</g>
<defs>
  <clipPath id='cpMzQuMzN8MTQwLjIzfDM2Ljg1fDE0NC4xMg=='>
    <rect x='34.33' y='36.85' width='105.90' height='107.26' />
  </clipPath>
</defs>
<g clip-path='url(#cpMzQuMzN8MTQwLjIzfDM2Ljg1fDE0NC4xMg==)'>
</g>
<g clip-path='url(#cpMC4wMHw1MDQuMDB8MC4wMHwzNjAuMDA=)'>
</g>
<defs>
  <clipPath id='cpMzQuMzN8MTQwLjIzfDE2Ni4yOHwyNzMuNTU='>
    <rect x='34.33' y='166.28' width='105.90' height='107.26' />
  </clipPath>
</defs>
<g clip-path='url(#cpMzQuMzN8MTQwLjIzfDE2Ni4yOHwyNzMuNTU=)'>
<polyline points='34.33,258.29 140.23,258.29 ' style='stroke-width: 0.53; stroke: #FFFFFF; stroke-linecap: butt;' />
<polyline points='34.33,237.54 140.23,237.54 ' style='stroke-width: 0.53; stroke: #FFFFFF; stroke-linecap: butt;' />
<polyline points='34.33,216.78 140.23,216.78 ' style='stroke-width: 0.53; stroke: #FFFFFF; stroke-linecap: butt;' />
<polyline points='34.33,196.02 140.23,196.02 ' style='stroke-width: 0.53; stroke: #FFFFFF; stroke-linecap: butt;' />
<polyline points='34.33,175.27 140.23,175.27 ' style='stroke-width: 0.53; stroke: #FFFFFF; stroke-linecap: butt;' />
<polyline points='34.33,268.67 140.23,268.67 ' style='stroke-width: 1.07; stroke: #EEEEEE; stroke-linecap: butt;' />
<polyline points='34.33,247.91 140.23,247.91 ' style='stroke-width: 1.07; stroke: #EEEEEE; stroke-linecap: butt;' />
<polyline points='34.33,227.16 140.23,227.16 ' style='stroke-width: 1.07; stroke: #EEEEEE; stroke-linecap: butt;' />
<polyline points='34.33,206.40 140.23,206.40 ' style='stroke-width: 1.07; stroke: #EEEEEE; stroke-linecap: butt;' />
<polyline points='34.33,185.65 140.23,185.65 ' style='stroke-width: 1.07; stroke: #EEEEEE; stroke-linecap: butt;' />
<circle cx='95.82' cy='268.67' r='1.95' style='stroke-width: 0.71; stroke: #333333; fill: #333333;' />
<circle cx='95.82' cy='268.67' r='1.95' style='stroke-width: 0.71; stroke: #333333; fill: #333333;' />
<circle cx='95.82' cy='268.67' r='1.95' style='stroke-width: 0.71; stroke: #333333; fill: #333333;' />
<circle cx='95.82' cy='268.67' r='1.95' style='stroke-width: 0.71; stroke: #333333; fill: #333333;' />
<circle cx='95.82' cy='268.67' r='1.95' style='stroke-width: 0.71; stroke: #333333; fill: #333333;' />
<circle cx='95.82' cy='268.67' r='1.95' style='stroke-width: 0.71; stroke: #333333; fill: #333333;' />
<circle cx='95.82' cy='268.67' r='1.95' style='stroke-width: 0.71; stroke: #333333; fill: #333333;' />
<circle cx='95.82' cy='268.67' r='1.95' style='stroke-width: 0.71; stroke: #333333; fill: #333333;' />
<circle cx='95.82' cy='268.67' r='1.95' style='stroke-width: 0.71; stroke: #333333; fill: #333333;' />
<circle cx='95.82' cy='268.67' r='1.95' style='stroke-width: 0.71; stroke: #333333; fill: #333333;' />
<circle cx='95.82' cy='268.67' r='1.95' style='stroke-width: 0.71; stroke: #333333; fill: #333333;' />
<circle cx='95.82' cy='268.67' r='1.95' style='stroke-width: 0.71; stroke: #333333; fill: #333333;' />
<circle cx='95.82' cy='268.67' r='1.95' style='stroke-width: 0.71; stroke: #333333; fill: #333333;' />
<circle cx='95.82' cy='268.67' r='1.95' style='stroke-width: 0.71; stroke: #333333; fill: #333333;' />
<circle cx='95.82' cy='268.67' r='1.95' style='stroke-width: 0.71; stroke: #333333; fill: #333333;' />
<circle cx='95.82' cy='268.67' r='1.95' style='stroke-width: 0.71; stroke: #333333; fill: #333333;' />
<circle cx='95.82' cy='268.67' r='1.95' style='stroke-width: 0.71; stroke: #333333; fill: #333333;' />
<circle cx='95.82' cy='268.67' r='1.95' style='stroke-width: 0.71; stroke: #333333; fill: #333333;' />
<circle cx='95.82' cy='268.67' r='1.95' style='stroke-width: 0.71; stroke: #333333; fill: #333333;' />
<circle cx='95.82' cy='268.67' r='1.95' style='stroke-width: 0.71; stroke: #333333; fill: #333333;' />
<circle cx='95.82' cy='268.67' r='1.95' style='stroke-width: 0.71; stroke: #333333; fill: #333333;' />
<circle cx='95.82' cy='268.67' r='1.95' style='stroke-width: 0.71; stroke: #333333; fill: #333333;' />
<circle cx='95.82' cy='268.67' r='1.95' style='stroke-width: 0.71; stroke: #333333; fill: #333333;' />
<circle cx='95.82' cy='268.67' r='1.95' style='stroke-width: 0.71; stroke: #333333; fill: #333333;' />
<circle cx='95.82' cy='268.67' r='1.95' style='stroke-width: 0.71; stroke: #333333; fill: #333333;' />
<circle cx='95.82' cy='268.67' r='1.95' style='stroke-width: 0.71; stroke: #333333; fill: #333333;' />
<circle cx='95.82' cy='268.67' r='1.95' style='stroke-width: 0.71; stroke: #333333; fill: #333333;' />
<circle cx='95.82' cy='268.67' r='1.95' style='stroke-width: 0.71; stroke: #333333; fill: #333333;' />
<circle cx='95.82' cy='268.67' r='1.95' style='stroke-width: 0.71; stroke: #333333; fill: #333333;' />
<circle cx='95.82' cy='268.67' r='1.95' style='stroke-width: 0.71; stroke: #333333; fill: #333333;' />
<circle cx='95.82' cy='268.67' r='1.95' style='stroke-width: 0.71; stroke: #333333; fill: #333333;' />
<circle cx='95.82' cy='268.67' r='1.95' style='stroke-width: 0.71; stroke: #333333; fill: #333333;' />
<circle cx='95.82' cy='268.67' r='1.95' style='stroke-width: 0.71; stroke: #333333; fill: #333333;' />
<circle cx='95.82' cy='268.67' r='1.95' style='stroke-width: 0.71; stroke: #333333; fill: #333333;' />
<circle cx='95.82' cy='268.67' r='1.95' style='stroke-width: 0.71; stroke: #333333; fill: #333333;' />
<circle cx='95.82' cy='268.67' r='1.95' style='stroke-width: 0.71; stroke: #333333; fill: #333333;' />
<circle cx='95.82' cy='268.67' r='1.95' style='stroke-width: 0.71; stroke: #333333; fill: #333333;' />
<circle cx='95.82' cy='268.67' r='1.95' style='stroke-width: 0.71; stroke: #333333; fill: #333333;' />
<circle cx='95.82' cy='268.67' r='1.95' style='stroke-width: 0.71; stroke: #333333; fill: #333333;' />
<circle cx='95.82' cy='268.67' r='1.95' style='stroke-width: 0.71; stroke: #333333; fill: #333333;' />
<circle cx='95.82' cy='268.67' r='1.95' style='stroke-width: 0.71; stroke: #333333; fill: #333333;' />
<circle cx='95.82' cy='268.67' r='1.95' style='stroke-width: 0.71; stroke: #333333; fill: #333333;' />
<circle cx='95.82' cy='268.67' r='1.95' style='stroke-width: 0.71; stroke: #333333; fill: #333333;' />
<circle cx='95.82' cy='268.67' r='1.95' style='stroke-width: 0.71; stroke: #333333; fill: #333333;' />
<circle cx='95.82' cy='268.67' r='1.95' style='stroke-width: 0.71; stroke: #333333; fill: #333333;' />
<circle cx='95.82' cy='268.67' r='1.95' style='stroke-width: 0.71; stroke: #333333; fill: #333333;' />
<circle cx='95.82' cy='268.67' r='1.95' style='stroke-width: 0.71; stroke: #333333; fill: #333333;' />
<circle cx='95.82' cy='268.67' r='1.95' style='stroke-width: 0.71; stroke: #333333; fill: #333333;' />
<circle cx='95.82' cy='268.67' r='1.95' style='stroke-width: 0.71; stroke: #333333; fill: #333333;' />
<circle cx='95.82' cy='268.67' r='1.95' style='stroke-width: 0.71; stroke: #333333; fill: #333333;' />
<circle cx='95.82' cy='268.67' r='1.95' style='stroke-width: 0.71; stroke: #333333; fill: #333333;' />
<circle cx='95.82' cy='268.67' r='1.95' style='stroke-width: 0.71; stroke: #333333; fill: #333333;' />
<circle cx='95.82' cy='268.67' r='1.95' style='stroke-width: 0.71; stroke: #333333; fill: #333333;' />
<circle cx='95.82' cy='268.67' r='1.95' style='stroke-width: 0.71; stroke: #333333; fill: #333333;' />
<circle cx='95.82' cy='268.67' r='1.95' style='stroke-width: 0.71; stroke: #333333; fill: #333333;' />
<circle cx='95.82' cy='268.67' r='1.95' style='stroke-width: 0.71; stroke: #333333; fill: #333333;' />
<circle cx='95.82' cy='268.67' r='1.95' style='stroke-width: 0.71; stroke: #333333; fill: #333333;' />
<circle cx='95.82' cy='268.67' r='1.95' style='stroke-width: 0.71; stroke: #333333; fill: #333333;' />
<circle cx='95.82' cy='268.67' r='1.95' style='stroke-width: 0.71; stroke: #333333; fill: #333333;' />
<circle cx='95.82' cy='268.67' r='1.95' style='stroke-width: 0.71; stroke: #333333; fill: #333333;' />
<circle cx='95.82' cy='268.67' r='1.95' style='stroke-width: 0.71; stroke: #333333; fill: #333333;' />
<circle cx='95.82' cy='268.67' r='1.95' style='stroke-width: 0.71; stroke: #333333; fill: #333333;' />
<circle cx='95.82' cy='268.67' r='1.95' style='stroke-width: 0.71; stroke: #333333; fill: #333333;' />
<circle cx='95.82' cy='268.67' r='1.95' style='stroke-width: 0.71; stroke: #333333; fill: #333333;' />
<circle cx='95.82' cy='268.67' r='1.95' style='stroke-width: 0.71; stroke: #333333; fill: #333333;' />
<circle cx='95.82' cy='268.67' r='1.95' style='stroke-width: 0.71; stroke: #333333; fill: #333333;' />
<circle cx='95.82' cy='268.67' r='1.95' style='stroke-width: 0.71; stroke: #333333; fill: #333333;' />
<circle cx='95.82' cy='268.67' r='1.95' style='stroke-width: 0.71; stroke: #333333; fill: #333333;' />
<circle cx='95.82' cy='268.67' r='1.95' style='stroke-width: 0.71; stroke: #333333; fill: #333333;' />
<circle cx='95.82' cy='268.67' r='1.95' style='stroke-width: 0.71; stroke: #333333; fill: #333333;' />
<circle cx='95.82' cy='268.67' r='1.95' style='stroke-width: 0.71; stroke: #333333; fill: #333333;' />
<circle cx='95.82' cy='268.67' r='1.95' style='stroke-width: 0.71; stroke: #333333; fill: #333333;' />
<circle cx='95.82' cy='268.67' r='1.95' style='stroke-width: 0.71; stroke: #333333; fill: #333333;' />
<circle cx='95.82' cy='268.67' r='1.95' style='stroke-width: 0.71; stroke: #333333; fill: #333333;' />
<circle cx='95.82' cy='268.67' r='1.95' style='stroke-width: 0.71; stroke: #333333; fill: #333333;' />
<circle cx='95.82' cy='268.67' r='1.95' style='stroke-width: 0.71; stroke: #333333; fill: #333333;' />
<circle cx='95.82' cy='268.67' r='1.95' style='stroke-width: 0.71; stroke: #333333; fill: #333333;' />
<circle cx='95.82' cy='268.67' r='1.95' style='stroke-width: 0.71; stroke: #333333; fill: #333333;' />
<circle cx='95.82' cy='268.67' r='1.95' style='stroke-width: 0.71; stroke: #333333; fill: #333333;' />
<circle cx='95.82' cy='268.67' r='1.95' style='stroke-width: 0.71; stroke: #333333; fill: #333333;' />
<circle cx='95.82' cy='268.67' r='1.95' style='stroke-width: 0.71; stroke: #333333; fill: #333333;' />
<circle cx='95.82' cy='268.67' r='1.95' style='stroke-width: 0.71; stroke: #333333; fill: #333333;' />
<circle cx='95.82' cy='268.67' r='1.95' style='stroke-width: 0.71; stroke: #333333; fill: #333333;' />
<circle cx='95.82' cy='268.67' r='1.95' style='stroke-width: 0.71; stroke: #333333; fill: #333333;' />
<circle cx='95.82' cy='268.63' r='1.95' style='stroke-width: 0.71; stroke: #333333; fill: #333333;' />
<circle cx='95.82' cy='268.67' r='1.95' style='stroke-width: 0.71; stroke: #333333; fill: #333333;' />
<circle cx='95.82' cy='268.67' r='1.95' style='stroke-width: 0.71; stroke: #333333; fill: #333333;' />
<circle cx='95.82' cy='268.67' r='1.95' style='stroke-width: 0.71; stroke: #333333; fill: #333333;' />
<circle cx='95.82' cy='268.67' r='1.95' style='stroke-width: 0.71; stroke: #333333; fill: #333333;' />
<circle cx='95.82' cy='268.67' r='1.95' style='stroke-width: 0.71; stroke: #333333; fill: #333333;' />
<circle cx='95.82' cy='268.67' r='1.95' style='stroke-width: 0.71; stroke: #333333; fill: #333333;' />
<circle cx='95.82' cy='268.67' r='1.95' style='stroke-width: 0.71; stroke: #333333; fill: #333333;' />
<circle cx='95.82' cy='268.67' r='1.95' style='stroke-width: 0.71; stroke: #333333; fill: #333333;' />
<circle cx='95.82' cy='268.67' r='1.95' style='stroke-width: 0.71; stroke: #333333; fill: #333333;' />
<circle cx='95.82' cy='268.67' r='1.95' style='stroke-width: 0.71; stroke: #333333; fill: #333333;' />
<circle cx='95.82' cy='268.67' r='1.95' style='stroke-width: 0.71; stroke: #333333; fill: #333333;' />
<circle cx='95.82' cy='268.67' r='1.95' style='stroke-width: 0.71; stroke: #333333; fill: #333333;' />
<circle cx='95.82' cy='268.67' r='1.95' style='stroke-width: 0.71; stroke: #333333; fill: #333333;' />
<circle cx='95.82' cy='268.67' r='1.95' style='stroke-width: 0.71; stroke: #333333; fill: #333333;' />
<circle cx='95.82' cy='268.67' r='1.95' style='stroke-width: 0.71; stroke: #333333; fill: #333333;' />
<circle cx='95.82' cy='268.67' r='1.95' style='stroke-width: 0.71; stroke: #333333; fill: #333333;' />
<circle cx='95.82' cy='268.67' r='1.95' style='stroke-width: 0.71; stroke: #333333; fill: #333333;' />
<circle cx='95.82' cy='268.67' r='1.95' style='stroke-width: 0.71; stroke: #333333; fill: #333333;' />
<circle cx='95.82' cy='268.67' r='1.95' style='stroke-width: 0.71; stroke: #333333; fill: #333333;' />
<circle cx='95.82' cy='268.67' r='1.95' style='stroke-width: 0.71; stroke: #333333; fill: #333333;' />
<circle cx='95.82' cy='268.67' r='1.95' style='stroke-width: 0.71; stroke: #333333; fill: #333333;' />
<circle cx='95.82' cy='268.67' r='1.95' style='stroke-width: 0.71; stroke: #333333; fill: #333333;' />
<circle cx='95.82' cy='268.67' r='1.95' style='stroke-width: 0.71; stroke: #333333; fill: #333333;' />
<circle cx='95.82' cy='268.67' r='1.95' style='stroke-width: 0.71; stroke: #333333; fill: #333333;' />
<circle cx='95.82' cy='268.67' r='1.95' style='stroke-width: 0.71; stroke: #333333; fill: #333333;' />
<circle cx='95.82' cy='268.67' r='1.95' style='stroke-width: 0.71; stroke: #333333; fill: #333333;' />
<circle cx='95.82' cy='268.67' r='1.95' style='stroke-width: 0.71; stroke: #333333; fill: #333333;' />
<circle cx='95.82' cy='268.67' r='1.95' style='stroke-width: 0.71; stroke: #333333; fill: #333333;' />
<circle cx='95.82' cy='268.67' r='1.95' style='stroke-width: 0.71; stroke: #333333; fill: #333333;' />
<circle cx='95.82' cy='268.67' r='1.95' style='stroke-width: 0.71; stroke: #333333; fill: #333333;' />
<circle cx='95.82' cy='268.67' r='1.95' style='stroke-width: 0.71; stroke: #333333; fill: #333333;' />
<circle cx='95.82' cy='268.67' r='1.95' style='stroke-width: 0.71; stroke: #333333; fill: #333333;' />
<circle cx='95.82' cy='268.67' r='1.95' style='stroke-width: 0.71; stroke: #333333; fill: #333333;' />
<circle cx='95.82' cy='268.67' r='1.95' style='stroke-width: 0.71; stroke: #333333; fill: #333333;' />
<circle cx='95.82' cy='268.67' r='1.95' style='stroke-width: 0.71; stroke: #333333; fill: #333333;' />
<circle cx='95.82' cy='268.67' r='1.95' style='stroke-width: 0.71; stroke: #333333; fill: #333333;' />
<circle cx='95.82' cy='268.67' r='1.95' style='stroke-width: 0.71; stroke: #333333; fill: #333333;' />
<circle cx='95.82' cy='268.67' r='1.95' style='stroke-width: 0.71; stroke: #333333; fill: #333333;' />
<circle cx='95.82' cy='268.67' r='1.95' style='stroke-width: 0.71; stroke: #333333; fill: #333333;' />
<circle cx='95.82' cy='268.67' r='1.95' style='stroke-width: 0.71; stroke: #333333; fill: #333333;' />
<circle cx='95.82' cy='268.67' r='1.95' style='stroke-width: 0.71; stroke: #333333; fill: #333333;' />
<circle cx='95.82' cy='268.67' r='1.95' style='stroke-width: 0.71; stroke: #333333; fill: #333333;' />
<circle cx='95.82' cy='268.67' r='1.95' style='stroke-width: 0.71; stroke: #333333; fill: #333333;' />
<circle cx='95.82' cy='268.67' r='1.95' style='stroke-width: 0.71; stroke: #333333; fill: #333333;' />
<circle cx='95.82' cy='268.67' r='1.95' style='stroke-width: 0.71; stroke: #333333; fill: #333333;' />
<circle cx='95.82' cy='268.67' r='1.95' style='stroke-width: 0.71; stroke: #333333; fill: #333333;' />
<circle cx='95.82' cy='268.67' r='1.95' style='stroke-width: 0.71; stroke: #333333; fill: #333333;' />
<circle cx='95.82' cy='268.67' r='1.95' style='stroke-width: 0.71; stroke: #333333; fill: #333333;' />
<circle cx='95.82' cy='268.67' r='1.95' style='stroke-width: 0.71; stroke: #333333; fill: #333333;' />
<circle cx='95.82' cy='268.67' r='1.95' style='stroke-width: 0.71; stroke: #333333; fill: #333333;' />
<circle cx='95.82' cy='268.67' r='1.95' style='stroke-width: 0.71; stroke: #333333; fill: #333333;' />
<circle cx='95.82' cy='268.67' r='1.95' style='stroke-width: 0.71; stroke: #333333; fill: #333333;' />
<circle cx='95.82' cy='268.67' r='1.95' style='stroke-width: 0.71; stroke: #333333; fill: #333333;' />
<circle cx='95.82' cy='268.67' r='1.95' style='stroke-width: 0.71; stroke: #333333; fill: #333333;' />
<circle cx='95.82' cy='268.67' r='1.95' style='stroke-width: 0.71; stroke: #333333; fill: #333333;' />
<circle cx='95.82' cy='268.67' r='1.95' style='stroke-width: 0.71; stroke: #333333; fill: #333333;' />
<circle cx='95.82' cy='268.67' r='1.95' style='stroke-width: 0.71; stroke: #333333; fill: #333333;' />
<circle cx='95.82' cy='268.67' r='1.95' style='stroke-width: 0.71; stroke: #333333; fill: #333333;' />
<circle cx='95.82' cy='268.67' r='1.95' style='stroke-width: 0.71; stroke: #333333; fill: #333333;' />
<circle cx='95.82' cy='268.67' r='1.95' style='stroke-width: 0.71; stroke: #333333; fill: #333333;' />
<circle cx='95.82' cy='268.67' r='1.95' style='stroke-width: 0.71; stroke: #333333; fill: #333333;' />
<circle cx='95.82' cy='268.67' r='1.95' style='stroke-width: 0.71; stroke: #333333; fill: #333333;' />
<circle cx='95.82' cy='268.67' r='1.95' style='stroke-width: 0.71; stroke: #333333; fill: #333333;' />
<circle cx='95.82' cy='268.67' r='1.95' style='stroke-width: 0.71; stroke: #333333; fill: #333333;' />
<circle cx='95.82' cy='268.67' r='1.95' style='stroke-width: 0.71; stroke: #333333; fill: #333333;' />
<circle cx='95.82' cy='268.67' r='1.95' style='stroke-width: 0.71; stroke: #333333; fill: #333333;' />
<circle cx='95.82' cy='268.67' r='1.95' style='stroke-width: 0.71; stroke: #333333; fill: #333333;' />
<circle cx='95.82' cy='268.67' r='1.95' style='stroke-width: 0.71; stroke: #333333; fill: #333333;' />
<circle cx='95.82' cy='268.67' r='1.95' style='stroke-width: 0.71; stroke: #333333; fill: #333333;' />
<circle cx='95.82' cy='268.67' r='1.95' style='stroke-width: 0.71; stroke: #333333; fill: #333333;' />
<circle cx='95.82' cy='268.67' r='1.95' style='stroke-width: 0.71; stroke: #333333; fill: #333333;' />
<circle cx='95.82' cy='268.67' r='1.95' style='stroke-width: 0.71; stroke: #333333; fill: #333333;' />
<circle cx='95.82' cy='268.67' r='1.95' style='stroke-width: 0.71; stroke: #333333; fill: #333333;' />
<circle cx='95.82' cy='268.67' r='1.95' style='stroke-width: 0.71; stroke: #333333; fill: #333333;' />
<circle cx='95.82' cy='268.67' r='1.95' style='stroke-width: 0.71; stroke: #333333; fill: #333333;' />
<circle cx='95.82' cy='268.67' r='1.95' style='stroke-width: 0.71; stroke: #333333; fill: #333333;' />
<circle cx='95.82' cy='268.67' r='1.95' style='stroke-width: 0.71; stroke: #333333; fill: #333333;' />
<circle cx='95.82' cy='268.67' r='1.95' style='stroke-width: 0.71; stroke: #333333; fill: #333333;' />
<circle cx='95.82' cy='268.67' r='1.95' style='stroke-width: 0.71; stroke: #333333; fill: #333333;' />
<circle cx='95.82' cy='268.67' r='1.95' style='stroke-width: 0.71; stroke: #333333; fill: #333333;' />
<circle cx='95.82' cy='268.67' r='1.95' style='stroke-width: 0.71; stroke: #333333; fill: #333333;' />
<circle cx='95.82' cy='268.67' r='1.95' style='stroke-width: 0.71; stroke: #333333; fill: #333333;' />
<circle cx='95.82' cy='268.67' r='1.95' style='stroke-width: 0.71; stroke: #333333; fill: #333333;' />
<circle cx='95.82' cy='268.67' r='1.95' style='stroke-width: 0.71; stroke: #333333; fill: #333333;' />
<circle cx='95.82' cy='268.67' r='1.95' style='stroke-width: 0.71; stroke: #333333; fill: #333333;' />
<circle cx='95.82' cy='268.67' r='1.95' style='stroke-width: 0.71; stroke: #333333; fill: #333333;' />
<circle cx='95.82' cy='268.67' r='1.95' style='stroke-width: 0.71; stroke: #333333; fill: #333333;' />
<circle cx='95.82' cy='268.67' r='1.95' style='stroke-width: 0.71; stroke: #333333; fill: #333333;' />
<circle cx='95.82' cy='268.67' r='1.95' style='stroke-width: 0.71; stroke: #333333; fill: #333333;' />
<circle cx='95.82' cy='268.67' r='1.95' style='stroke-width: 0.71; stroke: #333333; fill: #333333;' />
<circle cx='95.82' cy='268.67' r='1.95' style='stroke-width: 0.71; stroke: #333333; fill: #333333;' />
<circle cx='95.82' cy='268.67' r='1.95' style='stroke-width: 0.71; stroke: #333333; fill: #333333;' />
<circle cx='95.82' cy='268.67' r='1.95' style='stroke-width: 0.71; stroke: #333333; fill: #333333;' />
<circle cx='95.82' cy='268.67' r='1.95' style='stroke-width: 0.71; stroke: #333333; fill: #333333;' />
<circle cx='95.82' cy='268.67' r='1.95' style='stroke-width: 0.71; stroke: #333333; fill: #333333;' />
<circle cx='95.82' cy='268.67' r='1.95' style='stroke-width: 0.71; stroke: #333333; fill: #333333;' />
<circle cx='95.82' cy='268.67' r='1.95' style='stroke-width: 0.71; stroke: #333333; fill: #333333;' />
<circle cx='95.82' cy='268.67' r='1.95' style='stroke-width: 0.71; stroke: #333333; fill: #333333;' />
<circle cx='95.82' cy='268.67' r='1.95' style='stroke-width: 0.71; stroke: #333333; fill: #333333;' />
<circle cx='95.82' cy='268.67' r='1.95' style='stroke-width: 0.71; stroke: #333333; fill: #333333;' />
<circle cx='95.82' cy='268.67' r='1.95' style='stroke-width: 0.71; stroke: #333333; fill: #333333;' />
<circle cx='95.82' cy='268.67' r='1.95' style='stroke-width: 0.71; stroke: #333333; fill: #333333;' />
<circle cx='95.82' cy='268.67' r='1.95' style='stroke-width: 0.71; stroke: #333333; fill: #333333;' />
<circle cx='95.82' cy='268.67' r='1.95' style='stroke-width: 0.71; stroke: #333333; fill: #333333;' />
<circle cx='95.82' cy='268.67' r='1.95' style='stroke-width: 0.71; stroke: #333333; fill: #333333;' />
<circle cx='95.82' cy='268.67' r='1.95' style='stroke-width: 0.71; stroke: #333333; fill: #333333;' />
<circle cx='95.82' cy='268.67' r='1.95' style='stroke-width: 0.71; stroke: #333333; fill: #333333;' />
<circle cx='95.82' cy='268.67' r='1.95' style='stroke-width: 0.71; stroke: #333333; fill: #333333;' />
<circle cx='95.82' cy='268.67' r='1.95' style='stroke-width: 0.71; stroke: #333333; fill: #333333;' />
<circle cx='95.82' cy='268.67' r='1.95' style='stroke-width: 0.71; stroke: #333333; fill: #333333;' />
<circle cx='95.82' cy='268.67' r='1.95' style='stroke-width: 0.71; stroke: #333333; fill: #333333;' />
<circle cx='95.82' cy='268.67' r='1.95' style='stroke-width: 0.71; stroke: #333333; fill: #333333;' />
<circle cx='95.82' cy='268.67' r='1.95' style='stroke-width: 0.71; stroke: #333333; fill: #333333;' />
<circle cx='95.82' cy='268.67' r='1.95' style='stroke-width: 0.71; stroke: #333333; fill: #333333;' />
<circle cx='95.82' cy='268.67' r='1.95' style='stroke-width: 0.71; stroke: #333333; fill: #333333;' />
<circle cx='95.82' cy='268.67' r='1.95' style='stroke-width: 0.71; stroke: #333333; fill: #333333;' />
<circle cx='95.82' cy='268.67' r='1.95' style='stroke-width: 0.71; stroke: #333333; fill: #333333;' />
<line x1='95.82' y1='241.65' x2='95.82' y2='227.16' style='stroke-width: 1.07; stroke: #333333; stroke-linecap: butt;' />
<line x1='95.82' y1='252.44' x2='95.82' y2='268.42' style='stroke-width: 1.07; stroke: #333333; stroke-linecap: butt;' />
<polygon points='89.42,241.65 89.42,252.44 102.23,252.44 102.23,241.65 89.42,241.65 ' style='stroke-width: 1.07; stroke: #333333; fill: #00BFC4;' />
<line x1='89.42' y1='243.31' x2='102.23' y2='243.31' style='stroke-width: 2.13; stroke: #333333; stroke-linecap: butt;' />
<line x1='112.90' y1='188.18' x2='112.90' y2='171.16' style='stroke-width: 1.07; stroke: #333333; stroke-linecap: butt;' />
<line x1='112.90' y1='263.56' x2='112.90' y2='268.67' style='stroke-width: 1.07; stroke: #333333; stroke-linecap: butt;' />
<polygon points='106.50,188.18 106.50,263.56 119.31,263.56 119.31,188.18 106.50,188.18 ' style='stroke-width: 1.07; stroke: #333333; fill: #619CFF;' />
<line x1='106.50' y1='232.02' x2='119.31' y2='232.02' style='stroke-width: 2.13; stroke: #333333; stroke-linecap: butt;' />
</g>
<g clip-path='url(#cpMC4wMHw1MDQuMDB8MC4wMHwzNjAuMDA=)'>
</g>
<defs>
  <clipPath id='cpMTU5LjY0fDI2NS41NHwzNi44NXwxNDQuMTI='>
    <rect x='159.64' y='36.85' width='105.90' height='107.26' />
  </clipPath>
</defs>
<g clip-path='url(#cpMTU5LjY0fDI2NS41NHwzNi44NXwxNDQuMTI=)'>
</g>
<g clip-path='url(#cpMC4wMHw1MDQuMDB8MC4wMHwzNjAuMDA=)'>
</g>
<defs>
  <clipPath id='cpMTU5LjY0fDI2NS41NHwxNjYuMjh8MjczLjU1'>
    <rect x='159.64' y='166.28' width='105.90' height='107.26' />
  </clipPath>
</defs>
<g clip-path='url(#cpMTU5LjY0fDI2NS41NHwxNjYuMjh8MjczLjU1)'>
<polyline points='159.64,258.07 265.54,258.07 ' style='stroke-width: 0.53; stroke: #FFFFFF; stroke-linecap: butt;' />
<polyline points='159.64,236.87 265.54,236.87 ' style='stroke-width: 0.53; stroke: #FFFFFF; stroke-linecap: butt;' />
<polyline points='159.64,215.68 265.54,215.68 ' style='stroke-width: 0.53; stroke: #FFFFFF; stroke-linecap: butt;' />
<polyline points='159.64,194.48 265.54,194.48 ' style='stroke-width: 0.53; stroke: #FFFFFF; stroke-linecap: butt;' />
<polyline points='159.64,173.28 265.54,173.28 ' style='stroke-width: 0.53; stroke: #FFFFFF; stroke-linecap: butt;' />
<polyline points='159.64,268.67 265.54,268.67 ' style='stroke-width: 1.07; stroke: #EEEEEE; stroke-linecap: butt;' />
<polyline points='159.64,247.47 265.54,247.47 ' style='stroke-width: 1.07; stroke: #EEEEEE; stroke-linecap: butt;' />
<polyline points='159.64,226.27 265.54,226.27 ' style='stroke-width: 1.07; stroke: #EEEEEE; stroke-linecap: butt;' />
<polyline points='159.64,205.08 265.54,205.08 ' style='stroke-width: 1.07; stroke: #EEEEEE; stroke-linecap: butt;' />
<polyline points='159.64,183.88 265.54,183.88 ' style='stroke-width: 1.07; stroke: #EEEEEE; stroke-linecap: butt;' />
<circle cx='221.13' cy='268.25' r='1.95' style='stroke-width: 0.71; stroke: #333333; fill: #333333;' />
<circle cx='221.13' cy='245.78' r='1.95' style='stroke-width: 0.71; stroke: #333333; fill: #333333;' />
<circle cx='221.13' cy='184.30' r='1.95' style='stroke-width: 0.71; stroke: #333333; fill: #333333;' />
<circle cx='221.13' cy='265.28' r='1.95' style='stroke-width: 0.71; stroke: #333333; fill: #333333;' />
<circle cx='221.13' cy='183.88' r='1.95' style='stroke-width: 0.71; stroke: #333333; fill: #333333;' />
<circle cx='221.13' cy='210.29' r='1.95' style='stroke-width: 0.71; stroke: #333333; fill: #333333;' />
<circle cx='221.13' cy='210.25' r='1.95' style='stroke-width: 0.71; stroke: #333333; fill: #333333;' />
<circle cx='221.13' cy='248.32' r='1.95' style='stroke-width: 0.71; stroke: #333333; fill: #333333;' />
<circle cx='221.13' cy='242.38' r='1.95' style='stroke-width: 0.71; stroke: #333333; fill: #333333;' />
<circle cx='221.13' cy='265.28' r='1.95' style='stroke-width: 0.71; stroke: #333333; fill: #333333;' />
<circle cx='221.13' cy='212.28' r='1.95' style='stroke-width: 0.71; stroke: #333333; fill: #333333;' />
<circle cx='221.13' cy='243.66' r='1.95' style='stroke-width: 0.71; stroke: #333333; fill: #333333;' />
<circle cx='221.13' cy='266.97' r='1.95' style='stroke-width: 0.71; stroke: #333333; fill: #333333;' />
<circle cx='221.13' cy='267.40' r='1.95' style='stroke-width: 0.71; stroke: #333333; fill: #333333;' />
<circle cx='221.13' cy='267.40' r='1.95' style='stroke-width: 0.71; stroke: #333333; fill: #333333;' />
<line x1='221.13' y1='268.67' x2='221.13' y2='268.67' style='stroke-width: 1.07; stroke: #333333; stroke-linecap: butt;' />
<line x1='221.13' y1='268.67' x2='221.13' y2='268.67' style='stroke-width: 1.07; stroke: #333333; stroke-linecap: butt;' />
<polygon points='214.72,268.67 214.72,268.67 227.53,268.67 227.53,268.67 214.72,268.67 ' style='stroke-width: 1.07; stroke: #333333; fill: #00BFC4;' />
<line x1='214.72' y1='268.67' x2='227.53' y2='268.67' style='stroke-width: 2.13; stroke: #333333; stroke-linecap: butt;' />
<circle cx='238.21' cy='268.25' r='1.95' style='stroke-width: 0.71; stroke: #333333; fill: #333333;' />
<circle cx='238.21' cy='262.73' r='1.95' style='stroke-width: 0.71; stroke: #333333; fill: #333333;' />
<circle cx='238.21' cy='171.58' r='1.95' style='stroke-width: 0.71; stroke: #333333; fill: #333333;' />
<circle cx='238.21' cy='264.85' r='1.95' style='stroke-width: 0.71; stroke: #333333; fill: #333333;' />
<circle cx='238.21' cy='247.90' r='1.95' style='stroke-width: 0.71; stroke: #333333; fill: #333333;' />
<circle cx='238.21' cy='268.25' r='1.95' style='stroke-width: 0.71; stroke: #333333; fill: #333333;' />
<circle cx='238.21' cy='181.33' r='1.95' style='stroke-width: 0.71; stroke: #333333; fill: #333333;' />
<circle cx='238.21' cy='171.16' r='1.95' style='stroke-width: 0.71; stroke: #333333; fill: #333333;' />
<circle cx='238.21' cy='192.78' r='1.95' style='stroke-width: 0.71; stroke: #333333; fill: #333333;' />
<circle cx='238.21' cy='199.56' r='1.95' style='stroke-width: 0.71; stroke: #333333; fill: #333333;' />
<circle cx='238.21' cy='171.58' r='1.95' style='stroke-width: 0.71; stroke: #333333; fill: #333333;' />
<circle cx='238.21' cy='264.43' r='1.95' style='stroke-width: 0.71; stroke: #333333; fill: #333333;' />
<circle cx='238.21' cy='208.89' r='1.95' style='stroke-width: 0.71; stroke: #333333; fill: #333333;' />
<circle cx='238.21' cy='251.29' r='1.95' style='stroke-width: 0.71; stroke: #333333; fill: #333333;' />
<circle cx='238.21' cy='252.56' r='1.95' style='stroke-width: 0.71; stroke: #333333; fill: #333333;' />
<circle cx='238.21' cy='265.28' r='1.95' style='stroke-width: 0.71; stroke: #333333; fill: #333333;' />
<circle cx='238.21' cy='178.79' r='1.95' style='stroke-width: 0.71; stroke: #333333; fill: #333333;' />
<circle cx='238.21' cy='171.16' r='1.95' style='stroke-width: 0.71; stroke: #333333; fill: #333333;' />
<circle cx='238.21' cy='195.75' r='1.95' style='stroke-width: 0.71; stroke: #333333; fill: #333333;' />
<circle cx='238.21' cy='268.25' r='1.95' style='stroke-width: 0.71; stroke: #333333; fill: #333333;' />
<circle cx='238.21' cy='262.73' r='1.95' style='stroke-width: 0.71; stroke: #333333; fill: #333333;' />
<circle cx='238.21' cy='265.28' r='1.95' style='stroke-width: 0.71; stroke: #333333; fill: #333333;' />
<circle cx='238.21' cy='171.16' r='1.95' style='stroke-width: 0.71; stroke: #333333; fill: #333333;' />
<circle cx='238.21' cy='171.16' r='1.95' style='stroke-width: 0.71; stroke: #333333; fill: #333333;' />
<circle cx='238.21' cy='248.74' r='1.95' style='stroke-width: 0.71; stroke: #333333; fill: #333333;' />
<circle cx='238.21' cy='267.40' r='1.95' style='stroke-width: 0.71; stroke: #333333; fill: #333333;' />
<line x1='238.21' y1='268.67' x2='238.21' y2='268.67' style='stroke-width: 1.07; stroke: #333333; stroke-linecap: butt;' />
<line x1='238.21' y1='268.67' x2='238.21' y2='268.67' style='stroke-width: 1.07; stroke: #333333; stroke-linecap: butt;' />
<polygon points='231.80,268.67 231.80,268.67 244.61,268.67 244.61,268.67 231.80,268.67 ' style='stroke-width: 1.07; stroke: #333333; fill: #619CFF;' />
<line x1='231.80' y1='268.67' x2='244.61' y2='268.67' style='stroke-width: 2.13; stroke: #333333; stroke-linecap: butt;' />
</g>
<g clip-path='url(#cpMC4wMHw1MDQuMDB8MC4wMHwzNjAuMDA=)'>
</g>
<defs>
  <clipPath id='cpMjkzLjk1fDM5OS44NHwzNi44NXwxNDQuMTI='>
    <rect x='293.95' y='36.85' width='105.90' height='107.26' />
  </clipPath>
</defs>
<g clip-path='url(#cpMjkzLjk1fDM5OS44NHwzNi44NXwxNDQuMTI=)'>
<polyline points='293.95,128.87 399.84,128.87 ' style='stroke-width: 0.53; stroke: #FFFFFF; stroke-linecap: butt;' />
<polyline points='293.95,108.13 399.84,108.13 ' style='stroke-width: 0.53; stroke: #FFFFFF; stroke-linecap: butt;' />
<polyline points='293.95,87.40 399.84,87.40 ' style='stroke-width: 0.53; stroke: #FFFFFF; stroke-linecap: butt;' />
<polyline points='293.95,66.66 399.84,66.66 ' style='stroke-width: 0.53; stroke: #FFFFFF; stroke-linecap: butt;' />
<polyline points='293.95,45.92 399.84,45.92 ' style='stroke-width: 0.53; stroke: #FFFFFF; stroke-linecap: butt;' />
<polyline points='293.95,139.24 399.84,139.24 ' style='stroke-width: 1.07; stroke: #EEEEEE; stroke-linecap: butt;' />
<polyline points='293.95,118.50 399.84,118.50 ' style='stroke-width: 1.07; stroke: #EEEEEE; stroke-linecap: butt;' />
<polyline points='293.95,97.77 399.84,97.77 ' style='stroke-width: 1.07; stroke: #EEEEEE; stroke-linecap: butt;' />
<polyline points='293.95,77.03 399.84,77.03 ' style='stroke-width: 1.07; stroke: #EEEEEE; stroke-linecap: butt;' />
<polyline points='293.95,56.29 399.84,56.29 ' style='stroke-width: 1.07; stroke: #EEEEEE; stroke-linecap: butt;' />
<line x1='355.44' y1='113.94' x2='355.44' y2='106.79' style='stroke-width: 1.07; stroke: #333333; stroke-linecap: butt;' />
<line x1='355.44' y1='139.24' x2='355.44' y2='139.24' style='stroke-width: 1.07; stroke: #333333; stroke-linecap: butt;' />
<polygon points='349.03,113.94 349.03,139.24 361.84,139.24 361.84,113.94 349.03,113.94 ' style='stroke-width: 1.07; stroke: #333333; fill: #00BFC4;' />
<line x1='349.03' y1='123.27' x2='361.84' y2='123.27' style='stroke-width: 2.13; stroke: #333333; stroke-linecap: butt;' />
<line x1='372.52' y1='59.81' x2='372.52' y2='41.73' style='stroke-width: 1.07; stroke: #333333; stroke-linecap: butt;' />
<line x1='372.52' y1='139.24' x2='372.52' y2='139.24' style='stroke-width: 1.07; stroke: #333333; stroke-linecap: butt;' />
<polygon points='366.11,59.81 366.11,139.24 378.92,139.24 378.92,59.81 366.11,59.81 ' style='stroke-width: 1.07; stroke: #333333; fill: #619CFF;' />
<line x1='366.11' y1='105.85' x2='378.92' y2='105.85' style='stroke-width: 2.13; stroke: #333333; stroke-linecap: butt;' />
</g>
<g clip-path='url(#cpMC4wMHw1MDQuMDB8MC4wMHwzNjAuMDA=)'>
</g>
<defs>
  <clipPath id='cpMjkzLjk1fDM5OS44NHwxNjYuMjh8MjczLjU1'>
    <rect x='293.95' y='166.28' width='105.90' height='107.26' />
  </clipPath>
</defs>
<g clip-path='url(#cpMjkzLjk1fDM5OS44NHwxNjYuMjh8MjczLjU1)'>
<polyline points='293.95,256.60 399.84,256.60 ' style='stroke-width: 0.53; stroke: #FFFFFF; stroke-linecap: butt;' />
<polyline points='293.95,232.45 399.84,232.45 ' style='stroke-width: 0.53; stroke: #FFFFFF; stroke-linecap: butt;' />
<polyline points='293.95,208.31 399.84,208.31 ' style='stroke-width: 0.53; stroke: #FFFFFF; stroke-linecap: butt;' />
<polyline points='293.95,184.16 399.84,184.16 ' style='stroke-width: 0.53; stroke: #FFFFFF; stroke-linecap: butt;' />
<polyline points='293.95,268.67 399.84,268.67 ' style='stroke-width: 1.07; stroke: #EEEEEE; stroke-linecap: butt;' />
<polyline points='293.95,244.52 399.84,244.52 ' style='stroke-width: 1.07; stroke: #EEEEEE; stroke-linecap: butt;' />
<polyline points='293.95,220.38 399.84,220.38 ' style='stroke-width: 1.07; stroke: #EEEEEE; stroke-linecap: butt;' />
<polyline points='293.95,196.23 399.84,196.23 ' style='stroke-width: 1.07; stroke: #EEEEEE; stroke-linecap: butt;' />
<polyline points='293.95,172.09 399.84,172.09 ' style='stroke-width: 1.07; stroke: #EEEEEE; stroke-linecap: butt;' />
<line x1='304.20' y1='237.38' x2='304.20' y2='208.50' style='stroke-width: 1.07; stroke: #333333; stroke-linecap: butt;' />
<line x1='304.20' y1='267.41' x2='304.20' y2='268.67' style='stroke-width: 1.07; stroke: #333333; stroke-linecap: butt;' />
<polygon points='297.79,237.38 297.79,267.41 310.60,267.41 310.60,237.38 297.79,237.38 ' style='stroke-width: 1.07; stroke: #333333; fill: #F8766D;' />
<line x1='297.79' y1='266.93' x2='310.60' y2='266.93' style='stroke-width: 2.13; stroke: #333333; stroke-linecap: butt;' />
<circle cx='321.28' cy='232.41' r='1.95' style='stroke-width: 0.71; stroke: #333333; fill: #333333;' />
<circle cx='321.28' cy='230.49' r='1.95' style='stroke-width: 0.71; stroke: #333333; fill: #333333;' />
<circle cx='321.28' cy='230.60' r='1.95' style='stroke-width: 0.71; stroke: #333333; fill: #333333;' />
<circle cx='321.28' cy='230.65' r='1.95' style='stroke-width: 0.71; stroke: #333333; fill: #333333;' />
<circle cx='321.28' cy='230.03' r='1.95' style='stroke-width: 0.71; stroke: #333333; fill: #333333;' />
<circle cx='321.28' cy='229.62' r='1.95' style='stroke-width: 0.71; stroke: #333333; fill: #333333;' />
<circle cx='321.28' cy='230.11' r='1.95' style='stroke-width: 0.71; stroke: #333333; fill: #333333;' />
<circle cx='321.28' cy='230.37' r='1.95' style='stroke-width: 0.71; stroke: #333333; fill: #333333;' />
<circle cx='321.28' cy='230.41' r='1.95' style='stroke-width: 0.71; stroke: #333333; fill: #333333;' />
<circle cx='321.28' cy='230.27' r='1.95' style='stroke-width: 0.71; stroke: #333333; fill: #333333;' />
<circle cx='321.28' cy='230.40' r='1.95' style='stroke-width: 0.71; stroke: #333333; fill: #333333;' />
<circle cx='321.28' cy='230.34' r='1.95' style='stroke-width: 0.71; stroke: #333333; fill: #333333;' />
<circle cx='321.28' cy='230.63' r='1.95' style='stroke-width: 0.71; stroke: #333333; fill: #333333;' />
<circle cx='321.28' cy='230.73' r='1.95' style='stroke-width: 0.71; stroke: #333333; fill: #333333;' />
<circle cx='321.28' cy='233.63' r='1.95' style='stroke-width: 0.71; stroke: #333333; fill: #333333;' />
<circle cx='321.28' cy='233.66' r='1.95' style='stroke-width: 0.71; stroke: #333333; fill: #333333;' />
<circle cx='321.28' cy='230.76' r='1.95' style='stroke-width: 0.71; stroke: #333333; fill: #333333;' />
<circle cx='321.28' cy='231.06' r='1.95' style='stroke-width: 0.71; stroke: #333333; fill: #333333;' />
<circle cx='321.28' cy='234.66' r='1.95' style='stroke-width: 0.71; stroke: #333333; fill: #333333;' />
<circle cx='321.28' cy='238.04' r='1.95' style='stroke-width: 0.71; stroke: #333333; fill: #333333;' />
<circle cx='321.28' cy='237.87' r='1.95' style='stroke-width: 0.71; stroke: #333333; fill: #333333;' />
<circle cx='321.28' cy='237.41' r='1.95' style='stroke-width: 0.71; stroke: #333333; fill: #333333;' />
<circle cx='321.28' cy='237.36' r='1.95' style='stroke-width: 0.71; stroke: #333333; fill: #333333;' />
<circle cx='321.28' cy='235.59' r='1.95' style='stroke-width: 0.71; stroke: #333333; fill: #333333;' />
<circle cx='321.28' cy='213.66' r='1.95' style='stroke-width: 0.71; stroke: #333333; fill: #333333;' />
<circle cx='321.28' cy='213.95' r='1.95' style='stroke-width: 0.71; stroke: #333333; fill: #333333;' />
<circle cx='321.28' cy='237.02' r='1.95' style='stroke-width: 0.71; stroke: #333333; fill: #333333;' />
<circle cx='321.28' cy='222.12' r='1.95' style='stroke-width: 0.71; stroke: #333333; fill: #333333;' />
<line x1='321.28' y1='256.51' x2='321.28' y2='238.53' style='stroke-width: 1.07; stroke: #333333; stroke-linecap: butt;' />
<line x1='321.28' y1='268.57' x2='321.28' y2='268.67' style='stroke-width: 1.07; stroke: #333333; stroke-linecap: butt;' />
<polygon points='314.87,256.51 314.87,268.57 327.68,268.57 327.68,256.51 314.87,256.51 ' style='stroke-width: 1.07; stroke: #333333; fill: #B79F00;' />
<line x1='314.87' y1='265.01' x2='327.68' y2='265.01' style='stroke-width: 2.13; stroke: #333333; stroke-linecap: butt;' />
<circle cx='338.36' cy='266.26' r='1.95' style='stroke-width: 0.71; stroke: #333333; fill: #333333;' />
<circle cx='338.36' cy='266.26' r='1.95' style='stroke-width: 0.71; stroke: #333333; fill: #333333;' />
<circle cx='338.36' cy='266.26' r='1.95' style='stroke-width: 0.71; stroke: #333333; fill: #333333;' />
<circle cx='338.36' cy='265.87' r='1.95' style='stroke-width: 0.71; stroke: #333333; fill: #333333;' />
<circle cx='338.36' cy='265.87' r='1.95' style='stroke-width: 0.71; stroke: #333333; fill: #333333;' />
<circle cx='338.36' cy='265.87' r='1.95' style='stroke-width: 0.71; stroke: #333333; fill: #333333;' />
<circle cx='338.36' cy='265.87' r='1.95' style='stroke-width: 0.71; stroke: #333333; fill: #333333;' />
<circle cx='338.36' cy='265.87' r='1.95' style='stroke-width: 0.71; stroke: #333333; fill: #333333;' />
<circle cx='338.36' cy='265.87' r='1.95' style='stroke-width: 0.71; stroke: #333333; fill: #333333;' />
<circle cx='338.36' cy='265.87' r='1.95' style='stroke-width: 0.71; stroke: #333333; fill: #333333;' />
<circle cx='338.36' cy='265.87' r='1.95' style='stroke-width: 0.71; stroke: #333333; fill: #333333;' />
<circle cx='338.36' cy='265.87' r='1.95' style='stroke-width: 0.71; stroke: #333333; fill: #333333;' />
<circle cx='338.36' cy='265.87' r='1.95' style='stroke-width: 0.71; stroke: #333333; fill: #333333;' />
<circle cx='338.36' cy='265.87' r='1.95' style='stroke-width: 0.71; stroke: #333333; fill: #333333;' />
<circle cx='338.36' cy='265.87' r='1.95' style='stroke-width: 0.71; stroke: #333333; fill: #333333;' />
<circle cx='338.36' cy='265.87' r='1.95' style='stroke-width: 0.71; stroke: #333333; fill: #333333;' />
<circle cx='338.36' cy='265.87' r='1.95' style='stroke-width: 0.71; stroke: #333333; fill: #333333;' />
<circle cx='338.36' cy='265.87' r='1.95' style='stroke-width: 0.71; stroke: #333333; fill: #333333;' />
<circle cx='338.36' cy='198.07' r='1.95' style='stroke-width: 0.71; stroke: #333333; fill: #333333;' />
<circle cx='338.36' cy='200.87' r='1.95' style='stroke-width: 0.71; stroke: #333333; fill: #333333;' />
<circle cx='338.36' cy='200.87' r='1.95' style='stroke-width: 0.71; stroke: #333333; fill: #333333;' />
<circle cx='338.36' cy='200.87' r='1.95' style='stroke-width: 0.71; stroke: #333333; fill: #333333;' />
<circle cx='338.36' cy='200.87' r='1.95' style='stroke-width: 0.71; stroke: #333333; fill: #333333;' />
<circle cx='338.36' cy='200.96' r='1.95' style='stroke-width: 0.71; stroke: #333333; fill: #333333;' />
<circle cx='338.36' cy='265.87' r='1.95' style='stroke-width: 0.71; stroke: #333333; fill: #333333;' />
<circle cx='338.36' cy='265.87' r='1.95' style='stroke-width: 0.71; stroke: #333333; fill: #333333;' />
<circle cx='338.36' cy='265.87' r='1.95' style='stroke-width: 0.71; stroke: #333333; fill: #333333;' />
<circle cx='338.36' cy='265.87' r='1.95' style='stroke-width: 0.71; stroke: #333333; fill: #333333;' />
<circle cx='338.36' cy='265.87' r='1.95' style='stroke-width: 0.71; stroke: #333333; fill: #333333;' />
<circle cx='338.36' cy='265.87' r='1.95' style='stroke-width: 0.71; stroke: #333333; fill: #333333;' />
<circle cx='338.36' cy='265.87' r='1.95' style='stroke-width: 0.71; stroke: #333333; fill: #333333;' />
<line x1='338.36' y1='267.25' x2='338.36' y2='267.23' style='stroke-width: 1.07; stroke: #333333; stroke-linecap: butt;' />
<line x1='338.36' y1='267.71' x2='338.36' y2='267.76' style='stroke-width: 1.07; stroke: #333333; stroke-linecap: butt;' />
<polygon points='331.95,267.25 331.95,267.71 344.76,267.71 344.76,267.25 331.95,267.25 ' style='stroke-width: 1.07; stroke: #333333; fill: #00BA38;' />
<line x1='331.95' y1='267.68' x2='344.76' y2='267.68' style='stroke-width: 2.13; stroke: #333333; stroke-linecap: butt;' />
<line x1='389.60' y1='188.30' x2='389.60' y2='171.16' style='stroke-width: 1.07; stroke: #333333; stroke-linecap: butt;' />
<line x1='389.60' y1='248.01' x2='389.60' y2='267.03' style='stroke-width: 1.07; stroke: #333333; stroke-linecap: butt;' />
<polygon points='383.19,188.30 383.19,248.01 396.00,248.01 396.00,188.30 383.19,188.30 ' style='stroke-width: 1.07; stroke: #333333; fill: #F564E3;' />
<line x1='383.19' y1='233.37' x2='396.00' y2='233.37' style='stroke-width: 2.13; stroke: #333333; stroke-linecap: butt;' />
</g>
<g clip-path='url(#cpMC4wMHw1MDQuMDB8MC4wMHwzNjAuMDA=)'>
</g>
<defs>
  <clipPath id='cpMzQuMzN8MTQwLjIzfDE0OS42MHwxNjYuMjg='>
    <rect x='34.33' y='149.60' width='105.90' height='16.69' />
  </clipPath>
</defs>
<g clip-path='url(#cpMzQuMzN8MTQwLjIzfDE0OS42MHwxNjYuMjg=)'>
<text x='87.28' y='161.01' text-anchor='middle' style='font-size: 8.80px; fill: #1A1A1A; font-family: IBM Plex Sans;' textLength='23.12px' lengthAdjust='spacingAndGlyphs'>South</text>
</g>
<g clip-path='url(#cpMC4wMHw1MDQuMDB8MC4wMHwzNjAuMDA=)'>
</g>
<defs>
  <clipPath id='cpMTU5LjY0fDI2NS41NHwxNDkuNjB8MTY2LjI4'>
    <rect x='159.64' y='149.60' width='105.90' height='16.69' />
  </clipPath>
</defs>
<g clip-path='url(#cpMTU5LjY0fDI2NS41NHwxNDkuNjB8MTY2LjI4)'>
<text x='212.59' y='161.01' text-anchor='middle' style='font-size: 8.80px; fill: #1A1A1A; font-family: IBM Plex Sans;' textLength='73.04px' lengthAdjust='spacingAndGlyphs'>Conservation Flow</text>
</g>
<g clip-path='url(#cpMC4wMHw1MDQuMDB8MC4wMHwzNjAuMDA=)'>
</g>
<defs>
  <clipPath id='cpMjkzLjk1fDM5OS44NHwxNDkuNjB8MTY2LjI4'>
    <rect x='293.95' y='149.60' width='105.90' height='16.69' />
  </clipPath>
</defs>
<g clip-path='url(#cpMjkzLjk1fDM5OS44NHwxNDkuNjB8MTY2LjI4)'>
<text x='346.90' y='161.01' text-anchor='middle' style='font-size: 8.80px; fill: #1A1A1A; font-family: IBM Plex Sans;' textLength='11.86px' lengthAdjust='spacingAndGlyphs'>NA</text>
</g>
<g clip-path='url(#cpMC4wMHw1MDQuMDB8MC4wMHwzNjAuMDA=)'>
</g>
<defs>
  <clipPath id='cpMzQuMzN8MTQwLjIzfDIwLjE3fDM2Ljg1'>
    <rect x='34.33' y='20.17' width='105.90' height='16.69' />
  </clipPath>
</defs>
<g clip-path='url(#cpMzQuMzN8MTQwLjIzfDIwLjE3fDM2Ljg1)'>
<text x='87.28' y='31.58' text-anchor='middle' style='font-size: 8.80px; fill: #1A1A1A; font-family: IBM Plex Sans;' textLength='17.20px' lengthAdjust='spacingAndGlyphs'>East</text>
</g>
<g clip-path='url(#cpMC4wMHw1MDQuMDB8MC4wMHwzNjAuMDA=)'>
</g>
<defs>
  <clipPath id='cpMTU5LjY0fDI2NS41NHwyMC4xN3wzNi44NQ=='>
    <rect x='159.64' y='20.17' width='105.90' height='16.69' />
  </clipPath>
</defs>
<g clip-path='url(#cpMTU5LjY0fDI2NS41NHwyMC4xN3wzNi44NQ==)'>
<text x='212.59' y='31.58' text-anchor='middle' style='font-size: 8.80px; fill: #1A1A1A; font-family: IBM Plex Sans;' textLength='20.04px' lengthAdjust='spacingAndGlyphs'>West</text>
</g>
<g clip-path='url(#cpMC4wMHw1MDQuMDB8MC4wMHwzNjAuMDA=)'>
</g>
<defs>
  <clipPath id='cpMjkzLjk1fDM5OS44NHwyMC4xN3wzNi44NQ=='>
    <rect x='293.95' y='20.17' width='105.90' height='16.69' />
  </clipPath>
</defs>
<g clip-path='url(#cpMjkzLjk1fDM5OS44NHwyMC4xN3wzNi44NQ==)'>
<text x='346.90' y='31.58' text-anchor='middle' style='font-size: 8.80px; fill: #1A1A1A; font-family: IBM Plex Sans;' textLength='22.46px' lengthAdjust='spacingAndGlyphs'>North</text>
</g>
<g clip-path='url(#cpMC4wMHw1MDQuMDB8MC4wMHwzNjAuMDA=)'>
<text transform='translate(50.72,303.73) rotate(-90)' text-anchor='middle' style='font-size: 8.80px; fill: #4D4D4D; font-family: IBM Plex Sans;' textLength='34.18px' lengthAdjust='spacingAndGlyphs'>Ashokan</text>
<text transform='translate(67.80,303.73) rotate(-90)' text-anchor='middle' style='font-size: 8.80px; fill: #4D4D4D; font-family: IBM Plex Sans;' textLength='39.42px' lengthAdjust='spacingAndGlyphs'>Schoharie</text>
<text transform='translate(84.88,303.73) rotate(-90)' text-anchor='middle' style='font-size: 8.80px; fill: #4D4D4D; font-family: IBM Plex Sans;' textLength='33.67px' lengthAdjust='spacingAndGlyphs'>Rondout</text>
<text transform='translate(101.96,303.73) rotate(-90)' text-anchor='middle' style='font-size: 8.80px; fill: #4D4D4D; font-family: IBM Plex Sans;' textLength='39.56px' lengthAdjust='spacingAndGlyphs'>Neversink</text>
<text transform='translate(119.04,303.73) rotate(-90)' text-anchor='middle' style='font-size: 8.80px; fill: #4D4D4D; font-family: IBM Plex Sans;' textLength='37.41px' lengthAdjust='spacingAndGlyphs'>Pepacton</text>
<text transform='translate(136.12,303.73) rotate(-90)' text-anchor='middle' style='font-size: 8.80px; fill: #4D4D4D; font-family: IBM Plex Sans;' textLength='50.51px' lengthAdjust='spacingAndGlyphs'>Cannonsville</text>
<text transform='translate(176.03,303.73) rotate(-90)' text-anchor='middle' style='font-size: 8.80px; fill: #4D4D4D; font-family: IBM Plex Sans;' textLength='34.18px' lengthAdjust='spacingAndGlyphs'>Ashokan</text>
<text transform='translate(193.11,303.73) rotate(-90)' text-anchor='middle' style='font-size: 8.80px; fill: #4D4D4D; font-family: IBM Plex Sans;' textLength='39.42px' lengthAdjust='spacingAndGlyphs'>Schoharie</text>
<text transform='translate(210.19,303.73) rotate(-90)' text-anchor='middle' style='font-size: 8.80px; fill: #4D4D4D; font-family: IBM Plex Sans;' textLength='33.67px' lengthAdjust='spacingAndGlyphs'>Rondout</text>
<text transform='translate(227.27,303.73) rotate(-90)' text-anchor='middle' style='font-size: 8.80px; fill: #4D4D4D; font-family: IBM Plex Sans;' textLength='39.56px' lengthAdjust='spacingAndGlyphs'>Neversink</text>
<text transform='translate(244.35,303.73) rotate(-90)' text-anchor='middle' style='font-size: 8.80px; fill: #4D4D4D; font-family: IBM Plex Sans;' textLength='37.41px' lengthAdjust='spacingAndGlyphs'>Pepacton</text>
<text transform='translate(261.43,303.73) rotate(-90)' text-anchor='middle' style='font-size: 8.80px; fill: #4D4D4D; font-family: IBM Plex Sans;' textLength='50.51px' lengthAdjust='spacingAndGlyphs'>Cannonsville</text>
<text transform='translate(310.34,303.73) rotate(-90)' text-anchor='middle' style='font-size: 8.80px; fill: #4D4D4D; font-family: IBM Plex Sans;' textLength='34.18px' lengthAdjust='spacingAndGlyphs'>Ashokan</text>
<text transform='translate(327.42,303.73) rotate(-90)' text-anchor='middle' style='font-size: 8.80px; fill: #4D4D4D; font-family: IBM Plex Sans;' textLength='39.42px' lengthAdjust='spacingAndGlyphs'>Schoharie</text>
<text transform='translate(344.50,303.73) rotate(-90)' text-anchor='middle' style='font-size: 8.80px; fill: #4D4D4D; font-family: IBM Plex Sans;' textLength='33.67px' lengthAdjust='spacingAndGlyphs'>Rondout</text>
<text transform='translate(361.58,303.73) rotate(-90)' text-anchor='middle' style='font-size: 8.80px; fill: #4D4D4D; font-family: IBM Plex Sans;' textLength='39.56px' lengthAdjust='spacingAndGlyphs'>Neversink</text>
<text transform='translate(378.66,303.73) rotate(-90)' text-anchor='middle' style='font-size: 8.80px; fill: #4D4D4D; font-family: IBM Plex Sans;' textLength='37.41px' lengthAdjust='spacingAndGlyphs'>Pepacton</text>
<text transform='translate(395.74,303.73) rotate(-90)' text-anchor='middle' style='font-size: 8.80px; fill: #4D4D4D; font-family: IBM Plex Sans;' textLength='50.51px' lengthAdjust='spacingAndGlyphs'>Cannonsville</text>
<text x='289.02' y='142.31' text-anchor='end' style='font-size: 8.80px; fill: #4D4D4D; font-family: IBM Plex Sans;' textLength='5.28px' lengthAdjust='spacingAndGlyphs'>0</text>
<text x='289.02' y='121.57' text-anchor='end' style='font-size: 8.80px; fill: #4D4D4D; font-family: IBM Plex Sans;' textLength='10.56px' lengthAdjust='spacingAndGlyphs'>50</text>
<text x='289.02' y='100.84' text-anchor='end' style='font-size: 8.80px; fill: #4D4D4D; font-family: IBM Plex Sans;' textLength='15.83px' lengthAdjust='spacingAndGlyphs'>100</text>
<text x='289.02' y='80.10' text-anchor='end' style='font-size: 8.80px; fill: #4D4D4D; font-family: IBM Plex Sans;' textLength='15.83px' lengthAdjust='spacingAndGlyphs'>150</text>
<text x='289.02' y='59.36' text-anchor='end' style='font-size: 8.80px; fill: #4D4D4D; font-family: IBM Plex Sans;' textLength='15.83px' lengthAdjust='spacingAndGlyphs'>200</text>
<text x='289.02' y='271.74' text-anchor='end' style='font-size: 8.80px; fill: #4D4D4D; font-family: IBM Plex Sans;' textLength='5.28px' lengthAdjust='spacingAndGlyphs'>0</text>
<text x='289.02' y='247.60' text-anchor='end' style='font-size: 8.80px; fill: #4D4D4D; font-family: IBM Plex Sans;' textLength='15.83px' lengthAdjust='spacingAndGlyphs'>250</text>
<text x='289.02' y='223.45' text-anchor='end' style='font-size: 8.80px; fill: #4D4D4D; font-family: IBM Plex Sans;' textLength='15.83px' lengthAdjust='spacingAndGlyphs'>500</text>
<text x='289.02' y='199.30' text-anchor='end' style='font-size: 8.80px; fill: #4D4D4D; font-family: IBM Plex Sans;' textLength='15.83px' lengthAdjust='spacingAndGlyphs'>750</text>
<text x='289.02' y='175.16' text-anchor='end' style='font-size: 8.80px; fill: #4D4D4D; font-family: IBM Plex Sans;' textLength='21.11px' lengthAdjust='spacingAndGlyphs'>1000</text>
<text x='154.71' y='271.74' text-anchor='end' style='font-size: 8.80px; fill: #4D4D4D; font-family: IBM Plex Sans;' textLength='5.28px' lengthAdjust='spacingAndGlyphs'>0</text>
<text x='154.71' y='250.54' text-anchor='end' style='font-size: 8.80px; fill: #4D4D4D; font-family: IBM Plex Sans;' textLength='5.28px' lengthAdjust='spacingAndGlyphs'>5</text>
<text x='154.71' y='229.34' text-anchor='end' style='font-size: 8.80px; fill: #4D4D4D; font-family: IBM Plex Sans;' textLength='10.56px' lengthAdjust='spacingAndGlyphs'>10</text>
<text x='154.71' y='208.15' text-anchor='end' style='font-size: 8.80px; fill: #4D4D4D; font-family: IBM Plex Sans;' textLength='10.56px' lengthAdjust='spacingAndGlyphs'>15</text>
<text x='154.71' y='186.95' text-anchor='end' style='font-size: 8.80px; fill: #4D4D4D; font-family: IBM Plex Sans;' textLength='10.56px' lengthAdjust='spacingAndGlyphs'>20</text>
<text x='29.40' y='271.74' text-anchor='end' style='font-size: 8.80px; fill: #4D4D4D; font-family: IBM Plex Sans;' textLength='5.28px' lengthAdjust='spacingAndGlyphs'>0</text>
<text x='29.40' y='250.99' text-anchor='end' style='font-size: 8.80px; fill: #4D4D4D; font-family: IBM Plex Sans;' textLength='10.56px' lengthAdjust='spacingAndGlyphs'>50</text>
<text x='29.40' y='230.23' text-anchor='end' style='font-size: 8.80px; fill: #4D4D4D; font-family: IBM Plex Sans;' textLength='15.83px' lengthAdjust='spacingAndGlyphs'>100</text>
<text x='29.40' y='209.47' text-anchor='end' style='font-size: 8.80px; fill: #4D4D4D; font-family: IBM Plex Sans;' textLength='15.83px' lengthAdjust='spacingAndGlyphs'>150</text>
<text x='29.40' y='188.72' text-anchor='end' style='font-size: 8.80px; fill: #4D4D4D; font-family: IBM Plex Sans;' textLength='15.83px' lengthAdjust='spacingAndGlyphs'>200</text>
<text x='217.09' y='342.90' text-anchor='middle' style='font-size: 11.00px; font-family: IBM Plex Sans;' textLength='46.89px' lengthAdjust='spacingAndGlyphs'>Reservoir</text>
<text transform='translate(13.16,155.20) rotate(-90)' text-anchor='middle' style='font-size: 11.00px; font-family: IBM Plex Sans;' textLength='39.39px' lengthAdjust='spacingAndGlyphs'>Release</text>
<rect x='410.80' y='90.30' width='87.72' height='129.80' style='stroke-width: 1.07; stroke: #EEEEEE; fill: #FFFFFF;' />
<text x='454.66' y='104.46' text-anchor='middle' style='font-size: 11.00px; font-family: IBM Plex Sans;' textLength='46.89px' lengthAdjust='spacingAndGlyphs'>Reservoir</text>
<polyline points='424.92,126.49 424.92,123.90 ' style='stroke-width: 1.07; stroke: #333333;' />
<polyline points='424.92,115.26 424.92,112.67 ' style='stroke-width: 1.07; stroke: #333333;' />
<rect x='418.44' y='115.26' width='12.96' height='8.64' style='stroke-width: 1.07; stroke: #333333; fill: #F8766D;' />
<polyline points='418.44,119.58 431.40,119.58 ' style='stroke-width: 1.07; stroke: #333333;' />
<polyline points='424.92,143.77 424.92,141.18 ' style='stroke-width: 1.07; stroke: #333333;' />
<polyline points='424.92,132.54 424.92,129.95 ' style='stroke-width: 1.07; stroke: #333333;' />
<rect x='418.44' y='132.54' width='12.96' height='8.64' style='stroke-width: 1.07; stroke: #333333; fill: #B79F00;' />
<polyline points='418.44,136.86 431.40,136.86 ' style='stroke-width: 1.07; stroke: #333333;' />
<polyline points='424.92,161.05 424.92,158.46 ' style='stroke-width: 1.07; stroke: #333333;' />
<polyline points='424.92,149.82 424.92,147.23 ' style='stroke-width: 1.07; stroke: #333333;' />
<rect x='418.44' y='149.82' width='12.96' height='8.64' style='stroke-width: 1.07; stroke: #333333; fill: #00BA38;' />
<polyline points='418.44,154.14 431.40,154.14 ' style='stroke-width: 1.07; stroke: #333333;' />
<polyline points='424.92,178.33 424.92,175.74 ' style='stroke-width: 1.07; stroke: #333333;' />
<polyline points='424.92,167.10 424.92,164.51 ' style='stroke-width: 1.07; stroke: #333333;' />
<rect x='418.44' y='167.10' width='12.96' height='8.64' style='stroke-width: 1.07; stroke: #333333; fill: #00BFC4;' />
<polyline points='418.44,171.42 431.40,171.42 ' style='stroke-width: 1.07; stroke: #333333;' />
<polyline points='424.92,195.61 424.92,193.02 ' style='stroke-width: 1.07; stroke: #333333;' />
<polyline points='424.92,184.38 424.92,181.79 ' style='stroke-width: 1.07; stroke: #333333;' />
<rect x='418.44' y='184.38' width='12.96' height='8.64' style='stroke-width: 1.07; stroke: #333333; fill: #619CFF;' />
<polyline points='418.44,188.70 431.40,188.70 ' style='stroke-width: 1.07; stroke: #333333;' />
<polyline points='424.92,212.89 424.92,210.30 ' style='stroke-width: 1.07; stroke: #333333;' />
<polyline points='424.92,201.66 424.92,199.07 ' style='stroke-width: 1.07; stroke: #333333;' />
<rect x='418.44' y='201.66' width='12.96' height='8.64' style='stroke-width: 1.07; stroke: #333333; fill: #F564E3;' />
<polyline points='418.44,205.98 431.40,205.98 ' style='stroke-width: 1.07; stroke: #333333;' />
<text x='439.04' y='122.65' style='font-size: 8.80px; font-family: IBM Plex Sans;' textLength='34.18px' lengthAdjust='spacingAndGlyphs'>Ashokan</text>
<text x='439.04' y='139.93' style='font-size: 8.80px; font-family: IBM Plex Sans;' textLength='39.42px' lengthAdjust='spacingAndGlyphs'>Schoharie</text>
<text x='439.04' y='157.21' style='font-size: 8.80px; font-family: IBM Plex Sans;' textLength='33.67px' lengthAdjust='spacingAndGlyphs'>Rondout</text>
<text x='439.04' y='174.49' style='font-size: 8.80px; font-family: IBM Plex Sans;' textLength='39.56px' lengthAdjust='spacingAndGlyphs'>Neversink</text>
<text x='439.04' y='191.77' style='font-size: 8.80px; font-family: IBM Plex Sans;' textLength='37.41px' lengthAdjust='spacingAndGlyphs'>Pepacton</text>
<text x='439.04' y='209.05' style='font-size: 8.80px; font-family: IBM Plex Sans;' textLength='50.51px' lengthAdjust='spacingAndGlyphs'>Cannonsville</text>
<text x='34.33' y='14.69' style='font-size: 13.20px; font-family: IBM Plex Sans;' textLength='351.26px' lengthAdjust='spacingAndGlyphs'>Water Release from Upstate Reservoirs (millions of gallons)</text>
<text x='498.52' y='354.52' text-anchor='end' style='font-size: 8.80px; font-family: IBM Plex Sans;' textLength='211.13px' lengthAdjust='spacingAndGlyphs'>Source: NYC Department of Environmental Protection</text>
</g>
</svg>
